Place,Sex,Name,CyrillicName,BodyweightKg,Squat1Kg,Squat2Kg,Squat3Kg,Best3SquatKg,Squat4Kg,Bench1Kg,Bench2Kg,Bench3Kg,Best3BenchKg,Bench4Kg,Deadlift1Kg,Deadlift2Kg,Deadlift3Kg,Best3DeadliftKg,Deadlift4Kg,TotalKg,WeightClassKg,Event,Equipment,Tested,Division,Age,BirthDate
1,M,Evgeniy Morin,Евгений Морин,79.6,95,110,-130,110,,85,-100,-100,85,,120,130,140,140,,335,82.5,SBD,Wraps,Yes,Amateur Open,37,1981-06-11
1,M,Amo Ozmanyan,Амо Озманян,89.1,-190,190,205,205,,140,145,-150,145,,-240,240,-255,240,,590,90,SBD,Wraps,No,Pro Open,22,1996-07-02
1,M,Anton Panteleev,Антон Пантелеев,64.5,,,,,,100,-107.5,-107.5,100,,,,,,,100,67.5,B,Raw,Yes,Amateur Juniors 20-23,23,1995-07-21
1,M,Igor Sazhin,Игорь Сажин,67.2,,,,,,110,125,-130,125,,,,,,,125,67.5,B,Raw,Yes,Amateur Open,35,1982-11-03
1,M,Dmitriy Antonov,Дмитрий Антонов,74,,,,,,117.5,-120,125,125,,,,,,,125,75,B,Raw,Yes,Amateur Teen 17-19,19,1998-11-11
1,M,Andrey Samodurov,Андрей Самодуров,81.8,,,,,,127.5,130,-132.5,130,,,,,,,130,82.5,B,Raw,Yes,Amateur Open,27,1991-05-01
2,M,Andrey Kochukov,Андрей Кочуков,82.4,,,,,,117.5,-127.5,-127.5,117.5,,,,,,,117.5,82.5,B,Raw,Yes,Amateur Open,32,1986-09-03
3,M,Evgeniy Morin,Евгений Морин,79.6,,,,,,85,-100,-100,85,,,,,,,85,82.5,B,Raw,Yes,Amateur Open,37,1981-06-11
DQ,M,Konstantin Titov,Константин Титов,80.7,,,,,,-137.5,-137.5,,,,,,,,,,82.5,B,Raw,Yes,Amateur Open,31,1986-09-30
1,M,Ruslan Smoyan,Руслан Смоян,87,,,,,,-135,135,-140,135,,,,,,,135,90,B,Raw,Yes,Amateur Juniors 20-23,22,1995-10-16
1,M,Vladislav Golovatyy,Владислав Головатый,90,,,,,,155,162.5,170,170,,,,,,,170,90,B,Raw,Yes,Amateur Open,30,1988-07-15
1,M,Aleksandr Kuznetsov,Александр Кузнецов,97.7,,,,,,175,185,-192.5,185,,,,,,,185,100,B,Raw,Yes,Amateur Open,21,1996-11-18
2,M,Roman Podolskmy,Роман Подольскмй,99.9,,,,,,155,-162.5,-162.5,155,,,,,,,155,100,B,Raw,Yes,Amateur Open,38,1980-01-27
1,M,Mikhail Kalinin,Михаил Калинин,109.6,,,,,,150,160,-162.5,160,,,,,,,160,110,B,Raw,Yes,Amateur Masters 40-49,43,1975-07-22
1,F,Elena Makarova,Елена Макарова,73.6,,,,,,55,60,65,65,,,,,,,65,75,B,Raw,No,Pro Masters 50-59,56,1962-08-08
1,M,Daniil Ivanov,Даниил Иванов,63.9,,,,,,62.5,-70,-70,62.5,,,,,,,62.5,67.5,B,Raw,No,Pro Teen 14-16,15,2003-08-11
2,M,Pavel Ulyanenko,Павел Ульяненко,64.1,,,,,,57.5,-60,-60,57.5,,,,,,,57.5,67.5,B,Raw,No,Pro Teen 14-16,16,2002-04-11
1,M,Maksim Lamin,Максим Ламин,78.8,,,,,,155,157.5,-160,157.5,,,,,,,157.5,82.5,B,Raw,No,Pro Open,25,1993-08-07
1,M,Sergey Fedorov,Сергей Федоров,85.4,,,,,,152.5,157.5,162.5,162.5,,,,,,,162.5,90,B,Raw,No,Pro Open,30,1987-11-07
1,M,Dmitriy Filin,Дмитрий Филин,97,,,,,,170,180,187.5,187.5,,,,,,,187.5,100,B,Raw,No,Pro Open,28,1990-01-23
2,M,Aleksey Antonov,Алексей Антонов,96.9,,,,,,175,185,-192.5,185,,,,,,,185,100,B,Raw,No,Pro Open,29,1988-10-09
3,M,Nikolay Polyakov,Николай Поляков,97.9,,,,,,172.5,185,-190,185,,,,,,,185,100,B,Raw,No,Pro Open,24,1994-05-27
4,M,Maksim Yushkov,Максим Юшков,91,,,,,,155,-160,162.5,162.5,,,,,,,162.5,100,B,Raw,No,Pro Open,27,1991-06-05
5,M,Vladimir Mukin,Владимир Мукин,97,,,,,,150,155,-160,155,,,,,,,155,100,B,Raw,No,Pro Open,42,1976-05-01
1,M,Vladimir Mukin,Владимир Мукин,97,,,,,,150,155,-160,155,,,,,,,155,100,B,Raw,No,Pro Masters 40-49,42,1976-05-01
1,M,Nikolay Kosenkov,Николай Косенков,71.6,,,,,,,,,,,200,220,225,225,,225,75,D,Raw,Yes,Amateur Open,29,1989-03-09
2,M,Vladimir Samsonenko,Владимир Самсоненко,74.7,,,,,,,,,,,-160,-160,160,160,,160,75,D,Raw,Yes,Amateur Open,24,1994-07-26
1,M,Ilya Samsonov,Илья Самсонов,79.9,,,,,,,,,,,160,167.5,-175,167.5,,167.5,82.5,D,Raw,Yes,Amateur Juniors 20-23,20,1997-11-11
1,M,Konstantin Zhurkov,Константин Журков,78.5,,,,,,,,,,,167.5,-180,-190,167.5,,167.5,82.5,D,Raw,Yes,Amateur Open,33,1984-12-25
1,M,Vadim Samsonov,Вадим Самсонов,124.6,,,,,,,,,,,240,250,-257.5,250,,250,125,D,Raw,Yes,Amateur Masters 40-49,43,1974-12-05
1,F,Bozhena Borodina,Божена Бородина,66.4,,,,,,,,,,,90,97.5,-105,97.5,,97.5,67.5,D,Raw,No,Pro Juniors 20-23,20,1998-02-03
1,F,Anna Bobrova,Анна Боброва,63.9,,,,,,,,,,,105,115,120,120,,120,67.5,D,Raw,No,Pro Masters 40-49,41,1977-03-01
1,M,Maksim Merkulov,Максим Меркулов,75,,,,,,,,,,,215,230,237.5,237.5,,237.5,75,D,Raw,No,Pro Juniors 20-23,20,1998-02-07
1,M,Sergey Fomin,Сергей Фомин,80.9,,,,,,,,,,,-280,280,-290,280,,280,82.5,D,Raw,No,Pro Open,35,1983-04-16
2,M,Valeriy Zinovev,Валерий Зиновьев,81.4,,,,,,,,,,,180,190,-200,190,,190,82.5,D,Raw,No,Pro Open,29,1988-12-10
1,M,Nikita Khudyakov,Никита Худяков,90,,,,,,,,,,,185,195,-205,195,,195,90,D,Raw,No,Pro Juniors 20-23,22,1996-08-07
1,M,Pavel Redkin,Павел Редькин,89,,,,,,,,,,,250,265,275,275,,275,90,D,Raw,No,Pro Open,39,1979-07-26
1,M,Oleg Kostylev,Олег Костылев,95.9,,,,,,,,,,,160,170,180,180,,180,100,D,Raw,No,Pro Open,25,1992-10-27
