Division,WeightClassKg,Place,Name,Team,BodyweightKg,Best3SquatKg,Best3BenchKg,Best3DeadliftKg,TotalKg,Equipment,Event,Sex
Boys,51.71,1,John Francis,Tolar,46.63,72.57,43.09,77.11,192.78,Single-ply,SBD,M
Boys,55.79,1,Lorenzo Bustamante,Cross Plains,54.7,136.08,61.23,149.69,347,Single-ply,SBD,M
Boys,55.79,2,Damion Wilborn,Ballinger,54.25,95.25,54.43,106.59,256.28,Single-ply,SBD,M
Boys,55.79,3,Glen Gent,Glen Rose,52.62,74.84,38.56,102.06,215.46,Single-ply,SBD,M
Boys,55.79,DQ,Daniel Pina,Comanche,53.43,138.35,74.84,,,Single-ply,SBD,M
Boys,59.87,1,Keith Ray,Stephenville,58.69,163.29,86.18,163.29,412.77,Single-ply,SBD,M
Boys,59.87,2,Stanley Stevens,Ranger,59.42,165.56,86.18,156.49,408.23,Single-ply,SBD,M
Boys,59.87,3,Cesar Galvan,Dublin,57.15,129.27,81.65,149.69,360.61,Single-ply,SBD,M
Boys,59.87,4,Joe Crockett,Cross Plains,59.6,142.88,65.77,145.15,353.8,Single-ply,SBD,M
Boys,59.87,5,Cesar Montano,Stephenville,58.51,140.61,77.11,127.01,344.73,Single-ply,SBD,M
Boys,59.87,6,Dillon Graves,Glen Rose,57.97,108.86,77.11,151.95,337.93,Single-ply,SBD,M
Boys,59.87,7,Juan Rodriguez,Dublin,59.42,111.13,70.31,136.08,317.51,Single-ply,SBD,M
Boys,67.13,1,Cesar Herrera,Glen Rose,65.05,208.65,120.2,217.72,546.58,Single-ply,SBD,M
Boys,67.13,2,Hayden Monk,Stephenville,66.32,151.95,79.38,167.83,399.16,Single-ply,SBD,M
Boys,67.13,3,Daniel Rosales,San Saba,60.06,129.27,86.18,167.83,383.29,Single-ply,SBD,M
Boys,67.13,4,Max Lauderdale,Glen Rose,63.78,131.54,86.18,147.42,365.14,Single-ply,SBD,M
Boys,67.13,5,Bowen Johnson,Coleman,64.77,120.2,79.38,149.69,349.27,Single-ply,SBD,M
Boys,67.13,6,Anthony Larrea,Early,63.5,129.27,77.11,140.61,347,Single-ply,SBD,M
Boys,67.13,7,Blake Pettit,Hamilton,63.32,115.67,74.84,142.88,333.39,Single-ply,SBD,M
Boys,67.13,8,Daniel Rodriguez #5,Dublin,60.06,111.13,81.65,131.54,324.32,Single-ply,SBD,M
Boys,67.13,9,Marc Anthony Lopez,Gustine,63.78,90.72,74.84,122.47,288.03,Single-ply,SBD,M
Boys,67.13,10,Hayden Garvin,Ballinger,67.13,97.52,61.23,111.13,269.89,Single-ply,SBD,M
Boys,67.13,11,Joseph Brannon,Stephenville,62.6,92.99,58.97,92.99,244.94,Single-ply,SBD,M
Boys,67.13,DQ,Ryan Martinez,Tolar,66.5,,111.13,163.29,,Single-ply,SBD,M
Boys,67.13,DQ,Chase Keilers,Early,66.41,,65.77,145.15,,Single-ply,SBD,M
Boys,74.84,1,Jacob Riley,Dublin,73.3,195.04,102.06,240.4,537.51,Single-ply,SBD,M
Boys,74.84,2,Grant Mitchell,Early,74.39,161.03,115.67,204.12,480.81,Single-ply,SBD,M
Boys,74.84,3,Martin Najera,Hamilton,74.21,174.63,102.06,181.44,458.13,Single-ply,SBD,M
Boys,74.84,4,Adrian Pena,Ballinger,71.49,167.83,102.06,185.97,455.86,Single-ply,SBD,M
Boys,74.84,5,Hayden Turner,Early,70.85,161.03,83.91,176.9,421.84,Single-ply,SBD,M
Boys,74.84,6,Joe Gilligan,Comanche,71.89,163.29,81.65,172.37,417.3,Single-ply,SBD,M
Boys,74.84,7,Austin Rosales,Coleman,72.3,136.08,88.45,181.44,405.97,Single-ply,SBD,M
Boys,74.84,8,Jacob Winters,Lingleville,73.84,149.69,81.65,147.42,378.75,Single-ply,SBD,M
Boys,74.84,9,Mason Flippin,Early,69.31,136.08,88.45,147.42,371.95,Single-ply,SBD,M
Boys,74.84,10,AJ Escamilla,Gustine,68.22,142.88,65.77,161.03,369.68,Single-ply,SBD,M
Boys,74.84,11,Brendon Gilbreath,Coleman,72.94,140.61,70.31,149.69,360.61,Single-ply,SBD,M
Boys,74.84,12,Brian Morales,Cross Plains,68.58,124.74,74.84,147.42,347,Single-ply,SBD,M
Boys,74.84,13,Jayton Richardson,Ranger,72.03,129.27,61.23,147.42,337.93,Single-ply,SBD,M
Boys,74.84,14,Avery Williams,Ranger,74.84,117.93,61.23,147.42,326.59,Single-ply,SBD,M
Boys,74.84,DQ,James Young,Hamilton,74.21,,79.38,127.01,,Single-ply,SBD,M
Boys,82.1,1,Nacho Rios,Comanche,78.02,204.12,140.61,185.97,530.7,Single-ply,SBD,M
Boys,82.1,2,Jeffery Beatty,Ranger,75.66,185.97,92.99,174.63,453.59,Single-ply,SBD,M
Boys,82.1,3,Issac De La Cruz,Stephenville,79.56,165.56,108.86,167.83,442.25,Single-ply,SBD,M
Boys,82.1,4,Tate Swearengin,Glen Rose,79.83,156.49,111.13,172.37,439.98,Single-ply,SBD,M
Boys,82.1,5,Matthew Hamilton,Comanche,80.29,158.76,92.99,174.63,426.38,Single-ply,SBD,M
Boys,82.1,6,Chase Clawson,Early,78.38,156.49,74.84,181.44,412.77,Single-ply,SBD,M
Boys,82.1,7,Massio Sanchez,Coleman,76.11,158.76,83.91,158.76,401.43,Single-ply,SBD,M
Boys,82.1,8,Andrew Garcia,Comanche,80.1,136.08,83.91,158.76,378.75,Single-ply,SBD,M
Boys,82.1,9,Cristian Vazquez,Dublin,78.02,151.95,88.45,133.81,374.21,Single-ply,SBD,M
Boys,82.1,10,Gavin Farrar,Comanche,79.29,131.54,83.91,154.22,369.68,Single-ply,SBD,M
Boys,82.1,11,Nate Hoodie,Ranger,80.47,129.27,97.52,136.08,362.87,Single-ply,SBD,M
Boys,82.1,12,Jacob McNab,Tolar,80.65,138.35,72.57,124.74,335.66,Single-ply,SBD,M
Boys,82.1,13,Keegan Bunt,Glen Rose,77.47,115.67,74.84,124.74,315.25,Single-ply,SBD,M
Boys,82.1,DQ,Eric Diehl,Early,75.93,154.22,,170.1,,Single-ply,SBD,M
Boys,82.1,DQ,Colby Trinkle,Tolar,76.11,151.95,,154.22,,Single-ply,SBD,M
Boys,89.81,1,Ragan Wood,Stephenville,88.9,258.55,147.42,226.8,632.76,Single-ply,SBD,M
Boys,89.81,2,Payton Nance,Comanche,84.73,226.8,124.74,238.14,589.67,Single-ply,SBD,M
Boys,89.81,3,Dalton Gilliam,Cross Plains,86.82,204.12,122.47,217.72,544.31,Single-ply,SBD,M
Boys,89.81,4,Aaron Willis,Cross Plains,88.72,215.46,106.59,199.58,521.63,Single-ply,SBD,M
Boys,89.81,5,Emiliano Jimenez,Comanche,83.46,181.44,122.47,188.24,492.15,Single-ply,SBD,M
Boys,89.81,6,James Briggs,Cross Plains,87.09,172.37,99.79,195.04,467.2,Single-ply,SBD,M
Boys,89.81,7,Mikey Golden,Brock,82.19,181.44,102.06,170.1,453.59,Single-ply,SBD,M
Boys,89.81,8,Hunter Wheeler,Ballinger,83.73,165.56,86.18,161.03,412.77,Single-ply,SBD,M
Boys,89.81,9,Sammy Guerraro,Cross Plains,83.28,154.22,88.45,154.22,396.89,Single-ply,SBD,M
Boys,89.81,10,Ty Taylor,Tolar,85,158.76,70.31,149.69,378.75,Single-ply,SBD,M
Boys,89.81,11,John Sistrunk,Tolar,89.18,142.88,92.99,120.2,356.07,Single-ply,SBD,M
Boys,89.81,12,Michael Crowley,Ranger,83.73,136.08,70.31,147.42,353.8,Single-ply,SBD,M
Boys,89.81,DQ,Dylon Frailey,Glen Rose,85.09,113.4,74.84,,,Single-ply,SBD,M
Boys,89.81,DQ,Jayton Hallmark,Brock,89.36,170.1,,170.1,,Single-ply,SBD,M
Boys,99.79,1,Braxton Barrios,Glen Rose,96.34,238.14,147.42,226.8,612.35,Single-ply,SBD,M
Boys,99.79,2,Cody Wilson,Hamilton,92.62,219.99,113.4,226.8,560.19,Single-ply,SBD,M
Boys,99.79,3,Nathan Martin,Stephenville,94.26,192.78,111.13,185.97,489.88,Single-ply,SBD,M
Boys,99.79,4,Niem Martinez,Cross Plains,89.9,192.78,108.86,167.83,469.47,Single-ply,SBD,M
Boys,99.79,5,Yuri White,Glen Rose,94.08,158.76,108.86,181.44,449.06,Single-ply,SBD,M
Boys,99.79,6,Jacob Collier,Cross Plains,94.08,172.37,102.06,161.03,435.45,Single-ply,SBD,M
Boys,99.79,7,Tre Rose,Brock,98.88,192.78,99.79,142.88,435.45,Single-ply,SBD,M
Boys,99.79,8,Sage Boleman,Brock,93.35,165.56,104.33,158.76,428.64,Single-ply,SBD,M
Boys,99.79,9,Nick Lara,Glen Rose,98.7,154.22,108.86,158.76,421.84,Single-ply,SBD,M
Boys,99.79,10,James Ryan,Cross Plains,98.97,174.63,83.91,136.08,394.63,Single-ply,SBD,M
Boys,99.79,11,Adolf Medina,Ballinger,94.26,145.15,83.91,156.49,385.55,Single-ply,SBD,M
Boys,99.79,12,Alex Lowe,Coleman,91.26,120.2,63.5,117.93,301.64,Single-ply,SBD,M
Boys,99.79,DQ,Astin Carr,Hamilton,89.9,158.76,81.65,,,Single-ply,SBD,M
Boys,109.77,1,Weston Conine,Comanche,104.6,183.7,124.74,181.44,489.88,Single-ply,SBD,M
Boys,109.77,2,Briones Divad,Ballinger,108.14,181.44,129.27,165.56,476.27,Single-ply,SBD,M
Boys,109.77,3,Ross Bates,Hamilton,101.88,147.42,95.25,170.1,412.77,Single-ply,SBD,M
Boys,109.77,4,Donavon Moore,Gustine,103.96,161.03,86.18,158.76,405.97,Single-ply,SBD,M
Boys,124.74,1,Pedro Bernal,Comanche,120.93,294.84,142.88,238.14,675.85,Single-ply,SBD,M
Boys,124.74,2,Matt Willis,Glen Rose,110.68,233.6,117.93,217.72,569.26,Single-ply,SBD,M
Boys,124.74,3,Diesel Ceresini,Early,124.47,204.12,104.33,190.51,498.95,Single-ply,SBD,M
Boys,124.74,4,Leo Garcia,Gustine,111.67,199.58,88.45,165.56,453.59,Single-ply,SBD,M
Boys,124.74,5,Bryen Healey,Dublin,118.39,181.44,83.91,145.15,410.5,Single-ply,SBD,M
Boys,124.74,DQ,Austin Northcutt,Stephenville,121.38,,161.03,238.14,,Single-ply,SBD,M
Boys,124.74+,1,Jacob Lopez,Stephenville,143.88,210.92,133.81,217.72,562.45,Single-ply,SBD,M
Boys,124.74+,2,Connor Murphy,Early,140.8,199.58,113.4,190.51,503.49,Single-ply,SBD,M
Boys,124.74+,3,Tayden Benson,Coleman,176.81,199.58,95.25,158.76,453.59,Single-ply,SBD,M
Boys,124.74+,4,John Brunner,Brock,125.92,136.08,88.45,142.88,367.41,Single-ply,SBD,M
Boys,,NS,Gino Marks,Coleman,,,,,,Single-ply,SBD,M
Boys,,NS,Dylan Robles,Coleman,,,,,,Single-ply,SBD,M
Boys,,NS,Zachary Gartman,Cross Plains,,,,,,Single-ply,SBD,M
Boys,,NS,Christian Alcorta,Early,,,,,,Single-ply,SBD,M
Boys,,NS,Logan Thomas,Early,,,,,,Single-ply,SBD,M
Boys,,NS,Martin Majer,Hamilton,,,,,,Single-ply,SBD,M
Boys,,NS,Trevor Sellers,Hamilton,,,,,,Single-ply,SBD,M
Boys,,NS,Jacob Silcox,Tolar,,,,,,Single-ply,SBD,M
Boys,,NS,Mark Miller,Tolar,,,,,,Single-ply,SBD,M
Boys,,NS,Zac Cody,Stephenville,,,,,,Single-ply,SBD,M
Boys,,NS,James Harrison,Tolar,,,,,,Single-ply,SBD,M
Boys,,NS,Sawyer Barron,Ranger,,,,,,Single-ply,SBD,M
Boys,,NS,Wyatt Catoe,Hamilton,,,,,,Single-ply,SBD,M
Boys,,NS,Eduardo Vega,San Saba,,,,,,Single-ply,SBD,M
Boys,,NS,Stone Sealy,San Saba,,,,,,Single-ply,SBD,M
