Division,WeightClassKg,Place,Name,Team,BodyweightKg,Best3SquatKg,Best3BenchKg,Best3DeadliftKg,TotalKg,Equipment,Event,Sex
Boys,55.79,1,Timothy Le,Port Neches-Groves,52.44,102.06,56.7,102.06,260.82,Single-ply,SBD,M
Boys,59.87,2,Brett Jackson,Beaumont West Brook,55.97,81.65,38.56,97.52,217.72,Single-ply,SBD,M
Boys,67.13,1,Kendrick Sonnier,Port Arthur Memorial,59.96,181.44,81.65,174.63,437.72,Single-ply,SBD,M
Boys,59.87,2,Dominique Johnson,Beaumont Central,59.51,140.61,83.91,167.83,392.36,Single-ply,SBD,M
Boys,67.13,3,Dariun Hunter,Port Arthur Memorial,60.06,145.15,86.18,158.76,390.09,Single-ply,SBD,M
Boys,59.87,4,Roland Royce,Port Neches-Groves,59.42,113.4,81.65,145.15,340.19,Single-ply,SBD,M
Boys,67.13,1,Arnaldo Garcia,Port Arthur Memorial,66.04,172.37,102.06,183.7,458.13,Single-ply,SBD,M
Boys,67.13,2,Steve Jones,Beaumont West Brook,66.86,140.61,97.52,165.56,403.7,Single-ply,SBD,M
Boys,67.13,3,Anthony Garcia,Port Neches-Groves,64.68,147.42,83.91,151.95,383.29,Single-ply,SBD,M
Boys,67.13,DQ,David Joseph,Beaumont West Brook,63.68,102.06,65.77,,,Single-ply,SBD,M
Boys,74.84,1,Rodney Kinchen,Port Arthur Memorial,73.39,219.99,120.2,213.19,553.38,Single-ply,SBD,M
Boys,74.84,2,Russhun Limbrick,Beaumont West Brook,71.67,195.04,113.4,192.78,501.22,Single-ply,SBD,M
Boys,74.84,3,Daniel McDonald,Beaumont West Brook,73.75,170.1,113.4,197.31,480.81,Single-ply,SBD,M
Boys,74.84,4,James Jones,Beaumont West Brook,69.85,181.44,97.52,185.97,464.93,Single-ply,SBD,M
Boys,82.1,5,Reggie Allison,Beaumont Central,75.02,176.9,104.33,183.7,464.93,Single-ply,SBD,M
Boys,74.84,6,Harold Redo,Beaumont Central,72.67,167.83,83.91,161.03,412.77,Single-ply,SBD,M
Boys,74.84,7,Theo Foster,Beaumont Central,73.94,145.15,83.91,165.56,394.63,Single-ply,SBD,M
Boys,89.81,1,Jace Runnels,Port Neches-Groves,82.19,215.46,142.88,188.24,546.58,Single-ply,SBD,M
Boys,82.1,2,Davion Smith,Beaumont Central,82.01,181.44,136.08,195.04,512.56,Single-ply,SBD,M
Boys,82.1,3,Chris Almaguer,Beaumont West Brook,82.1,192.78,106.59,185.97,485.34,Single-ply,SBD,M
Boys,89.81,4,Cole Robinson,Port Neches-Groves,82.19,192.78,120.2,170.1,483.08,Single-ply,SBD,M
Boys,82.1,5,Jakobi Harris,Beaumont West Brook,80.2,176.9,95.25,206.38,478.54,Single-ply,SBD,M
Boys,82.1,6,Corbin Stepan,Port Neches-Groves,81.56,158.76,90.72,124.74,374.21,Single-ply,SBD,M
Boys,82.1,DQ,Clayton Holman,Port Neches-Groves,80.47,181.44,,,,Single-ply,SBD,M
Boys,82.1,DQ,Odis Mack,Port Arthur Memorial,75.84,190.51,,,,Single-ply,SBD,M
Boys,89.81,1,Desmond Veals,Beaumont West Brook,86.45,199.58,113.4,210.92,523.9,Single-ply,SBD,M
Boys,89.81,2,JaeCorien Barnes,Port Arthur Memorial,89.18,215.46,113.4,188.24,517.1,Single-ply,SBD,M
Boys,99.79,3,Mykel Thomas,Port Arthur Memorial,89.99,163.29,99.79,195.04,458.13,Single-ply,SBD,M
Boys,89.81,4,Jorge Ochoa,Beaumont West Brook,84.73,172.37,108.86,170.1,451.32,Single-ply,SBD,M
Boys,89.81,5,Jamichael Kyles,Beaumont Central,89.72,147.42,92.99,151.95,392.36,Single-ply,SBD,M
Boys,99.79,1,Evander Williams,Beaumont Central,91.63,142.88,90.72,170.1,403.7,Single-ply,SBD,M
Boys,124.74,1,Kanien Collins,Port Arthur Memorial,109.95,217.72,120.2,213.19,551.11,Single-ply,SBD,M
Boys,109.77,2,Casey Williams,Port Arthur Memorial,105.23,201.85,129.27,204.12,535.24,Single-ply,SBD,M
Boys,124.74,1,Christian Bluiett,Beaumont West Brook,116.48,263.08,158.76,267.62,689.46,Single-ply,SBD,M
Boys,124.74,2,Tyler Moran,Port Neches-Groves,115.03,263.08,192.78,231.33,687.19,Single-ply,SBD,M
Boys,124.74,3,Dewayne Robertson,Beaumont Central,114.21,233.6,127.01,226.8,587.4,Single-ply,SBD,M
Boys,124.74,4,Lloyd Allums,Beaumont Central,112.13,208.65,151.95,201.85,562.45,Single-ply,SBD,M
Boys,124.74+,1,Brandon Artis,Port Arthur Memorial,131.81,231.33,136.08,240.4,607.81,Single-ply,SBD,M
Boys,124.74+,2,Kaleb Allen,Port Arthur Memorial,137.44,199.58,122.47,235.87,557.92,Single-ply,SBD,M
