Division,WeightClassKg,Place,Name,Team,BodyweightKg,Best3SquatKg,Best3BenchKg,Best3DeadliftKg,TotalKg,Equipment,Event,Sex
Boys,51.71,1,Cameron Counts,Borger,49.53,90.72,47.63,99.79,238.14,Single-ply,SBD,M
Boys,55.79,1,Skyler Steen,Plainview,54.16,97.52,56.7,129.27,283.5,Single-ply,SBD,M
Boys,59.87,1,Ceasar Luther,Perryton,59.78,151.95,106.59,179.17,437.72,Single-ply,SBD,M
Boys,59.87,2,Jonathan Villareal,Plainview,59.42,145.15,88.45,158.76,392.36,Single-ply,SBD,M
Boys,59.87,3,Ernest Godino,Plainview,59.87,136.08,74.84,129.27,340.19,Single-ply,SBD,M
Boys,59.87,4,Uriel Ibanez,Dumas,59.87,111.13,65.77,127.01,303.91,Single-ply,SBD,M
Boys,59.87,5,Ben Pulliam,Panhandle,58.69,127.01,61.23,111.13,299.37,Single-ply,SBD,M
Boys,67.13,1,Josue Becerril,Perryton,67.04,192.78,131.54,217.72,542.04,Single-ply,SBD,M
Boys,67.13,2,Matthew Cano,Perryton,66.5,179.17,104.33,185.97,469.47,Single-ply,SBD,M
Boys,67.13,3,Dagan Barella,Plainview,67.13,174.63,104.33,167.83,446.79,Single-ply,SBD,M
Boys,67.13,4,Carter Neil,Panhandle,65.77,147.42,81.65,158.76,387.82,Single-ply,SBD,M
Boys,67.13,5,Kenny Ramirez,Perryton,66.22,136.08,81.65,145.15,362.87,Single-ply,SBD,M
Boys,67.13,6,Thane Adams,Panhandle,64.32,140.61,83.91,136.08,360.61,Single-ply,SBD,M
Boys,67.13,7,Timmothy Dettle,Dalhart,66.5,129.27,79.38,151.95,360.61,Single-ply,SBD,M
Boys,67.13,8,Christopher Coffee,Panhandle,66.41,145.15,58.97,149.69,353.8,Single-ply,SBD,M
Boys,67.13,9,Uriel Avila,Perryton,67.13,138.35,77.11,136.08,351.53,Single-ply,SBD,M
Boys,67.13,10,Josh Pavez,Panhandle,61.87,117.93,65.77,129.27,312.98,Single-ply,SBD,M
Boys,67.13,11,Jamie Velazquez,Panhandle,63.59,111.13,54.43,115.67,281.23,Single-ply,SBD,M
Boys,67.13,12,Hector Borunda,Dumas,66.04,108.86,52.16,117.93,278.96,Single-ply,SBD,M
Boys,74.84,1,Jonathan Chavira,Dumas,74.21,192.78,115.67,204.12,512.56,Single-ply,SBD,M
Boys,74.84,2,Mario Banos,Perryton,73.21,183.7,111.13,195.04,489.88,Single-ply,SBD,M
Boys,74.84,3,Joseph Jenkins,Perryton,69.67,185.97,113.4,172.37,471.74,Single-ply,SBD,M
Boys,74.84,4,Jayden Shaver,Panhandle,70.67,158.76,104.33,165.56,428.64,Single-ply,SBD,M
Boys,74.84,5,Faustino Lopez,Plainview,74.84,163.29,88.45,165.56,417.3,Single-ply,SBD,M
Boys,74.84,6,Josh Prather,Panhandle,70.49,165.56,83.91,151.95,401.43,Single-ply,SBD,M
Boys,74.84,7,Eric Soto,Plainview,70.03,145.15,92.99,154.22,392.36,Single-ply,SBD,M
Boys,74.84,8,Efren Uribe,Perryton,73.57,142.88,81.65,142.88,367.41,Single-ply,SBD,M
Boys,74.84,9,Colton Purvines,Panhandle,71.67,145.15,72.57,133.81,351.53,Single-ply,SBD,M
Boys,74.84,10,Alex Clements,Borger,70.4,92.99,61.23,136.08,290.3,Single-ply,SBD,M
Boys,82.1,1,Arturo Lopez,Perryton,82.1,192.78,117.93,176.9,487.61,Single-ply,SBD,M
Boys,82.1,2,Anthony Aguilar,Dalhart,82.1,174.63,113.4,188.24,476.27,Single-ply,SBD,M
Boys,82.1,3,Carson Smith,Dalhart,81.28,181.44,111.13,170.1,462.66,Single-ply,SBD,M
Boys,82.1,4,Danny Hillyer,Borger,80.65,142.88,106.59,204.12,453.59,Single-ply,SBD,M
Boys,82.1,5,Keagan Knight,Dalhart,75.75,158.76,83.91,147.42,390.09,Single-ply,SBD,M
Boys,82.1,6,Joe Smith,Panhandle,79.92,156.49,68.04,154.22,378.75,Single-ply,SBD,M
Boys,82.1,7,Carson Ward,Borger,79.2,129.27,72.57,170.1,371.95,Single-ply,SBD,M
Boys,82.1,8,Jordyn Vasquez,Plainview,77.75,136.08,86.18,129.27,351.53,Single-ply,SBD,M
Boys,82.1,9,Cash Page,Canyon,79.29,102.06,79.38,142.88,324.32,Single-ply,SBD,M
Boys,82.1,10,Vance Vyoral,Perryton,76.75,92.99,65.77,131.54,290.3,Single-ply,SBD,M
Boys,82.1,11,Josue Flores,Borger,77.75,97.52,61.23,124.74,283.5,Single-ply,SBD,M
Boys,82.1,DQ,Robert Herndon,Perryton,81.37,249.48,,,,Single-ply,SBD,M
Boys,89.81,1,Mason Lowman,Borger,89.27,158.76,97.52,204.12,460.4,Single-ply,SBD,M
Boys,89.81,2,Joel Chavez,Plainview,84.28,151.95,83.91,154.22,390.09,Single-ply,SBD,M
Boys,89.81,3,Tyler Vasquez,Plainview,87.18,127.01,70.31,136.08,333.39,Single-ply,SBD,M
Boys,99.79,1,Ryan Ortiz,Dalhart,93.53,244.94,120.2,199.58,564.72,Single-ply,SBD,M
Boys,99.79,2,Jay Ramirez,Perryton,99.43,192.78,108.86,195.04,496.68,Single-ply,SBD,M
Boys,99.79,3,Esteban Moralez,Dumas,98.88,158.76,104.33,181.44,444.52,Single-ply,SBD,M
Boys,99.79,4,Jaziel Torres,Borger,99.34,165.56,95.25,163.29,424.11,Single-ply,SBD,M
Boys,99.79,5,Wade Alexander,Panhandle,94.89,142.88,74.84,165.56,383.29,Single-ply,SBD,M
Boys,99.79,6,Hunter Welch,Plainview,98.79,158.76,79.38,136.08,374.21,Single-ply,SBD,M
Boys,99.79,DQ,Uriel Hernandez,Perryton,99.16,283.5,,,,Single-ply,SBD,M
Boys,109.77,1,Israel Uribe,Perryton,108.86,242.67,127.01,219.99,589.67,Single-ply,SBD,M
Boys,109.77,2,David Navarrete,Perryton,104.24,215.46,151.95,206.38,573.79,Single-ply,SBD,M
Boys,109.77,3,Brendon Eminger,Canyon,105.6,249.48,117.93,199.58,566.99,Single-ply,SBD,M
Boys,109.77,4,Ubaldo Tarango,Perryton,108.05,181.44,122.47,197.31,501.22,Single-ply,SBD,M
Boys,109.77,5,Miguel Celis,Perryton,106.96,190.51,102.06,179.17,471.74,Single-ply,SBD,M
Boys,109.77,6,Lorenzo Valdez,Borger,109.77,172.37,111.13,185.97,469.47,Single-ply,SBD,M
Boys,109.77,7,Daniel Byers,Panhandle,106.78,154.22,106.59,167.83,428.64,Single-ply,SBD,M
Boys,109.77,8,Nash Stewart,Perryton,105.69,149.69,95.25,149.69,394.63,Single-ply,SBD,M
Boys,124.74,1,Yordi Hernandez,Perryton,120.29,256.28,158.76,244.94,659.98,Single-ply,SBD,M
Boys,124.74,2,Omar Hernandez,Dumas,116.48,197.31,111.13,176.9,485.34,Single-ply,SBD,M
Boys,124.74,3,Guss Jameson,Dalhart,115.03,197.31,115.67,156.49,469.47,Single-ply,SBD,M
Boys,124.74,DQ,Nathaniel Traylor,Dumas,119.39,192.78,99.79,,,Single-ply,SBD,M
Boys,124.74+,1,Tytus Williams,Borger,131.18,251.74,142.88,242.67,637.3,Single-ply,SBD,M
Boys,124.74+,2,Ivan Medina,Borger,144.24,233.6,117.93,226.8,578.33,Single-ply,SBD,M
Boys,124.74+,3,Andy Pena,Perryton,128.19,208.65,145.15,176.9,530.7,Single-ply,SBD,M
Boys,124.74+,4,Christian Garza,Plainview,126.73,165.56,104.33,174.63,444.52,Single-ply,SBD,M
