Sex,Equipment,Division,WeightClassKg,Name,BodyweightKg,Best3SquatKg,Best3BenchKg,Best3DeadliftKg,TotalKg,Event,Place
F,Raw,Amateur Open,52,Elise Damas,50.8,63.5,40.82,81.65,185.97,SBD,2
F,Raw,Amateur Open,52,Andrea T Laucella,51.71,97.52,47.63,120.2,265.35,SBD,1
F,Wraps,Amateur Masters 45-49,52,Angeline Vilardi,50.44,45.36,38.56,90.72,174.63,SBD,1
F,Raw,Amateur Juniors 20-23,60,Jessica Schook,59.6,79.38,65.77,81.65,226.8,SBD,1
F,Raw,Amateur Open,60,Amber Gregorio,58.88,95.25,49.9,127.01,272.16,SBD,2
F,Raw,Amateur Open,60,Jessica Byrne,58.15,99.79,52.16,149.69,301.64,SBD,1
F,Wraps,Amateur Open,60,Taylor Cannon,59.6,106.59,65.77,142.88,315.25,SBD,1
F,Wraps,Amateur Juniors 20-23,60,Liz Tapia,59.51,102.06,56.7,111.13,269.89,SBD,1
F,Wraps,Pro Open,60,Veronica Warhawk Momjian,59.42,113.4,54.43,138.35,306.17,SBD,1
F,Raw,Amateur Masters 40-44,67.5,Jennifer Woodruff,65.68,54.43,40.82,74.84,170.1,SBD,1
F,Raw,Amateur Open,67.5,Kat Nardizzi,65.5,120.2,70.31,161.03,351.53,SBD,1
F,Raw,Amateur Teen 18-19,67.5,Moriah Garzone,65.32,72.57,45.36,97.52,215.46,SBD,1
F,Raw,Pro Open,67.5,Savannah Minnici,66.22,156.49,83.91,190.51,430.91,SBD,1
F,Raw,Pro Submasters 33-39,67.5,Victoria Tolbert-Ashley,67.49,95.25,49.9,117.93,263.08,SBD,1
F,Wraps,Amateur Open,67.5,GinaMarie Martinez,66.5,117.93,54.43,127.01,299.37,SBD,1
F,Wraps,Amateur Teen 14-15,67.5,Faith-Georgia Lodise,64.41,74.84,45.36,88.45,208.65,SBD,1
F,Raw,Amateur Open,75,Jennah Fisher,74.3,104.33,65.77,154.22,324.32,SBD,1
F,Wraps,Amateur Open,75,Stephanie Buendia,74.48,133.81,68.04,142.88,344.73,SBD,2
F,Wraps,Amateur Open,75,Courtney Bumford,74.21,136.08,79.38,181.44,396.89,SBD,1
F,Wraps,Amateur Submasters 33-39,75,Peggy Herrera-Quan,73.75,122.47,68.04,136.08,326.59,SBD,1
F,Raw,Amateur Juniors 20-23,82.5,Stephanie Tattrie,78.93,77.11,40.82,108.86,226.8,SBD,2
F,Raw,Amateur Juniors 20-23,82.5,Olivia Hicks,79.65,104.33,43.09,124.74,272.16,SBD,1
F,Raw,Amateur Open,82.5,Shatira Frasier,77.66,111.13,61.23,136.08,308.44,SBD,1
F,Raw,Amateur Open,90,Danielle Alvarado,88.99,106.59,49.9,124.74,281.23,SBD,1
F,Wraps,Amateur Open,90,Kristen Dye,87.18,113.4,56.7,117.93,288.03,SBD,1
F,Wraps,Amateur Teen 18-19,90,Shannon Burke,88.27,188.24,88.45,156.49,433.18,SBD,1
F,Wraps,Amateur Open,100,Melanie Gordon,96.52,138.35,56.7,149.69,344.73,SBD,1
F,Wraps,Amateur Teen 16-17,100,Mary Sabedra,96.43,99.79,58.97,99.79,258.55,SBD,1
F,Wraps,Amateur Teen 18-19,100,Koryn Padilla,93.89,142.88,74.84,165.56,383.29,SBD,1
M,Raw,Amateur Teen 18-19,60,Thomas McNulty,59.06,90.72,83.91,192.78,367.41,SBD,2
M,Raw,Amateur Teen 18-19,60,Kyle Tripp,56.79,181.44,113.4,208.65,503.49,SBD,1
M,Raw,Amateur Juniors 20-23,67.5,Ledan Bolender,66.32,113.4,74.84,174.63,362.87,SBD,3
M,Raw,Amateur Juniors 20-23,67.5,Young Hoon Jeon,66.77,149.69,102.06,145.15,396.89,SBD,2
M,Raw,Amateur Juniors 20-23,67.5,Joseph Velez,66.32,158.76,97.52,197.31,453.59,SBD,1
M,Raw,Amateur Masters 40-44,67.5,Kevin Woodruff,64.59,120.2,86.18,158.76,365.14,SBD,1
M,Wraps,Amateur Teen 18-19,67.5,Jonah Hecht,64.77,115.67,92.99,142.88,351.53,SBD,1
M,Raw,Amateur Masters 50-54,67.5,Jeffrey Evans,66.41,97.52,95.25,154.22,347,SBD,1
M,Wraps,Amateur Teen 14-15,75,Ben Klein,68.22,129.27,92.99,192.78,415.04,SBD,1
M,Raw,Amateur Juniors 20-23,75,Amir Hama,74.66,145.15,92.99,165.56,403.7,SBD,3
M,Raw,Amateur Juniors 20-23,75,Andres Pabon,73.66,158.76,108.86,185.97,453.59,SBD,2
M,Raw,Amateur Juniors 20-23,75,Nazariy Hrynkiw,71.76,158.76,97.52,238.14,494.42,SBD,1
M,Raw,Amateur Open,75,Josh Hidalgo,69.94,167.83,142.88,226.8,537.51,SBD,1
M,Raw,Amateur Teen 18-19,75,Kevin Ganan,73.94,161.03,106.59,217.72,485.34,SBD,1
M,Wraps,Amateur Juniors 20-23,75,Eric Li,74.93,183.7,120.2,226.8,530.7,SBD,2
M,Wraps,Amateur Juniors 20-23,75,Nick Vogelsang,74.3,201.85,136.08,215.46,553.38,SBD,1
M,Wraps,Amateur Masters 45-49,75,Darren Kimsey,70.4,181.44,131.54,206.38,519.36,SBD,1
M,Wraps,Amateur Open,75,Anthony DiBono,70.4,158.76,104.33,208.65,471.74,SBD,2
M,Wraps,Amateur Open,75,Darren Kimsey,70.4,181.44,131.54,206.38,519.36,SBD,1
M,Wraps,Amateur Submasters 33-39,75,Jose Martinez,73.12,213.19,122.47,229.06,564.72,SBD,1
M,Wraps,Amateur Teen 18-19,75,Tetsuya Kawakita,73.66,151.95,92.99,199.58,444.52,SBD,1
M,Wraps,Pro Open,75,Miguel Ayala Jr,73.66,238.14,147.42,280.09,665.65,SBD,1
M,Wraps,Pro Submasters 33-39,75,David Karpf,74.39,231.33,133.81,217.72,582.87,SBD,1
M,Raw,Amateur Juniors 20-23,82.5,Yu-Hsiang Huang,79.29,140.61,102.06,181.44,424.11,SBD,4
M,Raw,Amateur Juniors 20-23,82.5,Nick Bielawa,78.83,172.37,92.99,181.44,446.79,SBD,3
M,Raw,Amateur Juniors 20-23,82.5,Joseph Anzalone,81.01,181.44,113.4,195.04,489.88,SBD,2
M,Raw,Amateur Juniors 20-23,82.5,Scott Altern,80.92,170.1,127.01,226.8,523.9,SBD,1
M,Raw,Amateur Open,82.5,Scott Altern,80.92,170.1,127.01,226.8,523.9,SBD,1
M,Raw,Amateur Teen 16-17,82.5,Chuck Arifakis,81.92,185.97,92.99,224.53,503.49,SBD,1
M,Wraps,Amateur Juniors 20-23,82.5,Brandon Messer,81.92,124.74,88.45,145.15,358.34,SBD,2
M,Wraps,Amateur Juniors 20-23,82.5,Gerorge Lau,75.75,154.22,79.38,204.12,437.72,SBD,1
M,Wraps,Amateur Open,82.5,Lee DiNapoli,82.19,201.85,111.13,222.26,535.24,SBD,2
M,Wraps,Amateur Open,82.5,Daniel Ghebretzadick,78.29,190.51,147.42,199.58,537.51,SBD,1
M,Wraps,Amateur Submasters 33-39,82.5,James Davis,81.28,165.56,117.93,222.26,505.76,SBD,2
M,Wraps,Amateur Submasters 33-39,82.5,Jason Millard,76.84,201.85,149.69,276.69,628.23,SBD,1
M,Wraps,Pro Open,82.5,Christopher Rodgers,80.74,235.87,131.54,258.55,625.96,SBD,3
M,Wraps,Pro Open,82.5,Jerry Gawel,81.47,219.99,156.49,251.74,628.23,SBD,2
M,Wraps,Pro Open,82.5,Luke Pelton,79.56,238.14,151.95,247.21,637.3,SBD,1
M,Raw,Amateur Juniors 20-23,90,Brian F Villarruel,89.09,181.44,117.93,247.21,546.58,SBD,3
M,Raw,Amateur Juniors 20-23,90,Timothy Baylan,84.55,226.8,142.88,254.01,623.69,SBD,2
M,Raw,Amateur Juniors 20-23,90,Patrick Pozzi,86.18,226.8,149.69,258.55,635.03,SBD,1
M,Raw,Amateur Open,90,Victor Martinez,83.82,185.97,136.08,199.58,521.63,SBD,3
M,Raw,Amateur Open,90,Christopher Lynch,88.36,195.04,142.88,226.8,564.72,SBD,2
M,Raw,Amateur Open,90,Brian Simmons,87.91,233.6,145.15,272.16,650.91,SBD,1
M,Raw,Amateur Teen 18-19,90,Islam Ibrahim,87.09,192.78,115.67,210.92,519.36,SBD,2
M,Raw,Amateur Teen 18-19,90,Adam Perez,89.27,181.44,136.08,217.72,535.24,SBD,1
M,Wraps,Amateur Juniors 20-23,90,Anthony Ferrara,82.83,170.1,117.93,199.58,487.61,SBD,6
M,Wraps,Amateur Juniors 20-23,90,Timothy Schweitzer,87.18,204.12,129.27,197.31,530.7,SBD,5
M,Wraps,Amateur Juniors 20-23,90,Eduardo Alexander Averos,88.45,195.04,136.08,217.72,548.85,SBD,4
M,Wraps,Amateur Juniors 20-23,90,Luke Schmitz,88.99,195.04,127.01,235.87,557.92,SBD,3
M,Wraps,Amateur Juniors 20-23,90,Jonathan Delafuente,86.91,197.31,138.35,254.01,589.67,SBD,2
M,Wraps,Amateur Juniors 20-23,90,Mike Lauro,85.18,265.35,147.42,276.69,689.46,SBD,1
M,Wraps,Amateur Open,90,Brian Scherer,89.45,,127.01,219.99,,SBD,DQ
M,Wraps,Amateur Masters 45-49,90,Chris Silk,89.63,,161.03,204.12,,SBD,DQ
M,Wraps,Pro Open,90,Christopher Ramirez,89.72,174.63,117.93,174.63,467.2,SBD,1
M,Single-ply,Amateur Juniors 20-23,90,Louis Ban,85,282.36,147.42,274.42,704.2,SBD,1
M,Raw,Amateur Juniors 20-23,100,Daniel Centeno,95.89,163.29,,181.44,,SBD,DQ
M,Raw,Amateur Open,90,Chris Silk,89.63,,161.03,,161.03,B,1
M,Raw,Amateur Open,90,Chris Silk,89.63,,161.03,204.12,365.14,BD,1
M,Raw,Amateur Masters 45-49,90,Chris Silk,89.63,,161.03,204.12,365.14,BD,1
M,Raw,Amateur Teen 16-17,90,Eric Frullaney,88.27,,108.86,201.85,310.71,BD,1
M,Raw,Amateur Juniors 20-23,90,Dave Samberg,86.73,,,276.69,276.69,D,1
M,Raw,Amateur Masters 70-74,90,Arthur Miller,89.45,111.13,86.18,145.15,342.46,SBD,1
M,Raw,Amateur Juniors 20-23,100,Kalin Konnerth,98.79,231.33,147.42,276.69,655.44,SBD,1
M,Raw,Amateur Open,100,Joseph Del Giudice,96.8,199.58,127.01,233.6,560.19,SBD,1
M,Wraps,Amateur Juniors 20-23,100,Daniel Guerriero,99.97,226.8,147.42,226.8,601.01,SBD,1
M,Wraps,Amateur Masters 65-69,100,Harold Moss,96.07,190.51,108.86,213.19,512.56,SBD,1
M,Wraps,Amateur Open,100,Matthew Ellis,98.7,158.76,129.27,192.78,480.81,SBD,2
M,Wraps,Amateur Open,100,Alex Gourlay,97.79,206.38,133.81,265.35,605.55,SBD,1
M,Wraps,Pro Open,100,Joe Hardy,99.16,308.44,181.44,226.8,716.68,SBD,2
M,Wraps,Pro Open,100,Adolfo Conca,99.43,258.55,181.44,285.76,725.75,SBD,1
M,Multi-ply,Pro Open,110,Nicholas Puorro,104.51,351.53,297.1,288.03,936.67,SBD,1
M,Raw,Amateur Juniors 20-23,110,Shaquille Coke,108.86,249.48,158.76,238.14,646.37,SBD,1
M,Raw,Amateur Open,110,Richard Laurich,108.77,181.44,124.74,226.8,532.97,SBD,2
M,Raw,Amateur Open,110,Peter Baker,102.6,195.04,142.88,251.74,589.67,SBD,1
M,Raw,Military Pro Masters 50+,110,Damon Senaha,109.95,133.81,106.59,192.78,433.18,SBD,1
M,Raw,Pro Masters 50-54,110,Damon Senaha,109.95,133.81,106.59,192.78,433.18,SBD,1
M,Raw,Pro Open,110,Louis Christopher,108.32,192.78,195.04,249.48,637.3,SBD,1
M,Raw,Pro Masters 40-44,110,Louis Christopher,108.32,192.78,195.04,249.48,637.3,SBD,1
M,Wraps,Amateur Masters 40-44,110,Randy Di Yulio,105.78,229.06,156.49,210.92,596.47,SBD,1
M,Wraps,Amateur Submasters 33-39,110,Justin Grimaldi,107.41,238.14,167.83,240.4,646.37,SBD,1
M,Wraps,Amateur Teen 18-19,110,Daniel Alicea,109.86,188.24,129.27,226.8,544.31,SBD,1
M,Multi-ply,Amateur Open,125,Steve Lusterino,121.02,317.51,204.12,274.42,796.05,SBD,1
M,Wraps,Amateur Masters 60-64,125,Michael Newman,124.74,154.22,131.54,181.44,467.2,SBD,1
M,Wraps,Amateur Open,125,Philip Lin,116.48,263.08,147.42,269.89,680.39,SBD,1
M,Wraps,Pro Submasters 33-39,125,Shawn Mooney,121.47,247.21,161.03,258.55,666.78,SBD,1
M,Raw,Amateur Open,140,Nicholas Lavin,139.16,242.67,145.15,215.46,603.28,SBD,2
M,Raw,Amateur Open,140,Dave Brown #1,136.44,249.48,183.7,299.37,732.55,SBD,1
M,Raw,Pro Open,140+,Domenick Minnici,146.06,340.19,219.99,349.27,909.45,SBD,1
M,Raw,Amateur Open,100,Kristopher Bayle,97.61,,163.29,244.94,408.23,BD,1
M,Raw,Amateur Open,110,Tim Sarner,109.32,,154.22,244.94,399.16,BD,1
M,Raw,Amateur Masters 45-49,110,Tim Sarner,109.32,,154.22,244.94,399.16,BD,1
M,Raw,Amateur Submasters 33-39,110,Rafael Sanchez,109.41,,172.37,240.4,412.77,BD,1
M,Raw,Amateur Open,67.5,Garrick Carmenatty,67.31,,147.42,,147.42,B,1
M,Raw,Amateur Open,82.5,Cesar Medina,80.01,,195.04,,195.04,B,1
M,Raw,Amateur Open,90,Shameek Taylor,86.55,,176.9,,176.9,B,1
M,Raw,Amateur Masters 40-44,100,Andre Liberato,96.43,,170.1,,170.1,B,1
M,Raw,Amateur Submasters 33-39,100,Michael Correa,99.88,,145.15,,145.15,B,1
M,Raw,Amateur Submasters 33-39,110,Joel Luciano,106.23,,192.78,,192.78,B,1
M,Raw,Amateur Masters 55-59,125,Tom Van Ness,110.04,,142.88,,142.88,B,1
