Name,Age,WeightClassKg,Division,Sex,Event,Best3SquatKg,Best3BenchKg,Bench4Kg,Best3DeadliftKg,Deadlift4Kg,TotalKg,Equipment,Place
Satterwhite,,52,Open,F,B,,74.84,77.11,,,74.84,Single-ply,1
Annette Schneidmill,,56,Open,F,B,,81.65,,,,81.65,Single-ply,1
Laura Feeney,,60,Teen 14-16,F,B,,58.97,61.24,,,58.97,Single-ply,1
Ricciuto,,60,Teen 14-16,F,B,,43.09,,,,43.09,Single-ply,2
Cathy Falconio,,75,Masters 40-44,F,B,,83.91,,,,83.91,Single-ply,1
Jeremy Thomas,17,56,Teen 17-19,M,B,,92.99,,,,92.99,Single-ply,1
Sam,,60,Open,M,B,,136.08,,,,136.08,Single-ply,1
Pfister,,67.5,Masters 50-54,M,B,,113.4,,,,113.4,Single-ply,1
Bowles,,67.5,Masters 55-59,M,B,,83.91,,,,83.91,Single-ply,1
Jackson,,82.5,Open,M,B,,181.44,,,,181.44,Single-ply,1
Danella,,82.5,Open,M,B,,,,,,,Single-ply,DQ
John Mitsopoulos,,82.5,Masters 50-54,M,B,,167.83,,,,167.83,Single-ply,1
Johnson,,82.5,Masters 55-59,M,B,,133.81,,,,133.81,Single-ply,1
Miller,,82.5,Masters 60-64,M,B,,68.04,,,,68.04,Single-ply,1
Alices,,90,Open,M,B,,185.97,,,,185.97,Single-ply,1
Mitchell,,90,Open,M,B,,181.44,,,,181.44,Single-ply,2
Ashman,,90,Open,M,B,,129.27,,,,129.27,Single-ply,3
Mitchell,,90,Submasters,M,B,,181.44,,,,181.44,Single-ply,1
Alices,,90,Masters 40-44,M,B,,185.97,,,,185.97,Single-ply,1
Paul Merook,,90,Masters 50-54,M,B,,170.1,,,,170.1,Single-ply,1
Lawson,,90,Masters 50-54,M,B,,151.95,,,,151.95,Single-ply,2
Brian Power-Waters,,90,Masters 70-74,M,B,,111.13,,,,111.13,Single-ply,1
Herman,,100,Open,M,B,,188.24,,,,188.24,Single-ply,1
LeBlanc,,100,Open,M,B,,181.44,,,,181.44,Single-ply,2
Pouch,,100,Open,M,B,,172.37,,,,172.37,Single-ply,3
Pouch,,100,Juniors,M,B,,172.37,,,,172.37,Single-ply,1
Murphy,,100,Submasters,M,B,,185.97,,,,185.97,Single-ply,1
LeBlanc,,100,Submasters,M,B,,181.44,,,,181.44,Single-ply,2
Glass,,100,Submasters,M,B,,120.2,,,,120.2,Single-ply,3
Harman,,100,Masters 45-49,M,B,,188.24,,,,188.24,Single-ply,1
Reber,,110,Juniors,M,B,,174.63,,,,174.63,Single-ply,1
Johnson,,110,Open,M,B,,210.92,,,,210.92,Single-ply,1
Hicks,,110,Open,M,B,,161.03,,,,161.03,Single-ply,2
Mann,,110,Open,M,B,,158.76,,,,158.76,Single-ply,3
Hicks,,110,Submasters,M,B,,161.03,,,,161.03,Single-ply,1
Bucchioni,,110,Masters 45-49,M,B,,131.54,,,,131.54,Single-ply,1
Watahovich,,110,Masters 50-54,M,B,,181.44,,,,181.44,Single-ply,1
Bailey,,125,Open,M,B,,199.58,,,,199.58,Single-ply,1
Rosenthal,,125,Submasters,M,B,,204.12,,,,204.12,Single-ply,1
Nye,,125,Submasters,M,B,,120.2,,,,120.2,Single-ply,2
Cinelli,,125,Masters 45-49,M,B,,63.5,,,,63.5,Single-ply,1
Bergan,,125,Masters 50-54,M,B,,158.76,,,,158.76,Single-ply,1
Glenn Ranno,,125+,Submasters,M,B,,215.46,,,,215.46,Single-ply,1
Hastings,,44,Open,F,D,,,,117.93,,117.93,Single-ply,1
Lasher,,52,Open,F,D,,,,115.67,,115.67,Single-ply,1
Ricciuto,,60,Teen 14-16,F,D,,,,90.72,,90.72,Single-ply,1
Cathy Falconio,,75,Masters 40-44,F,D,,,,154.22,,154.22,Single-ply,1
MacGrew,,75,Masters 45-49,F,D,,,,77.11,,77.11,Single-ply,1
Cropper,,82.5,Submasters,F,D,,,,192.78,,192.78,Single-ply,1
Hastings,,56,Masters 45-49,M,D,,,,149.69,,149.69,Single-ply,1
Sam,,60,Open,M,D,,,,188.24,,188.24,Single-ply,1
Metivier,,67.5,Submasters,M,D,,,,210.92,,210.92,Single-ply,1
Pfister,,75,Masters 50-54,M,D,,,,244.94,,244.94,Single-ply,1
Pfister,,75,Open,M,D,,,,244.94,,244.94,Single-ply,1
Bowles,,75,Masters 40-44,M,D,,,,154.22,,154.22,Single-ply,1
Moore,,82.5,Open,M,D,,,,272.16,,272.16,Single-ply,1
Rijos,,82.5,Open,M,D,,,,258.55,,258.55,Single-ply,2
Miller,,82.5,Masters 60-64,M,D,,,,104.33,,104.33,Single-ply,1
Kauffman,,90,Submasters,M,D,,,,276.69,,276.69,Single-ply,1
Phillips,,90,Masters 40-44,M,D,,,,222.26,,222.26,Single-ply,1
Ricciuto,,100,Teen 17-19,M,D,,,,238.14,,238.14,Single-ply,1
Brown,,100,Teen 17-19,M,D,,,,208.65,,208.65,Single-ply,2
Pouch,,100,Juniors,M,D,,,,263.08,,263.08,Single-ply,1
Thomas,,100,Open,M,D,,,,281.23,,281.23,Single-ply,1
Pouch,,100,Open,M,D,,,,263.08,,263.08,Single-ply,2
Thomas,,100,Submasters,M,D,,,,281.23,,281.23,Single-ply,1
Glass,,100,Submasters,M,D,,,,208.65,,208.65,Single-ply,2
Reber,,110,Juniors,M,D,,,,242.67,,242.67,Single-ply,1
Angell,,110,Open,M,D,,,,281.23,,281.23,Single-ply,1
Arthur,,110,Open,M,D,,,,274.42,,274.42,Single-ply,2
Mann,,110,Open,M,D,,,,208.65,,208.65,Single-ply,3
Arthur,,110,Novice,M,D,,,,274.42,,274.42,Single-ply,1
Manzo,,110,Submasters,M,D,,,,290.3,,290.3,Single-ply,1
Hicks,,110,Submasters,M,D,,,,215.46,,215.46,Single-ply,2
Bucchioni,,110,Masters 45-49,M,D,,,,256.28,,256.28,Single-ply,1
Nye,,125,Submasters,M,D,,,,192.78,,192.78,Single-ply,1
Baron,,125,Masters 45-49,M,D,,,,283.5,,283.5,Single-ply,1
Cinelli,,125,Masters 45-49,M,D,,,,204.12,,204.12,Single-ply,2
Bergan,,125,Masters 50-54,M,D,,,,242.67,,242.67,Single-ply,1
James Searcy Sr,,125+,Open,M,D,,,,317.52,,317.52,Single-ply,1
Glenn Ranno,,125+,Submasters,M,D,,,,260.82,,260.82,Single-ply,1
Sasso,,52,Open,F,SBD,,,,,,,Single-ply,DQ
Annette Schneidmill,,56,Open,F,SBD,149.69,81.65,,149.69,,381.02,Single-ply,1
Frey,,56,Teen 14-16,F,SBD,99.79,52.16,,129.27,,281.23,Single-ply,1
Ulrich,,67.5,Open,F,SBD,151.95,90.72,,136.08,,378.75,Single-ply,1
Seaman,,67.5,Open,F,SBD,92.99,56.7,,113.4,,263.08,Single-ply,2
Ulrich,,67.5,Juniors,F,SBD,151.95,90.72,,136.08,,378.75,Single-ply,1
Denson,,67.5,Juniors,F,SBD,154.22,56.7,,156.49,,367.41,Single-ply,2
Newbold,,90,Open,F,SBD,181.44,104.33,,167.83,,453.59,Single-ply,1
Stires,,56,Teen 17-19,M,SBD,127.01,72.57,,136.08,,335.66,Single-ply,1
Stires,,56,Open,M,SBD,127.01,72.57,,136.08,,335.66,Single-ply,1
Neff,,67.5,Teen 14-16,M,SBD,190.51,122.47,,199.58,,512.56,Single-ply,1
Brown,,67.5,Open,M,SBD,247.21,131.54,,217.72,,596.47,Single-ply,1
Metivier,,67.5,Open,M,SBD,183.71,111.13,,210.92,,505.76,Single-ply,2
Brown,,67.5,Submasters,M,SBD,247.21,131.54,,217.72,,596.47,Single-ply,1
Alpert,,67.5,Submasters,M,SBD,167.83,136.08,,204.12,,508.02,Single-ply,2
Metivier,,67.5,Submasters,M,SBD,183.71,111.13,,210.92,,505.76,Single-ply,3
L. Stires,,75,Open,M,SBD,249.48,161.03,,244.94,,655.44,Single-ply,1
Pfister,,75,Open,M,SBD,188.24,113.4,,244.94,,546.58,Single-ply,2
Adderley,,75,Open,M,SBD,213.19,113.4,,208.65,,535.24,Single-ply,3
Adderley,,75,Novice,M,SBD,213.19,113.4,,208.65,,535.24,Single-ply,1
L. Stires,,75,Masters 40-44,M,SBD,249.48,161.03,,244.94,,655.44,Single-ply,1
Pfister,,75,Masters 50-54,M,SBD,188.24,113.4,,244.94,,546.58,Single-ply,1
Bowles,,75,Masters 55-59,M,SBD,131.54,83.91,,154.22,,369.68,Single-ply,1
Howard,,82.5,Open,M,SBD,215.46,145.15,,249.48,,610.08,Single-ply,1
Rijos,,82.5,Open,M,SBD,210.92,111.13,,258.55,,580.6,Single-ply,2
Butz,,82.5,Submasters,M,SBD,183.71,136.08,,183.71,,503.49,Single-ply,1
McDaniel,,82.5,Masters 40-44,M,SBD,224.53,127.01,,222.26,,573.8,Single-ply,1
Phillips,,82.5,Masters 45-49,M,SBD,172.37,102.06,,167.83,,442.25,Single-ply,1
Bateman,,82.5,Masters 45-49,M,SBD,124.74,86.18,,158.76,,369.68,Single-ply,2
Scott,,90,Teen 17-19,M,SBD,192.78,129.27,,208.65,,530.7,Single-ply,1
Frezzo,,90,Juniors,M,SBD,217.72,165.56,,256.28,,639.57,Single-ply,1
Perez,,90,Open,M,SBD,281.23,158.76,,272.16,,712.14,Single-ply,1
Peace,,90,Open,M,SBD,278.96,181.44,,240.4,,700.8,Single-ply,2
Peace,,90,Masters 40-44,M,SBD,278.96,181.44,,240.4,,700.8,Single-ply,1
Phillips,,90,Masters 40-44,M,SBD,195.04,145.15,,222.26,,562.46,Single-ply,2
Brown,,100,Teen 17-19,M,SBD,208.65,106.59,,208.65,,523.9,Single-ply,1
Pouch,,100,Juniors,M,SBD,299.37,172.37,,263.08,,734.82,Single-ply,1
Sarao,,100,Juniors,M,SBD,235.87,185.97,,238.14,,659.98,Single-ply,2
Pouch,,100,Open,M,SBD,299.37,172.37,,263.08,,734.82,Single-ply,1
Glass,,100,Novice,M,SBD,181.44,120.2,,208.65,,510.29,Single-ply,1
Vernacchio,,100,Masters 55-59,M,SBD,181.44,99.79,,181.44,,462.66,Single-ply,1
Reber,,110,Juniors,M,SBD,242.67,174.63,,242.67,,659.98,Single-ply,1
Howard,,110,Open,M,SBD,317.52,190.51,,335.66,344.73,843.68,Single-ply,1
Mann,,110,Open,M,SBD,208.65,158.76,,208.65,,576.06,Single-ply,2
Monick,,110,Novice,M,SBD,181.44,108.86,,192.78,,483.08,Single-ply,1
Monick,,110,Submasters,M,SBD,181.44,108.86,,192.78,,483.08,Single-ply,1
Bucchioni,,110,Masters 45-49,M,SBD,235.87,131.54,,256.28,,623.69,Single-ply,1
Watahovich,,110,Masters 50-54,M,SBD,215.46,181.44,,238.14,,635.03,Single-ply,1
Bailey,,125,Open,M,SBD,272.16,199.58,,263.08,,734.82,Single-ply,1
Cheadle,,125,Open,M,SBD,272.16,161.03,,263.08,,696.27,Single-ply,2
Watkins,,125,Submasters,M,SBD,240.4,181.44,,254.01,,675.85,Single-ply,1
Bergen,,125,Masters 50-54,M,SBD,249.48,158.76,,242.67,,650.91,Single-ply,1
James Searcy Sr,,125+,Open,M,SBD,349.27,181.44,,317.52,,848.22,Single-ply,1
Braden,,125+,Open,M,SBD,290.3,197.31,,278.96,,766.57,Single-ply,2
Cagle,,125+,Open,M,SBD,290.3,204.12,,249.48,,743.89,Single-ply,3
Henri,,125+,Open,M,SBD,290.3,215.46,,,,,Single-ply,DQ
Ranno,,125+,Submasters,M,SBD,283.5,215.46,,260.82,,759.77,Single-ply,1
Braden,,125+,Juniors,M,SBD,290.3,197.31,,278.96,,766.57,Single-ply,1
Cagle,,125+,Juniors,M,SBD,290.3,204.12,,249.48,,743.89,Single-ply,2
