Division,WeightClassKg,Place,Name,Team,BodyweightKg,Best3SquatKg,Best3BenchKg,Best3DeadliftKg,TotalKg,Equipment,Event,Sex
Boys,51.71,1,Steven Cook,Shepherd,51.26,90.72,56.7,108.86,256.28,Single-ply,SBD,M
Boys,51.71,2,Garrett Kelso,Splendora,50.89,90.72,47.63,113.4,251.74,Single-ply,SBD,M
Boys,51.71,3,Matt Rice,Conroe Oak Ridge,50.21,83.91,52.16,108.86,244.94,Single-ply,SBD,M
Boys,51.71,4,Ryan Kerr,Conroe Woodlands College Park,47.63,70.31,40.82,86.18,197.31,Single-ply,SBD,M
Boys,51.71,5,Dillan Silvis,New Waverly,,61.23,43.09,90.72,195.04,Single-ply,SBD,M
Boys,51.71,DQ,Chance Kooi,Conroe Caney Creek,50.8,113.4,,,,Single-ply,SBD,M
Boys,59.87,1,Harley Hnatek,Splendora,55.93,124.74,65.77,142.88,333.39,Single-ply,SBD,M
Boys,59.87,2,Dalton Clark,Normangee,55.88,120.2,56.7,140.61,317.51,Single-ply,SBD,M
Boys,55.79,3,Cody Strokos,New Caney,54.34,127.01,56.7,129.27,312.98,Single-ply,SBD,M
Boys,55.79,4,Kz Smith,Coldspring-Oakhurst,53.39,113.4,58.97,136.08,308.44,Single-ply,SBD,M
Boys,55.79,5,Daquwan Mark,Huntsville,55.07,124.74,47.63,129.27,301.64,Single-ply,SBD,M
Boys,55.79,6,Zac Thomas,Shepherd,55.79,115.67,61.23,113.4,290.3,Single-ply,SBD,M
Boys,55.79,7,Logan Teal,Conroe Woodlands College Park,54.66,104.33,47.63,108.86,260.82,Single-ply,SBD,M
Boys,59.87,DQ,Mike Angeletti,Conroe Oak Ridge,56.02,95.25,,,,Single-ply,SBD,M
Boys,55.79,DQ,Tim Goodrum,Splendora,54.93,92.99,,,,Single-ply,SBD,M
Boys,55.79,DQ,Rusty McCarthy,New Caney Porter,55.29,122.47,,,,Single-ply,SBD,M
Boys,59.87,1,Austin Alexander,Conroe Caney Creek,59.19,170.1,97.52,167.83,435.45,Single-ply,SBD,M
Boys,59.87,2,Tyler Marcel,Conroe Oak Ridge,58.51,140.61,97.52,163.29,401.43,Single-ply,SBD,M
Boys,59.87,3,Garrett Shantz,Montgomery,58.29,127.01,90.72,142.88,360.61,Single-ply,SBD,M
Boys,59.87,4,Rory Jefferson,Huntsville,58.97,133.81,81.65,140.61,356.07,Single-ply,SBD,M
Boys,59.87,5,John-Bradley Green,Conroe Woodlands College Park,58.24,127.01,77.11,147.42,351.53,Single-ply,SBD,M
Boys,59.87,6,Colton Lilley,Shepherd,56.7,117.93,83.91,127.01,328.85,Single-ply,SBD,M
Boys,59.87,7,Nick Bosheers,New Caney,56.38,115.67,65.77,111.13,292.57,Single-ply,SBD,M
Boys,59.87,8,Bona Run,Shepherd,57.61,102.06,65.77,124.74,292.57,Single-ply,SBD,M
Boys,59.87,9,Gilberto Romero,Shepherd,58.97,95.25,68.04,127.01,290.3,Single-ply,SBD,M
Boys,59.87,10,Fernando Mendez,Conroe Caney Creek,59.74,120.2,61.23,106.59,288.03,Single-ply,SBD,M
Boys,67.13,11,Zach Hawkins,Conroe The Woodlands,60.1,90.72,70.31,117.93,278.96,Single-ply,SBD,M
Boys,59.87,12,Shawn Spangler,Splendora,56.52,97.52,61.23,108.86,267.62,Single-ply,SBD,M
Boys,59.87,13,Jacob Mears,Beaumont Ozen,56.43,68.04,56.7,92.99,217.72,Single-ply,SBD,M
Boys,59.87,DQ,Jason Simmons,Conroe Oak Ridge,59.69,,,,,Single-ply,SBD,M
Boys,59.87,DQ,Nick Degelia,Normangee,59.83,,,,,Single-ply,SBD,M
Boys,59.87,DQ,Charles Dickerson,Huffman Hargrave,57.15,138.35,,,,Single-ply,SBD,M
Boys,59.87,DQ,Andrian Juarez,Huntsville,59.69,,,,,Single-ply,SBD,M
Boys,59.87,DQ,Eric Garza,Magnolia West,59.83,,,,,Single-ply,SBD,M
Boys,59.87,DQ,John Bown,New Caney Porter,59.87,,,,,Single-ply,SBD,M
Boys,59.87,DQ,Corey Fuller,Shepherd,57.15,,,,,Single-ply,SBD,M
Boys,67.13,1,Steven McCartha,Montgomery,62.91,181.44,106.59,172.37,460.4,Single-ply,SBD,M
Boys,67.13,2,Nate Jones,Shepherd,61.69,167.83,102.06,176.9,446.79,Single-ply,SBD,M
Boys,67.13,3,Caffery Penn,Conroe The Woodlands,63.55,163.29,102.06,181.44,446.79,Single-ply,SBD,M
Boys,67.13,4,Josh Goolsby,Huntsville,64.91,149.69,97.52,170.1,417.3,Single-ply,SBD,M
Boys,67.13,5,Akeem Green,Conroe The Woodlands,65.14,145.15,95.25,172.37,412.77,Single-ply,SBD,M
Boys,67.13,6,Jaylan Fields,Beaumont Ozen,64.59,147.42,97.52,158.76,403.7,Single-ply,SBD,M
Boys,67.13,7,Aaron Valadez,Huntsville,66.9,138.35,97.52,161.03,396.89,Single-ply,SBD,M
Boys,67.13,8,Josh Courvelle,Shepherd,61.69,142.88,81.65,163.29,387.82,Single-ply,SBD,M
Boys,67.13,9,Broch Saxton,New Waverly,64.14,120.2,90.72,170.1,381.02,Single-ply,SBD,M
Boys,67.13,10,Andrew Reamer,New Caney,61.73,156.49,77.11,145.15,378.75,Single-ply,SBD,M
Boys,74.84,11,Triston Grow,Splendora,67.31,149.69,90.72,138.35,378.75,Single-ply,SBD,M
Boys,74.84,12,Dillon Blackwell,Conroe Woodlands College Park,67.31,136.08,72.57,163.29,371.95,Single-ply,SBD,M
Boys,67.13,13,Dustin Drews,Magnolia West,62.19,147.42,79.38,140.61,367.41,Single-ply,SBD,M
Boys,67.13,14,Tanner Kuhle,Conroe Oak Ridge,60.74,136.08,86.18,142.88,365.14,Single-ply,SBD,M
Boys,67.13,15,Chris Eason,Splendora,64.86,129.27,65.77,145.15,340.19,Single-ply,SBD,M
Boys,67.13,16,Jeremiah Kelly,Beaumont Central,63.78,92.99,83.91,149.69,326.59,Single-ply,SBD,M
Boys,67.13,17,Ben Dittman,New Caney,63.64,127.01,77.11,117.93,322.05,Single-ply,SBD,M
Boys,67.13,18,Dylan Mora,Conroe Caney Creek,61.82,111.13,81.65,127.01,319.78,Single-ply,SBD,M
Boys,67.13,19,Logan Starks,New Caney,65.95,117.93,72.57,127.01,317.51,Single-ply,SBD,M
Boys,67.13,20,Kyle Shannon,Normangee,65.73,122.47,68.04,122.47,312.98,Single-ply,SBD,M
Boys,67.13,21,Coehn Johnson,Montgomery,62.64,129.27,68.04,108.86,306.17,Single-ply,SBD,M
Boys,67.13,22,Edward Yao,Conroe The Woodlands,65.36,113.4,65.77,113.4,292.57,Single-ply,SBD,M
Boys,67.13,23,Kody Quibodeaux,Shepherd,65.32,92.99,58.97,113.4,265.35,Single-ply,SBD,M
Boys,67.13,24,Clay Ballard,Shepherd,66.68,83.91,54.43,106.59,244.94,Single-ply,SBD,M
Boys,67.13,DQ,James Bowen,New Caney Porter,66.41,158.76,,,,Single-ply,SBD,M
Boys,74.84,1,David Saucedo,Shepherd,72.57,190.51,131.54,201.85,523.9,Single-ply,SBD,M
Boys,74.84,2,David Reamer,New Caney,70.94,199.58,115.67,174.63,489.88,Single-ply,SBD,M
Boys,74.84,3,Ontrevon Cooper,Coldspring-Oakhurst,73.66,183.7,111.13,185.97,480.81,Single-ply,SBD,M
Boys,74.84,4,Richy Lyttle,New Caney Porter,68.49,190.51,111.13,172.37,474,Single-ply,SBD,M
Boys,74.84,5,Joe Dittman,New Caney,70.03,158.76,115.67,172.37,446.79,Single-ply,SBD,M
Boys,74.84,6,Nick Eliff,Montgomery,72.85,149.69,104.33,165.56,419.57,Single-ply,SBD,M
Boys,74.84,7,Ryan Mascheri,Montgomery,70.85,158.76,102.06,154.22,415.04,Single-ply,SBD,M
Boys,74.84,8,Anthony Lamb,Splendora,74.75,161.03,88.45,156.49,405.97,Single-ply,SBD,M
Boys,74.84,9,Jaylen Guillory,Beaumont Central,74.39,124.74,124.74,149.69,399.16,Single-ply,SBD,M
Boys,82.1,10,Andreas Chapa,Conroe Oak Ridge,74.98,136.08,97.52,156.49,390.09,Single-ply,SBD,M
Boys,74.84,11,Anthony McMullins,Splendora,70.99,142.88,95.25,149.69,387.82,Single-ply,SBD,M
Boys,74.84,12,Maison Jacobs,Splendora,71.03,156.49,92.99,138.35,387.82,Single-ply,SBD,M
Boys,74.84,13,Aj Box,Shepherd,72.57,163.29,106.59,117.93,387.82,Single-ply,SBD,M
Boys,74.84,14,Donai Malbrough,Beaumont Central,72.3,108.86,102.06,172.37,383.29,Single-ply,SBD,M
Boys,82.1,15,Chris Coffer,Conroe Caney Creek,75.07,142.88,92.99,136.08,371.95,Single-ply,SBD,M
Boys,74.84,16,Cody Latonero,Conroe Oak Ridge,69.04,136.08,77.11,145.15,358.34,Single-ply,SBD,M
Boys,74.84,17,Michael Anderson,Shepherd,73.48,131.54,70.31,131.54,333.39,Single-ply,SBD,M
Boys,74.84,18,Josh Kiser,Conroe The Woodlands,70.58,108.86,74.84,124.74,308.44,Single-ply,SBD,M
Boys,74.84,19,Tony Parks,New Caney,70.31,106.59,68.04,120.2,294.84,Single-ply,SBD,M
Boys,74.84,20,Jackson Godby,Huntsville,71.49,102.06,79.38,113.4,294.84,Single-ply,SBD,M
Boys,74.84,DQ,Carson Neal,Montgomery,72.03,158.76,102.06,,,Single-ply,SBD,M
Boys,74.84,DQ,Travion Brown,Conroe Oak Ridge,69.17,154.22,79.38,,,Single-ply,SBD,M
Boys,74.84,DQ,Bruce Edwards,Beaumont Central,68.63,54.43,68.04,,,Single-ply,SBD,M
Boys,74.84,DQ,Zavier Mitchell,Beaumont Central,73.35,,,,,Single-ply,SBD,M
Boys,74.84,DQ,Cameron Rhodman,Beaumont Ozen,70.17,,,,,Single-ply,SBD,M
Boys,74.84,DQ,Cody Markham,New Waverly,73.07,,,,,Single-ply,SBD,M
Boys,82.1,1,Christian Andrews,Beaumont Ozen,78.65,233.6,154.22,249.48,637.3,Single-ply,SBD,M
Boys,89.81,2,Cesar Yepes,New Caney Porter,82.28,224.53,111.13,224.53,560.19,Single-ply,SBD,M
Boys,82.1,3,Arthur Maxwell,Shepherd,75.75,226.8,108.86,208.65,544.31,Single-ply,SBD,M
Boys,82.1,4,Jacob Cook,Splendora,77.25,204.12,122.47,188.24,514.83,Single-ply,SBD,M
Boys,82.1,5,Michael Aleksick,Conroe Caney Creek,75.98,183.7,129.27,167.83,480.81,Single-ply,SBD,M
Boys,82.1,6,Cj Lilley,Conroe Woodlands College Park,80.1,174.63,113.4,185.97,474,Single-ply,SBD,M
Boys,82.1,7,Justin Eberly,Conroe Caney Creek,80.33,102.06,142.88,226.8,471.74,Single-ply,SBD,M
Boys,82.1,8,Luke Knowles,Magnolia West,81.01,147.42,127.01,179.17,453.59,Single-ply,SBD,M
Boys,82.1,9,Trevor Austin,Magnolia West,78.47,156.49,111.13,170.1,437.72,Single-ply,SBD,M
Boys,82.1,10,Justin Cotton,Conroe Caney Creek,81.56,174.63,106.59,156.49,437.72,Single-ply,SBD,M
Boys,82.1,11,Kyle Adams,Conroe Oak Ridge,77.97,161.03,102.06,167.83,430.91,Single-ply,SBD,M
Boys,82.1,12,Jonathan Murphy,Huntsville,75.66,158.76,102.06,167.83,428.64,Single-ply,SBD,M
Boys,82.1,13,Jonathan Voltaire,Conroe Oak Ridge,78.56,149.69,90.72,188.24,428.64,Single-ply,SBD,M
Boys,82.1,14,Christopher Lewis,Beaumont Ozen,78.61,151.95,106.59,170.1,428.64,Single-ply,SBD,M
Boys,82.1,15,Robert Keilman,Shepherd,79.38,151.95,83.91,179.17,415.04,Single-ply,SBD,M
Boys,82.1,16,Tamon Willis,New Caney,80.15,138.35,95.25,147.42,381.02,Single-ply,SBD,M
Boys,82.1,17,Kyle Peterson,Conroe The Woodlands,77.16,142.88,86.18,147.42,376.48,Single-ply,SBD,M
Boys,82.1,18,Dustin Wolf,Conroe The Woodlands,76.66,111.13,72.57,136.08,319.78,Single-ply,SBD,M
Boys,82.1,19,Derrick Bailey,Montgomery,79.24,122.47,70.31,124.74,317.51,Single-ply,SBD,M
Boys,82.1,20,Colby Clark,Shepherd,75.3,108.86,61.23,127.01,297.1,Single-ply,SBD,M
Boys,82.1,21,Sarketian Thomas,Beaumont Ozen,77.29,102.06,68.04,113.4,283.5,Single-ply,SBD,M
Boys,82.1,DQ,Jamarcus Fletcher,New Waverly,81.28,,,,,Single-ply,SBD,M
Boys,89.81,1,Mitchell Fountain,Conroe The Woodlands,88.63,242.67,142.88,260.82,646.37,Single-ply,SBD,M
Boys,89.81,2,Anthony Breed,Beaumont Ozen,88.63,217.72,158.76,226.8,603.28,Single-ply,SBD,M
Boys,89.81,3,George Stephanson,Conroe Oak Ridge,88.31,226.8,113.4,226.8,566.99,Single-ply,SBD,M
Boys,89.81,4,Jason Paul,Conroe Woodlands College Park,87.45,210.92,122.47,192.78,526.17,Single-ply,SBD,M
Boys,89.81,5,Kyle Ray,Splendora,86.45,185.97,113.4,183.7,483.08,Single-ply,SBD,M
Boys,89.81,6,George Franklin,Montgomery,82.69,174.63,127.01,179.17,480.81,Single-ply,SBD,M
Boys,89.81,7,Zak Adams,Splendora,87.23,181.44,108.86,181.44,471.74,Single-ply,SBD,M
Boys,89.81,8,John Neville,Huntsville,88.27,167.83,106.59,195.04,469.47,Single-ply,SBD,M
Boys,89.81,9,Anderson Adams,Coldspring-Oakhurst,85.37,179.17,106.59,174.63,460.4,Single-ply,SBD,M
Boys,89.81,10,Matt Taylor,New Caney,83.23,154.22,111.13,172.37,437.72,Single-ply,SBD,M
Boys,89.81,11,Nathan Jones,Montgomery,86.23,142.88,106.59,172.37,421.84,Single-ply,SBD,M
Boys,89.81,12,Louis Hickman,New Caney Porter,85.59,147.42,83.91,136.08,367.41,Single-ply,SBD,M
Boys,99.79,13,William Bryant,Conroe Caney Creek,89.86,97.52,90.72,138.35,326.59,Single-ply,SBD,M
Boys,89.81,14,Everett Stevenson,Shepherd,89.81,120.2,68.04,111.13,299.37,Single-ply,SBD,M
Boys,89.81,15,Tommy Nguyen,Beaumont Ozen,88.36,61.23,83.91,115.67,260.82,Single-ply,SBD,M
Boys,89.81,DQ,Chris Carolan,New Waverly,82.64,204.12,136.08,,,Single-ply,SBD,M
Boys,89.81,DQ,Xavier Jones,Magnolia West,86,,,,,Single-ply,SBD,M
Boys,99.79,1,Tucker Saxton,New Waverly,98.07,217.72,127.01,254.01,598.74,Single-ply,SBD,M
Boys,99.79,2,Chad Murski,Conroe Woodlands College Park,96.57,222.26,117.93,213.19,553.38,Single-ply,SBD,M
Boys,99.79,3,Lorenzo Flores,Conroe Caney Creek,96.03,192.78,111.13,204.12,508.02,Single-ply,SBD,M
Boys,99.79,4,Dustin Hoeffler,New Caney Porter,90.58,188.24,129.27,183.7,501.22,Single-ply,SBD,M
Boys,99.79,5,Jhedi Johnson,Huntsville,95.53,158.76,92.99,151.95,403.7,Single-ply,SBD,M
Boys,99.79,6,Christian Jackson,Conroe Oak Ridge,95.75,154.22,88.45,158.76,401.43,Single-ply,SBD,M
Boys,99.79,7,Trace Sanders,New Waverly,99.06,113.4,90.72,165.56,369.68,Single-ply,SBD,M
Boys,99.79,8,Davion Harris,Beaumont Ozen,96.03,86.18,79.38,140.61,306.17,Single-ply,SBD,M
Boys,99.79,DQ,Deshondrick Selmon,Beaumont Ozen,98.84,68.04,,,,Single-ply,SBD,M
Boys,99.79,DQ,Dylan Calhoun,Conroe Oak Ridge,99.11,136.08,,,,Single-ply,SBD,M
Boys,99.79,DQ,Jacob Knowlton,Montgomery,97.16,154.22,99.79,,,Single-ply,SBD,M
Boys,109.77,1,Bridge Blount,Huntsville,109.13,297.1,181.44,292.57,771.11,Single-ply,SBD,M
Boys,109.77,2,Allan Harris,Beaumont Central,105.91,278.96,165.56,272.16,716.68,Single-ply,SBD,M
Boys,109.77,3,Justin Latonero,Conroe Oak Ridge,102.24,249.48,147.42,210.92,607.81,Single-ply,SBD,M
Boys,109.77,4,Tyler Glasscock,Magnolia West,108.82,215.46,115.67,238.14,569.26,Single-ply,SBD,M
Boys,109.77,5,Jonathan Swint,Coldspring-Oakhurst,109.41,197.31,131.54,195.04,523.9,Single-ply,SBD,M
Boys,109.77,6,Cody Skiruanek,Magnolia West,103.24,192.78,129.27,179.17,501.22,Single-ply,SBD,M
Boys,109.77,7,Keaton Nelson,Conroe Woodlands College Park,108.09,197.31,108.86,172.37,478.54,Single-ply,SBD,M
Boys,109.77,8,Joseph Staggs,Conroe Caney Creek,104.64,161.03,111.13,165.56,437.72,Single-ply,SBD,M
Boys,109.77,9,Brady Barbay,Coldspring-Oakhurst,104.42,163.29,90.72,176.9,430.91,Single-ply,SBD,M
Boys,109.77,10,Oris Granger,Beaumont Ozen,104.73,90.72,63.5,95.25,249.48,Single-ply,SBD,M
Boys,109.77,DQ,Chris Baker,Shepherd,100.24,142.88,,,,Single-ply,SBD,M
Boys,124.74,1,Charlie Courvelle,Shepherd,122.47,303.91,192.78,247.21,743.89,Single-ply,SBD,M
Boys,124.74,2,Dylon Isom,Normangee,121.06,258.55,113.4,240.4,612.35,Single-ply,SBD,M
Boys,124.74,3,Hayden Hasenbein,Conroe Oak Ridge,118.98,249.48,131.54,229.06,610.08,Single-ply,SBD,M
Boys,124.74,4,Greg Dunham,Coldspring-Oakhurst,122.02,226.8,127.01,197.31,551.11,Single-ply,SBD,M
Boys,124.74,5,Brad Carley,Conroe Woodlands College Park,119.84,204.12,131.54,197.31,532.97,Single-ply,SBD,M
Boys,124.74,6,Parker Blount,Huntsville,112.9,217.72,104.33,192.78,514.83,Single-ply,SBD,M
Boys,124.74,7,Von Cross,Coldspring-Oakhurst,122.7,195.04,111.13,183.7,489.88,Single-ply,SBD,M
Boys,124.74,DQ,Justin Mathiesen,Conroe Woodlands College Park,124.74,,,,,Single-ply,SBD,M
Boys,124.74,DQ,Michael Deournett,Conroe Woodlands College Park,119.61,185.97,106.59,,,Single-ply,SBD,M
Boys,124.74,DQ,Shannon Standley,Conroe Caney Creek,123.47,215.46,122.47,,,Single-ply,SBD,M
Boys,124.74,DQ,Hunter Wilson,Magnolia West,116.21,195.04,158.76,,,Single-ply,SBD,M
Boys,124.74+,1,Nashon Edwards,Beaumont Ozen,153.31,294.84,142.88,256.28,694,Single-ply,SBD,M
Boys,124.74+,2,Michael Cervera,Conroe Woodlands College Park,128.87,272.16,151.95,213.19,637.3,Single-ply,SBD,M
Boys,124.74+,3,Cory Kelley,Magnolia West,139.75,249.48,145.15,204.12,598.74,Single-ply,SBD,M
Boys,124.74+,4,Nolan Walker,Coldspring-Oakhurst,128.41,222.26,142.88,219.99,585.13,Single-ply,SBD,M
Boys,124.74+,5,Thalan Payne,Beaumont Ozen,147.92,215.46,142.88,226.8,585.13,Single-ply,SBD,M
Boys,124.74+,6,Kyle Frey,Magnolia West,132.04,183.7,136.08,201.85,521.63,Single-ply,SBD,M
Boys,124.74+,7,Kevin Keasling,Shepherd,125.65,181.44,72.57,185.97,439.98,Single-ply,SBD,M
Boys,124.74+,8,Edward Cook,Montgomery,127.78,163.29,113.4,158.76,435.45,Single-ply,SBD,M
Boys,124.74+,DQ,Tony Russell,New Waverly,129.5,,,,,Single-ply,SBD,M
Boys,124.74+,DQ,Cody Jackson,New Waverly,135.4,,,,,Single-ply,SBD,M
Boys,124.74+,DQ,Bryan Foster,Beaumont Ozen,138.39,158.76,81.65,,,Single-ply,SBD,M
Boys,124.74+,DQ,Christopher Redeau,Beaumont Ozen,143.34,,,,,Single-ply,SBD,M
