Name,WeightClassKg,Sex,Division,Event,Equipment,BodyweightKg,Age,State,Country,Best3SquatKg,Best3BenchKg,Best3DeadliftKg,TotalKg,Place
Ariel Mulkey,67.5,M,Open,SBD,Wraps,65.14,24,NC,USA,182.5,142.5,202.5,527.5,1
Phillip White,67.5,M,Open,SBD,Wraps,64.32,25,FL,USA,142.5,110,177.5,430,2
Aaron Paille,75,M,Open,SBD,Wraps,72.89,25,FL,USA,160,117.5,237.5,515,1
Markus Baldwin,82.5,M,Open,SBD,Wraps,76.88,24,AL,USA,225,157.5,272.5,655,2
Paquito Cruz,82.5,M,Open,SBD,Wraps,82.28,45,IN,USA,200,130,247.5,577.5,3
Brandon Grantham,82.5,M,Open,SBD,Wraps,78.79,20,AL,USA,147.5,127.5,197.5,472.5,4
Travis Leeper,82.5,M,Open,SBD,Wraps,81.19,30,SC,USA,275,167.5,287.5,730,1
Chris Morton,82.5,M,Open,SBD,Wraps,80.56,38,IN,USA,142.5,107.5,175,425,2
Lee Richards,82.5,M,Open,SBD,Wraps,80.51,30,FL,USA,195,167.5,250,612.5,3
Hayden Bowe,90,M,Open,SBD,Wraps,87.63,23,FL,USA,210,160,285,655,2
Jordan Bowen,90,M,Open,SBD,Wraps,86.64,31,FL,USA,197.5,137.5,207.5,542.5,4
Matt Gonzalez,90,M,Open,SBD,Wraps,88.63,29,GA,USA,250,205,,,DQ
Eugene Landry,90,M,Open,SBD,Wraps,82.83,26,IN,USA,205,167.5,255,627.5,3
John Sharpe,100,M,Open,SBD,Wraps,95.07,31,FL,USA,185,135,215,535,2
Terry Jacobs,100,M,Open,SBD,Wraps,94.21,53,FL,USA,215,137.5,227.5,580,1
Andrew Kimbro,110,M,Open,SBD,Wraps,108.86,21,AL,USA,277.5,152.5,287.5,717.5,1
Michael Renfroe,110,M,Open,SBD,Wraps,106.46,39,GA,USA,187.5,227.5,227.5,642.5,5
Joseph Schultz,110,M,Open,SBD,Wraps,100.97,40,IN,USA,237.5,192.5,272.5,702.5,2
Clint Smith,110,M,Open,SBD,Wraps,102.24,28,SC,USA,247.5,165,257.5,670,4
Randy Thrift,110,M,Open,SBD,Wraps,108.59,34,SC,USA,282.5,150,230,662.5,3
Brad Crawford,140,M,Open,SBD,Wraps,136.67,35,MS,USA,345,215,355,915,1
Paquito Cruz,82.5,M,Masters 40+,SBD,Wraps,82.28,45,IN,USA,200,130,247.5,577.5,2
Keith King,82.5,M,Masters 40+,SBD,Wraps,73.44,44,GA,USA,170,90,200,460,1
Tim Fus,110,M,Masters 40+,SBD,Wraps,98.52,45,FL,USA,210,132.5,195,537.5,4
Terry Jacobs,110,M,Masters 40+,SBD,Wraps,94.21,53,FL,USA,215,137.5,227.5,580,2
Max Reppel,110,M,Masters 40+,SBD,Wraps,86.64,69,LA,USA,200,90,210,500,1
Joseph Schultz,110,M,Masters 40+,SBD,Wraps,100.97,40,IN,USA,237.5,192.5,272.5,702.5,3
Ken Jones,110+,M,Masters 40+,SBD,Wraps,110.99,59,FL,USA,205,110,225,540,2
Michael Nowak,110+,M,Masters 40+,SBD,Wraps,120.47,47,FL,USA,185,147.5,237.5,570,3
Steve Waters,110+,M,Masters 40+,SBD,Wraps,113.31,55,GA,USA,277.5,182.5,272.5,732.5,1
Chris Morton,110,M,Submasters 33-39,SBD,Wraps,80.56,38,IN,USA,142.5,107.5,175,425,3
Randy Thrift,110,M,Submasters 33-39,SBD,Wraps,108.59,34,SC,USA,282.5,172.5,230,685,1
Michael Renfroe,110,M,Submasters 33-39,SBD,Wraps,108.73,39,GA,USA,187.5,227.5,227.5,642.5,2
Nicholas Duke,67.5,M,Teen,SBD,Wraps,62.19,18,AL,USA,147.5,107.5,185,440,1
Ian Veliz,67.5,M,Teen,SBD,Wraps,50.44,16,FL,USA,110,62.5,155,327.5,2
Demitri Whitaker,90,M,Teen,SBD,Wraps,86.5,19,IN,USA,210,160,285,655,1
Cale Galloway,56,M,Handicapped,SD,Wraps,54.88,21,AL,USA,32.5,,45,77.5,1
Kelsey Spraitlin,48,F,Open,SBD,Wraps,46.95,32,FL,USA,90,70,117.5,277.5,1
Kirstie Cantrell,52,F,Open,SBD,Wraps,51.94,25,FL,USA,105,82.5,135,322.5,1
Stacy Hardwicke,52,F,Open,SBD,Wraps,51.21,42,FL,USA,107.5,62.5,127.5,297.5,2
Hannah Wilkins,52,F,Open,SBD,Wraps,50.89,27,FL,USA,55,42.5,77.5,175,3
Cristianne Barragan,56,F,Open,SBD,Wraps,55.16,39,FL,USA,87.5,45,97.5,230,6
Kristina Boddie,56,F,Open,SBD,Wraps,53.48,32,AL,USA,100,62.5,137.5,300,3
Stefanie Cohen,56,F,Open,SBD,Wraps,54.79,23,FL,USA,152.5,72.5,182.5,407.5,1
Meredith Pastucha,56,F,Open,SBD,Wraps,53.89,25,FL,USA,90,57.5,140,287.5,5
Amanda Pate,56,F,Open,SBD,Wraps,55.57,30,AL,USA,122.5,62.5,145,330,2
Diem Presley,56,F,Open,SBD,Wraps,54.98,41,FL,USA,92.5,60,137.5,290,4
Nicole Blais,60,F,Open,SBD,Wraps,59.1,27,FL,USA,82.5,50,92.5,225,4
Shannon Fencher,60,F,Open,SBD,Wraps,58.2,29,AL,USA,90,55,145,290,1
Melissa Mcclendon,60,F,Open,SBD,Wraps,58.42,38,FL,USA,67.5,47.5,92.5,207.5,5
Landen Westbrook,60,F,Open,SBD,Wraps,59.92,11,AL,USA,85,40,120,245,3
Ann Wilgosz,60,F,Open,SBD,Wraps,60,30,FL,USA,100,50,130,280,2
Amanda Alcott,67.5,F,Open,SBD,Wraps,61.42,33,FL,USA,120,82.5,162.5,365,3
Lalane Burhenn,67.5,F,Open,SBD,Wraps,60.83,43,IN,USA,57.5,50,117.5,225,4
Latema Harrell,67.5,F,Open,SBD,Wraps,64.46,28,AL,USA,142.5,85,182.5,410,1
Carly Smith,67.5,F,Open,SBD,Wraps,65.82,24,AL,USA,145,80,165,390,2
Genesis Treadwell,75,F,Open,SBD,Wraps,70.44,32,FL,USA,107.5,57.5,115,280,1
Krista Crawford,82.5,F,Open,SBD,Wraps,76.2,35,MS,USA,140,60,142.5,342.5,1
Summer Lewis,90,F,Open,SBD,Wraps,89.86,25,AL,USA,142.5,70,147.5,360,2
Taylor Welch,90,F,Open,SBD,Wraps,88.68,20,FL,USA,170,67.5,155,392.5,1
Michelle Sapp,90+,F,Open,SBD,Wraps,92.49,36,FL,USA,132.5,55,142.5,330,1
Lalane Burhenn,67.5,F,Masters 40+,SBD,Wraps,60.83,43,IN,USA,57.5,50,117.5,225,3
Stacy Hardwicke,67.5,F,Masters 40+,SBD,Wraps,51.21,42,FL,USA,107.5,62.5,132.5,302.5,1
Diem Presley,67.5,F,Masters 40+,SBD,Wraps,54.98,41,FL,USA,92.5,60,137.5,290,2
Elizabeth Cox,67.5,F,Masters 40+,SBD,Wraps,63.59,41,FL,USA,77.5,45,95,217.5,4
Jennifer King,67.5+,F,Masters 40+,SBD,Wraps,71.4,41,GA,USA,85,45,107.5,237.5,3
Lori Russell,67.5+,F,Masters 40+,SBD,Wraps,86.32,49,AL,USA,97.5,47.5,115,260,2
Mary Sittman,67.5+,F,Masters 40+,SBD,Wraps,73.16,69,FL,USA,62.5,32.5,85,180,1
Cristianne Barragan,60,F,Submasters 33-39,SBD,Wraps,55.16,39,FL,USA,87.5,45,97.5,230,1
Melissa Mcclendon,60,F,Submasters 33-39,SBD,Wraps,58.42,38,FL,USA,67.5,47.5,92.5,207.5,2
Taylor Welch,90,F,Juniors 20-23,SBD,Wraps,88.68,20,FL,USA,170,67.5,155,392.5,1
Chelsea Cook,48,F,Teen 16-17,SBD,Wraps,46.54,17,FL,USA,57.5,30,82.5,170,1
Landen Westbrook,60,F,Youth 11-12,SBD,Wraps,59.92,11,AL,USA,85,40,120,245,1
Paquito Cruz,82.5,M,Open,B,Raw,82.28,45,IN,USA,,130,,130,1
Volodymyr Galyga,90,M,Open,B,Raw,89.4,32,,Ukraine,,197.5,,197.5,1
Volodymyr Starchenko,90,M,Open,B,Raw,89.95,41,,Ukraine,,145,,145,2
Igor Vinyarskyy,100,M,Open,B,Raw,98.79,32,,Ukraine,,190,,190,1
Benjamin Clement,110,M,Open,B,Raw,106.37,32,FL,USA,,165,,165,3
Jeremy Hoornstra,110,M,Open,B,Raw,109.63,35,FL,USA,,300.5,,300.5,1
Joseph Schultz,110,M,Open,B,Raw,100.97,40,IN,USA,,192.5,,192.5,2
Spud Lynn,125,M,Open,B,Raw,121.34,27,,USA,,227.5,,227.5,1
Rob Marshall,140+,M,Open,B,Raw,144.51,46,IN,USA,,240,,240,1
Rob Marshall,110+,M,Masters 40+,B,Raw,144.51,46,IN,USA,,240,,240,1
Volodymr Starchenko,90,M,Masters 40+,B,Raw,89.95,41,,Ukraine,,145,,145,2
Eric Donald,110,M,Masters 40+,B,Raw,106.59,44,GA,USA,,205,,205,1
Kelsey Spraitlin,48,F,Open,B,Raw,46.95,32,FL,USA,,70,,70,1
Kirstie Cantrell,52,F,Open,B,Raw,51.94,25,FL,USA,,82.5,,82.5,1
Amber Darbo,60,F,Open,B,Raw,58.69,28,AL,USA,,52.5,,52.5,2
Olena Shcherbinina,60,F,Open,B,Raw,59.06,33,,Ukraine,,65,,65,1
Jennifer Hughes,67.5,F,Open,B,Raw,63,35,AL,USA,,52.5,,52.5,1
Chantal Eligon,82.5,F,Open,B,Raw,79.51,27,FL,USA,,77.5,,77.5,1
Lori Russell,90,F,Masters 40+,B,Raw,86.32,49,AL,USA,,47.5,,47.5,1
Olena Shcherbinina,60,F,Submasters 33-39,B,Raw,59.06,33,,Ukraine,,65,,65,1
Emry Wright,67.5,F,Teen 13-15,B,Raw,64.95,13,AL,USA,,40,,40,1
Landen Westbrook,60,F,Youth 11-12,B,Raw,59.92,11,AL,USA,,40,,40,1
Paquito Cruz,82.5,M,Open,D,Raw,82.28,45,IN,USA,,,247.5,247.5,2
Travis Leeper,82.5,M,Open,D,Raw,81.19,30,SC,USA,,,287.5,287.5,1
Vadym Kotsaga,90,M,Open,D,Raw,87.82,38,,Ukraine,,,195,195,1
Joseph Schultz,110,M,Open,D,Raw,100.97,40,IN,USA,,,272.5,272.5,1
Brad Crawford,140,M,Open,D,Raw,136.67,35,MS,USA,,,355,355,1
Vadym Kotsaga,90,M,Submasters 33-39,D,Raw,87.82,38,,Ukraine,,,195,195,1
Demetri Whitaker,90,M,Teen 18-19,D,Raw,86.53,19,IN,USA,,,285,285,1
Diem Presley,56,F,Open,D,Raw,54.98,41,FL,USA,,,137.5,137.5,1
Amber Darbo,60,F,Open,D,Raw,58.69,28,AL,USA,,,112.5,112.5,1
Olena Shcherbinina,60,F,Open,D,Raw,59.06,33,,Ukraine,,,110,110,2
Jennifer Hughes,67.5,F,Open,D,Raw,63,35,AL,USA,,,112.5,112.5,2
Ann Wilgosz,67.5,F,Open,D,Raw,60.01,30,FL,USA,,,130,130,1
Chantal Eligon,82.5,F,Open,D,Raw,79.51,27,FL,USA,,,145,145,1
Lori Russell,90,F,Masters 40+,D,Raw,86.32,49,AL,USA,,,115,115,1
Melissa Mcclendon,67.5,F,Submasters 33-39,D,Raw,58.42,38,FL,USA,,,92.5,92.5,2
Olena Shcherbinina,67.5,F,Submasters 33-39,D,Raw,59.06,33,,Ukraine,,,110,110,1
Emry Wright,67.5,F,Teen 13-15,D,Raw,64.95,13,AL,USA,,,112.5,112.5,1
Landen Westbrook,60,F,Youth 11-12,D,Raw,59.92,11,AL,USA,,,120,120,1
