﻿             Niedersächsischer Gewichtheber Verband e.V.
                              Mitglied im Landessportbund Niedersachsen e.V.
                         Mitglied im Bundesverband Deutscher Gewichtheber e.V.
                       Mitglied im Bundesverband Deutscher Kraftdreikämpfer e. V.
              _____________________________________________________________________

                                         Ergebnisliste

    Norddeutsche Meisterschaft im Bankdrücken am 22. April 2017 in Bad Sachsa

                                                  RAW
Frauen, Jugend - A
- 72,0 kg      1. Alina Marthe Muske         1. Schleswiger SV       15.09.1999           45,0 kg
Frauen, Aktive
- 63,0 kg     1. Dajana Helke                Greifenpower e. V.      02.11.1980           70, 0kg
               2. Ines Urbaneck              Greifenpower e. V.      01.03.1983           52,5 kg
- 72,0 kg      1. Katharina Brandt           Greifenpower e. V.      20.03.1984           72,5 kg
               2. Jenny Schümann             Preetzer TSV            11.01.1978           65,0 kg
               3. Jürena Ott                 Todtglüsinger SV        02.02.1990           55,0 kg


Männer, Jugend B
- 93,0 kg      1. Till Kruse                 SV Quitt Ankum          05.04.2001          100,0 kg

Männer, Jugend A
- 66,0 kg      1. Nurallah Dilek                     VT Union Groß Ilsede   30.05.2000              82,5 kg
- 74,0 kg      1. Robert Hennings            Preetzer TSV            14.08.2000           95,0 kg
- 83,0 kg      1. Silas Kracht               Preetzer TSV            04.02.1999          125,0 kg

Männer, Junioren
- 74,0 kg     1. Tim Telscher                SV Quitt Ankum          17.08.1998          130,0 kg
- 83,0 kg      1. Dennis Skornjakov          SV Quitt Ankum          17.10.1996          112,5 kg
- 93,0 kg      1. Alexander Bondarenko       SV Quitt Ankum          29.12.1996          142,5 kg
               2. Arkadiusz Waclawczyk       KTV Sparta Berlin       07.04.1995          140,0 kg
- 105,0 kg     1. Marc Krause                VT Union Groß Ilsede    22.11.1994          155,0 kg
               2. de Kranz Zapolya, Baron Maximilian KSV Team Harz   08.06.1996          130,0 kg
- 120,0 kg     1. Robin Meineke              KSV Team Harz           15.08.1996          185,0 kg
Männer, Aktive
- 93,0 kg      1. Lennart Berndt             VT Union Groß Ilsede    30.03.1984          157,5 kg
- 105,0 kg     1. Andrè Hentschel            VT Union Groß Ilsede    16.11.1984          190,0 kg
               2. Nils Axthelm               MTV VJ Peine            26.08.1989          152,5 kg
               3. Marc Heese                 FSV Sarstedt            08.04.1991          140,0 kg
- 120,0 kg     1. Lasse Wieben               Preetzer TSV            13.03.1994          175,0 kg
               2. Matthias Felber            Greifenpower e. v.      05.08.1985          170,0 kg
+ 120,0 kg     1. Kevin Koch                 KSV Team Harz           09.06.1979          240,0 kg
Männer, AK I
- 74,0 kg        1. Maik Staegemann      Greifenpower e. V.       17.08.1969           125,0 kg
                 2. Markus Noga          FSV Sarstedt             12.12.1971            55,0 kg
- 93,0 kg        1. Dirk Bernau          Preetzer TSV             03.08.1972           157,5 kg
                 2. Jan Köpper           VfV Cremlingen           09.01.1977           142,5 kg
+ 120,0 kg       1. Thomas Brunnenkref   Greifenpower e. V.       13.05.1977           155,0 kg


Männer, AK II
- 74,0 kg        1. Christian Gieseler   KSV Team Harz            11.07.1964           105,0 kg
- 93,0 kg        1. Hartmut Ewert                Sportclub Parchim        24.04.1959              135,0 kg
                 2. Henryk Sulik         VfV Cremlingen           08.05.1959           135,0 kg
- 105,0 kg       1. Friedhelm Mandel     Todtglüsinger SV         29.04.1961           135,0 kg
+ 120,0 kg       1. Torsten Schult       1. Schleswiger SV        06.03.1963           190,0 kg


Männer, AK III
- 59,0 kg        1. Carmelo Virzi        MTV VJ Peine             20.03.1957            90,0 kg
- 74,0 kg        1. Wolfgang Köster      VfV Cremlingen           27.07.1950           105,0 kg
- 83,0 kg        1. Gunter Ute           Preetzer TSV             04.07.1948           120,0 kg
- 105,0 kg       1. Lutz Schuricht               VfV Cremlingen          01.09.1951               135,0 kg
                 2. Holger Pasemann      SC Lüchow                04.06.1957           135,0 kg
- 120,0 kg       0. Norbert Syska        Preetzer TSV             09.11.1955             0,0 kg
+ 120,0 kg       1. Harald Paul          FSV Blau Weiß Bergen     15.10.1954           165,0 kg


Männer, AK IV
- 83,0 kg        1. Wilfried Häusler     MTV Vater Jahn Peine     03.07.1942            85,0 kg
+ 120,0 kg       1. Volker Schwertz      SC Lüchow                17.01.1947           122,5 kg



              Niedersächsischer Gewichtheber Verband e.V.
                                 Mitglied im Landessportbund Niedersachsen e.V.
                            Mitglied im Bundesverband Deutscher Gewichtheber e.V.
                          Mitglied im Bundesverband Deutscher Kraftdreikämpfer e. V.
                 _____________________________________________________________________

                                             Ergebnisliste

    Norddeutsche Meisterschaft im Bankdrücken am 22. April 2017 in Bad Sachsa

                                             mit Equipment
Frauen, AK II
- 63,0 kg        1. Petra Nothnagel          SC Elite Hannover        11.08.1966            80,0 kg
Frauen, AK III
-   57,0 kg      1. Marianne Lankau          SC Elite Hannover        13.04.1953            57,5 kg
- 84,0 kg        1. Anke Beninga             SC Elite Hannover        25.01.1954            77,5 kg
Frauen, AK IV
-   63,0 kg      1. Ursula Nothnagel         SC Elite Hannover        15.05.1936            57,5 kg
Männer, A – Jugend
-   66,0 kg      1. Christoph Konradi        SV Quitt Ankum           05.11.1999            92,5 kg
-   93.0 kg      1. Tobias Konradi           SV Quitt Ankum           30.03.2001           153,0 kg
- 120,0 kg       1. Andre Schnorr                    SV Quitt Ankum           15.10.1999              105,0 kg


Männer, Junioren
- 66,0 kg        1. David Schnorr            SV Quitt Ankum           28.10.1998            80,0 kg
- 83,0 kg        1. Lukas Noesselt           TC Hameln                30.12.1996           135,0 kg
- 93,0 kg        1. Emre Kula                KTV Sparta Berlin        30.09.1995           140,0 kg


Männer, Aktive
- 105,0 kg       1. Enrico Höll              KTV Sparta Berlin        12.07.1991           170,0 kg
- 120,0 kg       1. Felix Beßler             Preetzer TSV             29.12.1988           240,0 kg


Männer, AK I
+ 120,0 kg       1. Sebastian Klügel         KSV Team Harz            06.01.1977           200,0 kg


Männer, AK II
- 105,0 kg       1. Marco Seidler            Preetzer TSV             15.09.1958           190,0 kg
                 2. Christian Nehrkorn       VfV Cremlingen           01.10.1964           170,0 kg
- 120,0 kg       1. Krystian Slosarek        Todtglüsinger SV         16.09.1958           190,0 kg


Männer, AK III
-   74,0 kg      1. Harald Decker            TSV 1860 Stralsund       05.03.1955           132,5 kg
- 120,0 kg       1. Hermann Gruel            SV Motor Wolgast         12.09.1950           175,0 kg
