Division,WeightClassKg,Place,Name,Team,BodyweightKg,Best3SquatKg,Best3BenchKg,Best3DeadliftKg,TotalKg,Equipment,Event,Sex
Boys,51.71,1,Jacob Gay,Weatherford,51.48,95.25,54.43,108.86,258.55,Single-ply,SBD,M
Boys,51.71,2,Dale Gallegos,Fort Worth Boswell,49.94,90.72,61.23,102.06,254.01,Single-ply,SBD,M
Boys,55.79,1,Orlando Martinez,Fort Worth Boswell,54.84,120.2,63.5,120.2,303.91,Single-ply,SBD,M
Boys,55.79,2,Scooter Tidwell,Azle,54.88,113.4,58.97,124.74,297.1,Single-ply,SBD,M
Boys,59.87,3,Jacob Donowho,Aledo,55.84,106.59,63.5,108.86,278.96,Single-ply,SBD,M
Boys,59.87,1,Chase Lynn,Springtown,58.06,163.29,74.84,158.76,396.89,Single-ply,SBD,M
Boys,59.87,2,Dallas Delmere,Fort Worth Boswell,58.6,149.69,72.57,149.69,371.95,Single-ply,SBD,M
Boys,59.87,3,Demetrius Hutcherson,Azle,57.42,156.49,68.04,145.15,369.68,Single-ply,SBD,M
Boys,59.87,DQ,Giancarlo Gonzalez,Saginaw,59.87,131.54,,,,Single-ply,SBD,M
Boys,67.13,1,Jake Bartels,Weatherford,66.86,183.7,95.25,174.63,453.59,Single-ply,SBD,M
Boys,67.13,2,Edgar Rascone,White Settlement Brewer,65.68,161.03,115.67,167.83,444.52,Single-ply,SBD,M
Boys,67.13,3,Austin Livingston,Weatherford,66.04,181.44,86.18,176.9,444.52,Single-ply,SBD,M
Boys,67.13,4,Chris Smith,Azle,66.09,176.9,86.18,181.44,444.52,Single-ply,SBD,M
Boys,67.13,5,Conner Davis,Aledo,66.18,154.22,86.18,190.51,430.91,Single-ply,SBD,M
Boys,67.13,6,Tucker Eagle,Azle,63.64,149.69,99.79,165.56,415.04,Single-ply,SBD,M
Boys,67.13,7,Bryan Bonnette,Weatherford,65.18,151.95,104.33,154.22,410.5,Single-ply,SBD,M
Boys,67.13,8,Scott Welch,Weatherford,63.64,151.95,79.38,154.22,385.55,Single-ply,SBD,M
Boys,67.13,9,Clint Mcclellen,Aledo,66.95,140.61,102.06,136.08,378.75,Single-ply,SBD,M
Boys,67.13,10,Cole Mays,Aledo,66.59,140.61,97.52,133.81,371.95,Single-ply,SBD,M
Boys,67.13,11,Josh Harris,Saginaw,65.77,124.74,79.38,136.08,340.19,Single-ply,SBD,M
Boys,67.13,DQ,Wesley Keathley,White Settlement Brewer,64.36,,,,,Single-ply,SBD,M
Boys,74.84,1,Ryan Wood,Fort Worth Boswell,70.53,185.97,113.4,199.58,498.95,Single-ply,SBD,M
Boys,74.84,2,Ben Jopling,Aledo,71.94,176.9,108.86,176.9,462.66,Single-ply,SBD,M
Boys,74.84,3,Billy Chappel,Springtown,73.94,172.37,90.72,185.97,449.06,Single-ply,SBD,M
Boys,74.84,4,Austin Van Houtan,Weatherford,69.31,170.1,104.33,170.1,444.52,Single-ply,SBD,M
Boys,74.84,5,Juan Diaz,Saginaw,69.58,170.1,102.06,167.83,439.98,Single-ply,SBD,M
Boys,74.84,6,Brennen Rayburn,Fort Worth Boswell,69.49,156.49,90.72,181.44,428.64,Single-ply,SBD,M
Boys,74.84,7,Russell Abrams,Saginaw,72.98,172.37,102.06,149.69,424.11,Single-ply,SBD,M
Boys,74.84,8,Dominique Allen,Fort Worth Boswell,73.03,124.74,83.91,183.7,392.36,Single-ply,SBD,M
Boys,82.1,9,Colton Hall,Azle,74.98,147.42,79.38,165.56,392.36,Single-ply,SBD,M
Boys,74.84,10,Dustin Martinez,Fort Worth Boswell,69.63,142.88,97.52,142.88,383.29,Single-ply,SBD,M
Boys,74.84,11,Anthony Sanchez,Fort Worth Boswell,72.89,140.61,95.25,140.61,376.48,Single-ply,SBD,M
Boys,74.84,DQ,Lewis Blackwell,Saginaw,71.62,176.9,,,,Single-ply,SBD,M
Boys,74.84,DQ,Devin Walker,Everman,69.76,170.1,,,,Single-ply,SBD,M
Boys,82.1,1,Manny Rodriguez,Saginaw,79.7,201.85,120.2,215.46,537.51,Single-ply,SBD,M
Boys,82.1,2,Dustin Donaldson,Weatherford,75.89,213.19,111.13,210.92,535.24,Single-ply,SBD,M
Boys,82.1,3,Shannon Larry,White Settlement Brewer,77.38,199.58,106.59,206.38,512.56,Single-ply,SBD,M
Boys,82.1,4,Joel Portillo,Azle,80.47,176.9,124.74,192.78,494.42,Single-ply,SBD,M
Boys,82.1,5,Keith Cox,Saginaw,79.47,149.69,95.25,165.56,410.5,Single-ply,SBD,M
Boys,82.1,6,Cesar Lino,Azle,76.84,154.22,90.72,161.03,405.97,Single-ply,SBD,M
Boys,89.81,7,Daniel Ramirez,Fort Worth Boswell,82.28,154.22,99.79,151.95,405.97,Single-ply,SBD,M
Boys,82.1,8,Colton Gribble,Aledo,76.34,147.42,102.06,149.69,399.16,Single-ply,SBD,M
Boys,82.1,DQ,Jacob Jackson,Azle,80.51,,,,,Single-ply,SBD,M
Boys,89.81,DQ,Clayton Hensley,Weatherford,82.24,181.44,,,,Single-ply,SBD,M
Boys,89.81,1,Tyler Reynolds,Weatherford,86.91,226.8,129.27,229.06,585.13,Single-ply,SBD,M
Boys,89.81,2,Dakota Brooks,Azle,88.99,229.06,124.74,229.06,582.87,Single-ply,SBD,M
Boys,89.81,3,Russell Murphy,Saginaw,88.22,219.99,136.08,199.58,555.65,Single-ply,SBD,M
Boys,89.81,4,Hugo Gonzales,White Settlement Brewer,88.18,215.46,129.27,181.44,526.17,Single-ply,SBD,M
Boys,89.81,5,Adam Kaczmarski,White Settlement Brewer,82.69,210.92,115.67,188.24,514.83,Single-ply,SBD,M
Boys,89.81,6,Michael Garner,Weatherford,83.64,199.58,102.06,204.12,505.76,Single-ply,SBD,M
Boys,89.81,7,Trey Lyles,White Settlement Brewer,88.09,190.51,113.4,201.85,505.76,Single-ply,SBD,M
Boys,89.81,8,Kody Cluck,Fort Worth Boswell,88.31,176.9,115.67,170.1,462.66,Single-ply,SBD,M
Boys,89.81,9,Kevin Watson,Aledo,83.28,174.63,104.33,161.03,439.98,Single-ply,SBD,M
Boys,89.81,10,Stephen August,Fort Worth Boswell,87.68,154.22,79.38,156.49,390.09,Single-ply,SBD,M
Boys,89.81,11,Tyler Chappel,Springtown,84.78,154.22,74.84,154.22,383.29,Single-ply,SBD,M
Boys,99.79,1,Austin Price,Aledo,97.48,283.5,172.37,231.33,687.19,Single-ply,SBD,M
Boys,99.79,2,Tj Bradley,Springtown,98.02,242.67,111.13,215.46,569.26,Single-ply,SBD,M
Boys,99.79,3,Brandon Fricke,Azle,98.75,183.7,120.2,231.33,535.24,Single-ply,SBD,M
Boys,99.79,4,Blade Bronstad,Azle,97.34,222.26,102.06,204.12,528.44,Single-ply,SBD,M
Boys,99.79,5,Corey Abbott,White Settlement Brewer,97.3,185.97,131.54,192.78,510.29,Single-ply,SBD,M
Boys,99.79,6,Dallas Theisen,Springtown,97.2,210.92,115.67,181.44,508.02,Single-ply,SBD,M
Boys,99.79,7,Garrett Hamilton,Fort Worth Boswell,95.98,197.31,120.2,154.22,471.74,Single-ply,SBD,M
Boys,99.79,8,Derek Berry,Azle,97.52,181.44,97.52,190.51,469.47,Single-ply,SBD,M
Boys,99.79,9,Bobby Subert,Saginaw,94.94,190.51,104.33,163.29,458.13,Single-ply,SBD,M
Boys,99.79,10,Kelvin McSwain,Saginaw,98.7,181.44,97.52,176.9,455.86,Single-ply,SBD,M
Boys,99.79,11,Ryan Hernandez,Fort Worth Boswell,92.99,154.22,102.06,181.44,437.72,Single-ply,SBD,M
Boys,99.79,12,Daniel Hoystradt,Saginaw,99.61,208.65,117.93,99.79,426.38,Single-ply,SBD,M
Boys,99.79,DQ,Kent Sanner,Weatherford,97.07,165.56,108.86,,,Single-ply,SBD,M
Boys,109.77,1,Anthony Washington,White Settlement Brewer,107.64,249.48,124.74,244.94,619.15,Single-ply,SBD,M
Boys,109.77,2,Reese Richards,Azle,107.77,217.72,108.86,238.14,564.72,Single-ply,SBD,M
Boys,109.77,3,Imran Uddin,Springtown,102.83,215.46,129.27,199.58,544.31,Single-ply,SBD,M
Boys,109.77,4,John Tow,Weatherford,105.87,197.31,140.61,204.12,542.04,Single-ply,SBD,M
Boys,109.77,5,Hayden Davis,Weatherford,105.01,195.04,122.47,172.37,489.88,Single-ply,SBD,M
Boys,109.77,6,Jesse Melendez,Azle,105.96,172.37,97.52,176.9,446.79,Single-ply,SBD,M
Boys,109.77,7,Justin Kayser,Aledo,105.05,140.61,86.18,142.88,369.68,Single-ply,SBD,M
Boys,124.74,1,Peter Lopez,Saginaw,114.31,244.94,149.69,229.06,623.69,Single-ply,SBD,M
Boys,124.74,2,Hank Allen,White Settlement Brewer,114.31,233.6,142.88,210.92,587.4,Single-ply,SBD,M
Boys,124.74,3,James De La Rosa,White Settlement Brewer,117.8,217.72,142.88,222.26,582.87,Single-ply,SBD,M
Boys,124.74,4,Justin Soria,Saginaw,124.06,219.99,136.08,192.78,548.85,Single-ply,SBD,M
Boys,124.74,5,Joe Rosas,Saginaw,124.6,215.46,142.88,170.1,528.44,Single-ply,SBD,M
Boys,124.74,6,Jacob Patch,Azle,117.89,201.85,120.2,190.51,512.56,Single-ply,SBD,M
Boys,124.74,7,Travor Winstead,Springtown,123.6,210.92,106.59,190.51,508.02,Single-ply,SBD,M
Boys,124.74,8,Troy Swift,Springtown,117.71,204.12,95.25,181.44,480.81,Single-ply,SBD,M
Boys,124.74,9,Nick Fite,Aledo,120.56,195.04,113.4,158.76,467.2,Single-ply,SBD,M
Boys,124.74,10,Nathan Runs Through,Fort Worth Boswell,116.17,183.7,95.25,172.37,451.32,Single-ply,SBD,M
Boys,124.74,11,Lincoln Roquemore,Azle,122.74,176.9,104.33,170.1,451.32,Single-ply,SBD,M
Boys,124.74,DQ,Diego Mejia,Everman,114.44,235.87,,,,Single-ply,SBD,M
Boys,124.74+,1,DJ Kaestner,White Settlement Brewer,129.46,226.8,117.93,188.24,532.97,Single-ply,SBD,M
Boys,124.74+,2,Ld Douglas,Fort Worth Boswell,171.78,226.8,92.99,190.51,510.29,Single-ply,SBD,M
Boys,124.74+,3,Britan Bradford,Aledo,131.13,181.44,117.93,167.83,467.2,Single-ply,SBD,M
Boys,124.74+,4,Colton Sanders,Weatherford,129.95,147.42,120.2,140.61,408.23,Single-ply,SBD,M
Boys,124.74+,DQ,James Taylor,Springtown,127.46,,,,,Single-ply,SBD,M
Boys,124.74+,DQ,Cody Eidesness,Aledo,130.32,167.83,,,,Single-ply,SBD,M
