﻿KATEGORIJSKA POWERLIFTING RAW MUŠKARCI;;;;;;;;;;;;;;;;;;;;;;;;;;;;;;;;;;;;;;;;;;;;;;;;;;;;;;;;;;;;;;;;;;;;;;;;;;;;;;;;;;;;;;;;;
;Lot;Group;Lifter name;Gender;Birth year;B.W.;Coefficient;Věkový koeficient;Start day;Nation;Club name;Contingent;Team;Competition category;Weight category;Age category;Catgeory flags;Racks for squat;Racks for bench;SQ (nominace);PC (SQ, nominace);SQ1;SQ2;SQ3;SQ4R;SQ;SQ (prognose);Place (SQ);Place (SQ, prognose);Reshel (SQ);R+F/MC (SQ);Reshel (SQ, prognose);R+F/MC (SQ, prognose);Absolute place (SQ);Absolute place (SQ, prognose);PC (SQ);PC (SQ, prognose);BP (nominace);PC (BP, nominace);BP1;BP2;BP3;BP4R;BP;BP (prognose);Place (BP);Place (BP, prognose);Reshel (BP);R+F/MC (BP);Reshel (BP, prognose);R+F/MC (BP, prognose);Absolute place (BP);Absolute place (BP, prognose);PC (BP);PC (BP, prognose);DL (nominace);PC (DL, nominace);DL1;DL2;DL3;DL4R;DL;DL (prognose);Place (DL);Place (DL, prognose);Reshel (DL);R+F/MC (DL);Reshel (DL, prognose);R+F/MC (DL, prognose);Absolute place (DL);Absolute place (DL, prognose);PC (DL);PC (DL, prognose);Total (nominace);PC (Total, nominace);Total;Total (prognose);Place (Total);Place (Total, prognose);Reshel (Total);R+F/MC (Total);Reshel (Total, prognose);R+F/MC (Total, prognose);Absolute place (Total);Absolute place (Total, prognose);PC (Total);PC (Total, prognose);Division;Status
67.5;;1;LEON Rogina;M;1999;66.30;1.2618;1.0800;4/1/2017 8:00 AM;CROATIA;;;;Juniors -67.5kg RAW;-67.5;J;RAW;8 SIROKO;5;;;140.0;150.0;#;;150.0;150.0;1;1;189.2700;204.4116;189.2700;204.4116;;;;;;;105.0;113.0;#;;113.0;113.0;1;1;142.5834;153.9901;142.5834;153.9901;;;;;;;200.0;216.0;-227.0;;216.0;216.0;1;1;272.5488;294.3527;272.5488;294.3527;;;;;;;479.0;479.0;1;1;604.4022;652.7544;604.4022;652.7544;12;;;;T2;OK
75;;2;IVAN Stanković;M;1974;71.80;1.1652;1.0140;4/1/2017 8:00 AM;SERBIA;;;;Men M1 -75kg RAW;-75.0;Masters1;RAW;7;3/1;;;200.0;-215.0;-215.0;;200.0;200.0;1;1;233.0400;236.3026;233.0400;236.3026;;;;;;;105.0;115.0;-120.0;;115.0;115.0;1;1;133.9980;135.8740;133.9980;135.8740;;;;;;;180.0;200.0;220.0;-237.0;220.0;220.0;2;2;256.3440;259.9328;256.3440;259.9328;;;;;;;535.0;535.0;1;1;623.3820;632.1094;623.3820;632.1094;19;;;;M1;OK
;;2;SEJFO Sehović;M;1959;73.65;1.1366;1.2970;4/1/2017 8:00 AM;BOSNA I HERCEGOVINA;;;;Men M1 -75kg RAW;-75.0;Masters1;RAW;10;4;;;-160.0;165.0;-175.0;;165.0;165.0;2;2;187.5390;243.2381;187.5390;243.2381;;;;;;;100.0;#;#;;100.0;100.0;2;2;113.6600;147.4170;113.6600;147.4170;;;;;;;200.0;220.0;225.0;;225.0;225.0;1;1;255.7350;331.6883;255.7350;331.6883;;;;;;;490.0;490.0;2;2;556.9340;722.3434;556.9340;722.3434;5;;;;M4;OK
;;2;EMIR Muhić;M;1995;74.60;1.1224;1.0200;4/1/2017 8:00 AM;BOSNA I HERCEGOVINA;;;;Juniors -75kg RAW;-75.0;J;RAW;6;4;;;150.0;165.0;175.0;;175.0;175.0;1;1;196.4200;200.3484;196.4200;200.3484;;;;;;;90.0;105.0;-112.5;;105.0;105.0;1;1;117.8520;120.2090;117.8520;120.2090;;;;;;;190.0;205.0;212.5;;212.5;212.5;1;1;238.5100;243.2802;238.5100;243.2802;;;;;;;492.5;492.5;1;1;552.7820;563.8376;552.7820;563.8376;29;;;;J;OK
82.5;;2;MATE Maleš;M;1984;78.80;1.0684;;4/1/2017 8:00 AM;CROATIA;;;;Men -82.5kg RAW;-82.5;Seniors;RAW;;4;;;160.0;-170.0;-170.0;;160.0;160.0;1;1;170.9440;170.9440;170.9440;170.9440;;;;;;;115.0;120.0;-125.0;;120.0;120.0;1;1;128.2080;128.2080;128.2080;128.2080;;;;;;;200.0;220.0;-245.0;;220.0;220.0;1;1;235.0480;235.0480;235.0480;235.0480;;;;;;;500.0;500.0;1;1;534.2000;534.2000;534.2000;534.2000;32;;;;O;OK
;;3;CEROVIĆ Radomir;M;1985;80.10;1.0528;;4/1/2017 8:00 AM;BOSNA I HERCEGOVINA;;;;Men -82.5kg RAW;-82.5;Seniors;RAW;10;5;;;-180.0;180.0;200.0;;200.0;200.0;1;1;210.5600;210.5600;210.5600;210.5600;;;;;;;115.0;120.0;125.0;;125.0;125.0;1;1;131.6000;131.6000;131.6000;131.6000;;;;;;;190.0;205.0;220.0;;220.0;220.0;1;1;231.6160;231.6160;231.6160;231.6160;;;;;;;545.0;545.0;1;1;573.7760;573.7760;573.7760;573.7760;28;;;;O;OK
;;2;TARIK Šarak;M;1997;81.50;1.0390;1.0400;4/1/2017 8:00 AM;BOSNA I HERCEGOVINA;;;;Juniors -82.5kg RAW;-82.5;J;RAW;;5;;;205.0;220.0;-225.0;;220.0;220.0;2;2;228.5800;237.7232;228.5800;237.7232;;;;;;;105.0;115.0;125.0;;125.0;125.0;3;3;129.8750;135.0700;129.8750;135.0700;;;;;;;-210.0;220.0;230.0;240.0;230.0;230.0;2;2;238.9700;248.5288;238.9700;248.5288;;;;;;;575.0;575.0;2;2;597.4250;621.3220;597.4250;621.3220;22;;;;T3;OK
;;2;STEFAN Kašiković;M;1997;81.90;1.0348;1.0400;4/1/2017 8:00 AM;BOSNA I HERCEGOVINA;;;;Juniors -82.5kg RAW;-82.5;J;RAW;;4;;;180.0;195.0;-222.5;;195.0;195.0;3;3;201.7860;209.8574;201.7860;209.8574;;;;;;;-120.0;130.0;-135.0;;130.0;130.0;2;2;134.5240;139.9050;134.5240;139.9050;;;;;;;205.0;222.5;-240.0;;222.5;222.5;3;3;230.2430;239.4527;230.2430;239.4527;;;;;;;547.5;547.5;3;3;566.5530;589.2151;566.5530;589.2151;25;;;;T3;OK
;;2;DARIO Dašić;M;1995;82.00;1.0340;1.0200;4/1/2017 8:00 AM;CROATIA;;;;Juniors -82.5kg RAW;-82.5;J;RAW;10;4;;;-210.0;210.0;225.0;;225.0;225.0;1;1;232.6500;237.3030;232.6500;237.3030;;;;;;;140.0;150.0;-156.0;;150.0;150.0;1;1;155.1000;158.2020;155.1000;158.2020;;;;;;;-230.0;240.0;246.0;-251.0;246.0;246.0;1;1;254.3640;259.4513;254.3640;259.4513;;;;;;;621.0;621.0;1;1;642.1140;654.9563;642.1140;654.9563;11;;;;J;OK
90;;3;RENATO Repić;M;1991;86.65;0.9924;;4/1/2017 8:00 AM;SERBIA;;;;Men -90kg RAW;-90.0;Seniors;RAW;9;5;;;220.0;-240.0;-250.0;;220.0;220.0;3;3;218.3280;218.3280;218.3280;218.3280;;;;;;;140.0;-150.0;-150.0;;140.0;140.0;3;3;138.9360;138.9360;138.9360;138.9360;;;;;;;255.0;270.0;-275.0;;270.0;270.0;3;3;267.9480;267.9480;267.9480;267.9480;;;;;;;630.0;630.0;3;3;625.2120;625.2120;625.2120;625.2120;21;;;;O;OK
;;3;SAMIR Muslić;M;1968;87.25;0.9878;1.1140;4/1/2017 8:00 AM;BOSNA I HERCEGOVINA;;;;Men M1 -90kg RAW;-90.0;Masters1;RAW;11;6;;;180.0;190.0;-202.5;;190.0;190.0;2;2;187.6820;209.0777;187.6820;209.0777;;;;;;;140.0;150.0;-152.5;;150.0;150.0;1;1;148.1700;165.0614;148.1700;165.0614;;;;;;;210.0;228.0;235.0;;235.0;235.0;1;1;232.1330;258.5962;232.1330;258.5962;;;;;;;575.0;575.0;1;1;567.9850;632.7353;567.9850;632.7353;18;;;;M2;OK
;;3;SIMON Stopar;M;1984;87.65;0.9854;;4/1/2017 8:00 AM;SLOVENIA;;;;Men -90kg RAW;-90.0;Seniors;RAW;9;5;;;280.0;300.0;-310.0;;300.0;300.0;1;1;295.6200;295.6200;295.6200;295.6200;;;;;;;145.0;152.5;160.0;;160.0;160.0;2;2;157.6640;157.6640;157.6640;157.6640;;;;;;;270.0;290.0;295.0;;295.0;295.0;1;1;290.6930;290.6930;290.6930;290.6930;;;;;;;755.0;755.0;1;1;743.9770;743.9770;743.9770;743.9770;3;;;;O;OK
;;3;HALID Fazlic;M;1996;88.00;0.9830;1.0300;4/1/2017 8:00 AM;SERBIA;;;;Juniors -90kg RAW;-90.0;J;RAW;11;5/1;;;220.0;-230.0;-230.0;;220.0;220.0;1;1;216.2600;222.7478;216.2600;222.7478;;;;;;;110.0;115.0;117.5;;117.5;117.5;1;1;115.5025;118.9676;115.5025;118.9676;;;;;;;235.0;250.0;-270.0;;250.0;250.0;1;1;245.7500;253.1225;245.7500;253.1225;;;;;;;587.5;587.5;1;1;577.5125;594.8379;577.5125;594.8379;24;;;;J;OK
;;3;JASMIN Žiga;M;1997;88.85;0.9768;1.0300;4/1/2017 8:00 AM;BOSNA I HERCEGOVINA;;;;Juniors -90kg RAW;-90.0;J;RAW;11;4;;;195.0;210.0;220.0;;220.0;220.0;2;2;214.8960;221.3429;214.8960;221.3429;;;;;;;105.0;117.5;#;;117.5;117.5;2;2;114.7740;118.2172;114.7740;118.2172;;;;;;;200.0;215.0;-225.0;;215.0;215.0;2;2;210.0120;216.3124;210.0120;216.3124;;;;;;;552.5;552.5;2;2;539.6820;555.8725;539.6820;555.8725;31;;;;J;OK
;;3;SINIŠA Knežević;M;1971;89.25;0.9736;1.0600;4/1/2017 8:00 AM;CROATIA;;;;Men M1 -90kg RAW;-90.0;Masters1;RAW;7;4;;;185.0;200.0;220.0;;220.0;220.0;1;1;214.1920;227.0435;214.1920;227.0435;;;;;;;120.0;125.0;-130.0;;125.0;125.0;2;2;121.7000;129.0020;121.7000;129.0020;;;;;;;200.0;-225.0;-225.0;;200.0;200.0;2;2;194.7200;206.4032;194.7200;206.4032;;;;;;;545.0;545.0;2;2;530.6120;562.4487;530.6120;562.4487;30;;;;M2;OK
;;3;MARKO Huzjak;M;1987;89.55;0.9712;;4/1/2017 8:00 AM;CROATIA;;;;Men -90kg RAW;-90.0;Seniors;RAW;10 USKO;4;;;280.0;-300.0;-305.0;;280.0;280.0;2;2;271.9360;271.9360;271.9360;271.9360;;;;;;;190.0;-206.0;-206.0;-206.0;190.0;190.0;1;1;184.5280;184.5280;184.5280;184.5280;;;;;;;270.0;-285.0;285.0;;285.0;285.0;2;2;276.7920;276.7920;276.7920;276.7920;;;;;;;755.0;755.0;2;2;733.2560;733.2560;733.2560;733.2560;4;;;;O;OK
100;;4;KAMEN Momchilov;M;1986;96.80;0.9278;;4/1/2017 8:00 AM;BULGARIA;;;;Men -100kg RAW;-100.0;Seniors;RAW;11;6;;;225.0;230.0;-235.0;;230.0;230.0;4;4;213.3940;213.3940;213.3940;213.3940;;;;;;;165.0;170.0;-175.0;;170.0;170.0;3;3;157.7260;157.7260;157.7260;157.7260;;;;;;;270.0;280.0;287.5;;287.5;287.5;3;3;266.7425;266.7425;266.7425;266.7425;;;;;;;687.5;687.5;4;4;637.8625;637.8625;637.8625;637.8625;16;;;;O;OK
;;4;OGNJEN Ponjevic;M;1997;97.30;0.9258;1.0400;4/1/2017 8:00 AM;BOSNA I HERCEGOVINA;;;;Juniors -100kg RAW;-100.0;J;RAW;;6/1;;;100.0;#;#;;100.0;100.0;1;1;92.5800;96.2832;92.5800;96.2832;;;;;;;137.5;142.5;147.5;-150.0;147.5;147.5;1;1;136.5555;142.0177;136.5555;142.0177;;;;;;;200.0;220.0;230.0;;230.0;230.0;1;1;212.9340;221.4514;212.9340;221.4514;;;;;;;477.5;477.5;1;1;442.0695;459.7523;442.0695;459.7523;33;;;;T3;OK
;;4;SLAVYAN Stoichev;M;1986;97.70;0.9242;;4/1/2017 8:00 AM;BULGARIA;;;;Men -100kg RAW;-100.0;Seniors;RAW;10;4;;;285.0;295.0;302.5;;302.5;302.5;1;1;279.5705;279.5705;279.5705;279.5705;;;;;;;160.0;170.0;175.0;;175.0;175.0;2;2;161.7350;161.7350;161.7350;161.7350;;;;;;;270.0;-290.0;-290.0;;270.0;270.0;5;5;249.5340;249.5340;249.5340;249.5340;;;;;;;747.5;747.5;2;2;690.8395;690.8395;690.8395;690.8395;8;;;;O;OK
;;4;DUŠAN Jovanović;M;1992;99.10;0.9186;;4/1/2017 8:00 AM;SERBIA;;;;Men -100kg RAW;-100.0;Seniors;RAW;9;4;;;-285.0;285.0;295.0;;295.0;295.0;2;2;270.9870;270.9870;270.9870;270.9870;;;;;;;200.0;208.0;#;;208.0;208.0;1;1;191.0688;191.0688;191.0688;191.0688;;;;;;;315.0;322.5;327.5;;327.5;327.5;1;1;300.8415;300.8415;300.8415;300.8415;;;;;;;830.5;830.5;1;1;762.8973;762.8973;762.8973;762.8973;1;;;;O;OK
;;4; Nikola Čigoja;M;1990;99.50;0.9170;;4/1/2017 8:00 AM;BOSNA I HERCEGOVINA;;;;Men -100kg RAW;-100.0;Seniors;RAW;10 široko;5;;;255.0;265.0;272.5;;272.5;272.5;3;3;249.8825;249.8825;249.8825;249.8825;;;;;;;155.0;-170.0;-170.0;;155.0;155.0;4;4;142.1350;142.1350;142.1350;142.1350;;;;;;;255.0;270.0;275.0;;275.0;275.0;4;4;252.1750;252.1750;252.1750;252.1750;;;;;;;702.5;702.5;3;3;644.1925;644.1925;644.1925;644.1925;14;;;;O;OK
;;4;ROBERT Krušić;M;1986;99.80;0.9158;;4/1/2017 8:00 AM;CROATIA;;;;Men -100kg RAW;-100.0;Seniors;RAW;9 ŠIROKO;5;;;-300.0;-300.0;-300.0;;0.0;0.0;;;0.0000;0.0000;0.0000;0.0000;;;;;;;140.0;150.0;-152.5;;150.0;150.0;5;5;137.3700;137.3700;137.3700;137.3700;;;;;;;290.0;#;#;;290.0;290.0;2;2;265.5820;265.5820;265.5820;265.5820;;;;;;;0.0;0.0;;;0.0000;0.0000;0.0000;0.0000;36;;;;O;OUT
-110;;4;MILOŠ Kulpinski;M;1988;105.70;0.8962;;4/1/2017 8:00 AM;SERBIA;;;;Men -110kg RAW;-110.0;Seniors;RAW;10;5;;;250.0;-275.0;-275.0;;250.0;250.0;2;2;224.0500;224.0500;224.0500;224.0500;;;;;;;140.0;150.0;-155.0;;150.0;150.0;1;1;134.4300;134.4300;134.4300;134.4300;;;;;;;-255.0;255.0;#;;255.0;255.0;2;2;228.5310;228.5310;228.5310;228.5310;;;;;;;655.0;655.0;2;2;587.0110;587.0110;587.0110;587.0110;26;;;;O;OK
;;4;CHRIS Windfeld;M;1985;105.80;0.8958;;4/1/2017 8:00 AM;DENMARK;;;;Men -110kg RAW;-110.0;Seniors;RAW;11;5;;;170.0;180.0;-190.0;;180.0;180.0;3;3;161.2440;161.2440;161.2440;161.2440;;;;;;;120.0;-130.0;-130.0;;120.0;120.0;3;3;107.4960;107.4960;107.4960;107.4960;;;;;;;200.0;210.0;#;;210.0;210.0;3;3;188.1180;188.1180;188.1180;188.1180;;;;;;;510.0;510.0;3;3;456.8580;456.8580;456.8580;456.8580;34;;;;O;OK
;;4;HAMZA Botić;M;1994;106.10;0.8946;1.0100;4/1/2017 8:00 AM;BOSNA I HERCEGOVINA;;;;Juniors -110kg RAW;-110.0;J;RAW;11;6/0;;;265.0;-275.0;282.5;;282.5;282.5;1;1;252.7245;255.2517;252.7245;255.2517;;;;;;;170.0;180.0;187.5;195.0;187.5;187.5;1;1;167.7375;169.4149;167.7375;169.4149;;;;;;;305.0;322.5;-341.0;;322.5;322.5;1;1;288.5085;291.3936;288.5085;291.3936;;;;;;;792.5;792.5;1;1;708.9705;716.0602;708.9705;716.0602;6;;;;J;OK
;;4;SAŠA Cvetković;M;1970;108.00;0.8900;1.0780;4/1/2017 8:00 AM;SERBIA;;;;Men M1 -110kg RAW;-110.0;Masters1;RAW;12;6/1;;;200.0;220.0;230.0;;230.0;230.0;1;1;204.7000;220.6666;204.7000;220.6666;;;;;;;130.0;140.0;145.0;;145.0;145.0;1;1;129.0500;139.1159;129.0500;139.1159;;;;;;;235.0;251.0;261.0;271.0;261.0;261.0;1;1;232.2900;250.4086;232.2900;250.4086;;;;;;;636.0;636.0;1;1;566.0400;610.1911;566.0400;610.1911;23;;;;M2;OK
;;4;JAN Roblek;M;1994;108.60;0.8886;1.0100;4/1/2017 8:00 AM;SLOVENIA;;;;Juniors -110kg RAW;-110.0;J;RAW;11;5;;;280.0;-292.5;-292.5;;280.0;280.0;2;2;248.8080;251.2961;248.8080;251.2961;;;;;;;165.0;172.5;180.0;;180.0;180.0;2;2;159.9480;161.5475;159.9480;161.5475;;;;;;;280.0;295.0;305.0;;305.0;305.0;2;2;271.0230;273.7332;271.0230;273.7332;;;;;;;765.0;765.0;2;2;679.7790;686.5768;679.7790;686.5768;9;;;;J;OK
;;4;HRVOJE Marinović;M;1996;108.80;0.8878;1.0200;4/1/2017 8:00 AM;CROATIA;;;;Juniors -110kg RAW;-110.0;J;RAW;12 ŠIROKO;6;;;260.0;270.0;280.0;;280.0;280.0;3;3;248.5840;253.5557;248.5840;253.5557;;;;;;;145.0;150.0;-155.0;;150.0;150.0;3;3;133.1700;135.8334;133.1700;135.8334;;;;;;;270.0;285.0;-300.0;;285.0;285.0;3;3;253.0230;258.0835;253.0230;258.0835;;;;;;;715.0;715.0;3;3;634.7770;647.4726;634.7770;647.4726;13;;;;J;OK
;;4;ELMEDIN Hećo;M;1979;109.90;0.8850;;4/1/2017 8:00 AM;BOSNA I HERCEGOVINA;;;;Men -110kg RAW;-110.0;Seniors;RAW;10 usko;5;;;300.0;-317.5;317.5;;317.5;317.5;1;1;280.9875;280.9875;280.9875;280.9875;;;;;;;140.0;147.5;-150.0;;147.5;147.5;2;2;130.5375;130.5375;130.5375;130.5375;;;;;;;290.0;300.0;307.5;;307.5;307.5;1;1;272.1375;272.1375;272.1375;272.1375;;;;;;;772.5;772.5;1;1;683.6625;683.6625;683.6625;683.6625;10;;;;O;OK
125;;;ANTE Gluić;M;1999;118.20;0.8670;1.0800;4/2/2017 8:00 AM;CROATIA;;;;Juniors -125kg RAW;-125.0;J;RAW;9 ŠIROKO;5;;;245.0;250.0;255.0;;255.0;255.0;1;1;221.0850;238.7718;221.0850;238.7718;;;;;;;155.0;160.0;165.0;;165.0;165.0;1;1;143.0550;154.4994;143.0550;154.4994;;;;;;;245.0;255.0;265.0;;265.0;265.0;1;1;229.7550;248.1354;229.7550;248.1354;;;;;;;685.0;685.0;1;1;593.8950;641.4066;593.8950;641.4066;15;;;;T2;OK
;;;ERNES Glavašević;M;1981;119.35;0.8650;;4/2/2017 8:00 AM;BOSNA I HERCEGOVINA;;;;Men -125kg RAW;-125.0;Seniors;RAW;9 ŠIROKO;5;;;-330.0;-350.0;350.0;;350.0;350.0;1;1;302.7500;302.7500;302.7500;302.7500;;;;;;;-200.0;200.0;210.0;;210.0;210.0;1;1;181.6500;181.6500;181.6500;181.6500;;;;;;;290.0;305.0;#;;305.0;305.0;1;1;263.8250;263.8250;263.8250;263.8250;;;;;;;865.0;865.0;1;1;748.2250;748.2250;748.2250;748.2250;2;;;;O;OK
-140;;;IGOR Mitrović;M;1974;126.60;0.8560;1.0140;4/2/2017 8:00 AM;SERBIA;;;;Men M1 -140kg RAW;-140.0;Masters1;RAW;11 out;6;;;280.0;290.0;#;;290.0;290.0;1;1;248.2400;251.7154;248.2400;251.7154;;;;;;;140.0;150.0;#;;150.0;150.0;1;1;128.4000;130.1976;128.4000;130.1976;;;;;;;290.0;-301.0;#;;290.0;290.0;1;1;248.2400;251.7154;248.2400;251.7154;;;;;;;730.0;730.0;1;1;624.8800;633.6284;624.8800;633.6284;17;;;;M1;OK
;;;AMIR Đozo;M;1977;128.50;0.8530;;4/2/2017 8:00 AM;BOSNA I HERCEGOVINA;;;;Men M1 -140kg RAW;-140.0;Masters1;RAW;11;6;;;240.0;275.0;-290.0;;275.0;275.0;1;1;234.5750;234.5750;234.5750;234.5750;;;;;;;130.0;145.0;155.0;;155.0;155.0;1;1;132.2150;132.2150;132.2150;132.2150;;;;;;;180.0;220.0;250.0;;250.0;250.0;1;1;213.2500;213.2500;213.2500;213.2500;;;;;;;680.0;680.0;1;1;580.0400;580.0400;580.0400;580.0400;27;;;;M1;OK
;;;VARAGIĆ Marko;M;1995;132.00;0.8490;1.0100;4/2/2017 8:00 AM;MONTENEGRO;;;;Juniors -140kg RAW;-140.0;J;RAW;11;6;;;250.0;260.0;-270.0;;260.0;260.0;1;1;220.7400;222.9474;220.7400;222.9474;;;;;;;-170.0;170.0;#;;170.0;170.0;1;1;144.3300;145.7733;144.3300;145.7733;;;;;;;300.0;-320.0;-320.0;;300.0;300.0;1;1;254.7000;257.2470;254.7000;257.2470;;;;;;;730.0;730.0;1;1;619.7700;625.9677;619.7700;625.9677;20;;;;J;OK
;;;SANEL Đalić;M;1979;136.40;0.8444;;4/2/2017 8:00 AM;BOSNA I HERCEGOVINA;;;;Men -140kg RAW;-140.0;Seniors;RAW;9;5;;;360.0;-385.0;385.0;-400.0;385.0;385.0;1;1;325.0940;325.0940;325.0940;325.0940;;;;;;;#;#;#;;0.0;0.0;;;0.0000;0.0000;0.0000;0.0000;;;;;;;#;#;#;;0.0;0.0;;;0.0000;0.0000;0.0000;0.0000;;;;;;;0.0;0.0;;;0.0000;0.0000;0.0000;0.0000;35;;;;O;OUT
140+;;;ALEKSANDAR Lukić ;M;1982;142.20;0.8380;;4/2/2017 8:00 AM;BOSNA I HERCEGOVINA;;;;Men +140kg RAW;140.0;Seniors;RAW;11 out;6;;;290.0;310.0;320.0;;320.0;320.0;1;1;268.1600;268.1600;268.1600;268.1600;;;;;;;200.0;207.5;212.5;;212.5;212.5;1;1;178.0750;178.0750;178.0750;178.0750;;;;;;;300.0;312.5;320.0;;320.0;320.0;1;1;268.1600;268.1600;268.1600;268.1600;;;;;;;852.5;852.5;1;1;714.3950;714.3950;714.3950;714.3950;7;;;;O;OK
KATEGORIJSKA POWERLIFTING RAW ŽENE;;;;;;;;;;;;;;;;;;;;;;;;;;;;;;;;;;;;;;;;;;;;;;;;;;;;;;;;;;;;;;;;;;;;;;;;;;;;;;;;;;;;;;;;;
;Lot;Group;Lifter name;Gender;Birth year;B.W.;Coefficient;Věkový koeficient;Start day;Nation;Club name;Contingent;Team;Competition category;Weight category;Age category;Catgeory flags;Racks for squat;Racks for bench;SQ (nominace);PC (SQ, nominace);SQ1;SQ2;SQ3;SQ4R;SQ;SQ (prognose);Place (SQ);Place (SQ, prognose);Reshel (SQ);R+F/MC (SQ);Reshel (SQ, prognose);R+F/MC (SQ, prognose);Absolute place (SQ);Absolute place (SQ, prognose);PC (SQ);PC (SQ, prognose);BP (nominace);PC (BP, nominace);BP1;BP2;BP3;BP4R;BP;BP (prognose);Place (BP);Place (BP, prognose);Reshel (BP);R+F/MC (BP);Reshel (BP, prognose);R+F/MC (BP, prognose);Absolute place (BP);Absolute place (BP, prognose);PC (BP);PC (BP, prognose);DL (nominace);PC (DL, nominace);DL1;DL2;DL3;DL4R;DL;DL (prognose);Place (DL);Place (DL, prognose);Reshel (DL);R+F/MC (DL);Reshel (DL, prognose);R+F/MC (DL, prognose);Absolute place (DL);Absolute place (DL, prognose);PC (DL);PC (DL, prognose);Total (nominace);PC (Total, nominace);Total;Total (prognose);Place (Total);Place (Total, prognose);Reshel (Total);R+F/MC (Total);Reshel (Total, prognose);R+F/MC (Total, prognose);Absolute place (Total);Absolute place (Total, prognose);PC (Total);PC (Total, prognose);Division;Status
52;;1;NADICA Gojković;F;1973;50.65;2.1488;1.0280;4/1/2017 8:00 AM;SERBIA;;;;Women M1 -52kg RAW;-52.0;Masters1;RAW;8;3/1;;;70.0;-80.0;-80.0;;70.0;70.0;1;1;150.4160;154.6276;150.4160;154.6276;;;;;;;40.0;47.5;-51.0;;47.5;47.5;1;1;102.0680;104.9259;102.0680;104.9259;;;;;;;-70.0;75.0;85.0;;85.0;85.0;1;1;182.6480;187.7621;182.6480;187.7621;;;;;;;202.5;202.5;1;1;435.1320;447.3156;435.1320;447.3156;14;;;;M1;OK
;;1;LARA Valjevac;F;1995;51.65;2.0946;1.0200;4/1/2017 8:00 AM;SLOVENIA;;;;Juniors -52kg RAW;-52.0;J;RAW;7;3;;;105.0;112.5;-120.0;;112.5;112.5;1;1;235.6425;240.3554;235.6425;240.3554;;;;;;;55.0;-57.5;57.5;;57.5;57.5;1;1;120.4395;122.8483;120.4395;122.8483;;;;;;;125.0;132.5;138.0;-140.0;138.0;138.0;1;1;289.0548;294.8359;289.0548;294.8359;;;;;;;308.0;308.0;1;1;645.1368;658.0396;645.1368;658.0396;2;;;;J;OK
56;;1;ZORANA Dinić;F;1998;52.75;2.0380;1.0400;4/1/2017 8:00 AM;SERBIA;;;;Juniors -56kg RAW;-56.0;J;RAW;7;2/1;;;75.0;-86.0;-87.5;;75.0;75.0;3;3;152.8500;158.9640;152.8500;158.9640;;;;;;;-42.5;42.5;-45.0;;42.5;42.5;3;3;86.6150;90.0796;86.6150;90.0796;;;;;;;90.0;-95.0;100.0;;100.0;100.0;3;3;203.8000;211.9520;203.8000;211.9520;;;;;;;217.5;217.5;3;3;443.2650;460.9956;443.2650;460.9956;13;;;;T3;OK
;;1;EMILIJA Jovanović;F;1992;53.90;1.9880;;4/1/2017 8:00 AM;SERBIA;;;;Women -56kg RAW;-56.0;Seniors;RAW;8;2/1;;;105.0;-112.5;112.5;;112.5;112.5;1;1;223.6500;223.6500;223.6500;223.6500;;;;;;;52.5;55.0;-57.5;;55.0;55.0;1;1;109.3400;109.3400;109.3400;109.3400;;;;;;;-115.0;115.0;#;;115.0;115.0;1;1;228.6200;228.6200;228.6200;228.6200;;;;;;;282.5;282.5;1;1;561.6100;561.6100;561.6100;561.6100;4;;;;O;OK
;;1;TEA Stojšić;F;1997;54.00;1.9840;1.0400;4/1/2017 8:00 AM;CROATIA;;;;Juniors -56kg RAW;-56.0;J;RAW;7;4;;;85.0;90.0;95.0;;95.0;95.0;2;2;188.4800;196.0192;188.4800;196.0192;;;;;;;47.5;52.5;55.0;;55.0;55.0;1;1;109.1200;113.4848;109.1200;113.4848;;;;;;;110.0;121.0;-130.0;;121.0;121.0;2;2;240.0640;249.6666;240.0640;249.6666;;;;;;;271.0;271.0;2;2;537.6640;559.1706;537.6640;559.1706;6;;;;T3;OK
;;1;LUCIJA Slovša;F;1996;54.55;1.9588;1.0300;4/1/2017 8:00 AM;SLOVENIA;;;;Juniors -56kg RAW;-56.0;J;RAW;7;3;;;-100.0;-100.0;100.0;;100.0;100.0;1;1;195.8800;201.7564;195.8800;201.7564;;;;;;;50.0;52.5;-55.0;;52.5;52.5;2;2;102.8370;105.9221;102.8370;105.9221;;;;;;;110.0;120.0;125.0;130.0;125.0;125.0;1;1;244.8500;252.1955;244.8500;252.1955;;;;;;;277.5;277.5;1;1;543.5670;559.8740;543.5670;559.8740;5;;;;J;OK
67.5;;1;ANA Maslov ;F;1986;65.75;1.6672;;4/1/2017 8:00 AM;CROATIA;;;;Women -67.5kg RAW;-67.5;Seniors;RAW;5;4;;;105.0;110.0;-115.0;;110.0;110.0;1;1;183.3920;183.3920;183.3920;183.3920;;;;;;;42.5;-45.0;47.5;;47.5;47.5;2;2;79.1920;79.1920;79.1920;79.1920;;;;;;;110.0;120.0;-130.0;;120.0;120.0;2;2;200.0640;200.0640;200.0640;200.0640;;;;;;;277.5;277.5;2;2;462.6480;462.6480;462.6480;462.6480;12;;;;O;OK
;;1;JELENA Marinković;F;1983;66.95;1.6470;;4/1/2017 8:00 AM;SERBIA;;;;Women -67.5kg RAW;-67.5;Seniors;RAW;8;3/2;;;110.0;-120.0;-125.0;;110.0;110.0;2;2;181.1700;181.1700;181.1700;181.1700;;;;;;;60.0;65.0;-67.5;;65.0;65.0;1;1;107.0550;107.0550;107.0550;107.0550;;;;;;;120.0;135.0;140.0;-145.0;140.0;140.0;1;1;230.5800;230.5800;230.5800;230.5800;;;;;;;315.0;315.0;1;1;518.8050;518.8050;518.8050;518.8050;9;;;;O;OK
75;;2;ADELA Ajanović;F;1987;74.35;1.5502;;4/1/2017 8:00 AM;BOSNA I HERCEGOVINA;;;;Women -75kg RAW;-75.0;Seniors;RAW;6;4;;;130.0;-140.0;-145.0;#;130.0;130.0;2;2;201.5260;201.5260;201.5260;201.5260;;;;;;;40.0;50.0;-57.5;;50.0;50.0;2;2;77.5100;77.5100;77.5100;77.5100;;;;;;;125.0;130.0;140.0;;140.0;140.0;2;2;217.0280;217.0280;217.0280;217.0280;;;;;;;320.0;320.0;2;2;496.0640;496.0640;496.0640;496.0640;10;;;;O;OK
;;2;ELENA Glišić;F;1992;74.65;1.5466;;4/1/2017 8:00 AM;SERBIA;;;;Women -75kg RAW;-75.0;Seniors;RAW;9;4/1;;;-140.0;-140.0;140.0;-150.0;140.0;140.0;1;1;216.5240;216.5240;216.5240;216.5240;;;;;;;50.0;57.5;-62.5;;57.5;57.5;1;1;88.9295;88.9295;88.9295;88.9295;;;;;;;140.0;152.5;160.0;170.0;160.0;160.0;1;1;247.4560;247.4560;247.4560;247.4560;;;;;;;357.5;357.5;1;1;552.9095;552.9095;552.9095;552.9095;8;;;;O;OK
82.5;;2;NINA Marković;F;1998;81.50;1.4830;1.0600;4/1/2017 8:00 AM;MONTENEGRO;;;;Juniors -82.5kg RAW;-82.5;J;RAW;8;4/1;;;-130.0;-135.0;135.0;;135.0;135.0;1;1;200.2050;212.2173;200.2050;212.2173;;;;;;;80.0;85.0;90.0;;90.0;90.0;1;1;133.4700;141.4782;133.4700;141.4782;;;;;;;135.0;-145.0;-145.0;;135.0;135.0;2;2;200.2050;212.2173;200.2050;212.2173;;;;;;;360.0;360.0;1;1;533.8800;565.9128;533.8800;565.9128;3;;;;T3;OK
;;2;VLADANA Radonjić;F;2001;82.40;1.4758;1.1800;4/1/2017 8:00 AM;SERBIA;;;;Juniors -82.5kg RAW;-82.5;J;RAW;7;2/1;;;130.0;-140.0;-150.0;;130.0;130.0;2;2;191.8540;226.3877;191.8540;226.3877;;;;;;;40.0;50.0;52.5;;52.5;52.5;2;2;77.4795;91.4258;77.4795;91.4258;;;;;;;120.0;130.0;137.5;;137.5;137.5;1;1;202.9225;239.4486;202.9225;239.4486;;;;;;;320.0;320.0;2;2;472.2560;557.2621;472.2560;557.2621;7;;;;T1;OK
90;;3;ALMIRA Lizde;F;1982;83.25;1.4680;;4/1/2017 8:00 AM;BOSNA I HERCEGOVINA;;;;Women -90kg RAW;-90.0;Seniors;RAW;10;4/1;;;165.0;175.0;185.0;-191.0;185.0;185.0;1;1;271.5800;271.5800;271.5800;271.5800;;;;;;;80.0;85.0;-90.0;;85.0;85.0;1;1;124.7800;124.7800;124.7800;124.7800;;;;;;;205.0;215.0;222.5;230.0;222.5;222.5;1;1;326.6300;326.6300;326.6300;326.6300;;;;;;;492.5;492.5;1;1;722.9900;722.9900;722.9900;722.9900;1;;;;O;OK
110+;;4;MILENA Martinović;F;1999;115.90;1.3122;1.0800;4/1/2017 8:00 AM;SERBIA;;;;Juniors +110kg RAW;110.0;J;RAW;8;3;;;115.0;120.0;125.0;;125.0;125.0;1;1;164.0250;177.1470;164.0250;177.1470;;;;;;;75.0;80.0;82.5;;82.5;82.5;1;1;108.2565;116.9170;108.2565;116.9170;;;;;;;115.0;120.0;125.0;;125.0;125.0;1;1;164.0250;177.1470;164.0250;177.1470;;;;;;;332.5;332.5;1;1;436.3065;471.2110;436.3065;471.2110;11;;;;T2;OK
KATEGORIJSKA POWERLIFTING EQ;;;;;;;;;;;;;;;;;;;;;;;;;;;;;;;;;;;;;;;;;;;;;;;;;;;;;;;;;;;;;;;;;;;;;;;;;;;;;;;;;;;;;;;;;
90;;3;ALEKSANDAR Radisavljević;M;1996;89.40;0.9728;1.0300;4/1/2017 8:00 AM;SERBIA;;;;Juniors -90kg EQUIP;-90.0;J;EQUIP;9 SIROKO;4/2;;;-210.0;220.0;#;;220.0;220.0;1;1;214.0160;220.4365;214.0160;220.4365;;;;;;;100.0;-110.0;110.0;;110.0;110.0;1;1;107.0080;110.2182;107.0080;110.2182;;;;;;;-205.0;210.0;225.0;;225.0;225.0;1;1;218.8800;225.4464;218.8800;225.4464;;;;;;;555.0;555.0;1;1;539.9040;556.1011;539.9040;556.1011;1;;;;J;OK
;;;;;;;;;;;;;;;;;;;;;;;;;;;;;;;;;;;;;;;;;;;;;;;;;;;;;;;;;;;;;;;;;;;;;;;;;;;;;;;;;;;;;;;;;