Division,WeightClassKg,Place,Name,Team,BodyweightKg,Best3SquatKg,Best3BenchKg,Best3DeadliftKg,TotalKg,Equipment,Event,Sex
Boys,55.79,1,Tyrus King,Pflugerville Connally,51.8,133.81,77.11,138.35,349.27,Single-ply,SBD,M
Boys,55.79,2,Bryan Martinez,Taylor,51.8,138.35,58.97,124.74,322.05,Single-ply,SBD,M
Boys,51.71,3,Marsalis Carrington,Austin Bowie,48.53,102.06,68.04,133.81,303.91,Single-ply,SBD,M
Boys,55.79,1,Trey Fuller,Jarrell,55.25,149.69,81.65,154.22,385.55,Single-ply,SBD,M
Boys,55.79,2,Lorenzo Sanchez,Taylor,53.16,124.74,92.99,145.15,362.87,Single-ply,SBD,M
Boys,59.87,3,Alec Webster,Killeen Shoemaker,55.97,117.93,92.99,149.69,360.61,Single-ply,SBD,M
Boys,55.79,4,Davion Aldridge,Hutto,53.52,136.08,68.04,140.61,344.73,Single-ply,SBD,M
Boys,55.79,5,Sammy Ortega,Hutto,52.71,124.74,70.31,136.08,331.12,Single-ply,SBD,M
Boys,55.79,6,Adonis Davis,Bastrop,55.16,131.54,77.11,117.93,326.59,Single-ply,SBD,M
Boys,55.79,DQ,Chris Martinez,Bastrop,55.79,,,,,Single-ply,SBD,M
Boys,55.79,DQ,Jacob Powell,Little River Academy,53.25,115.67,,,,Single-ply,SBD,M
Boys,55.79,DQ,Gilbert Velasquez,Taylor,55.16,,,,,Single-ply,SBD,M
Boys,67.13,1,Jose Martinez-Gonzalez,Taylor,60.06,161.03,86.18,154.22,401.43,Single-ply,SBD,M
Boys,59.87,2,Lus Mena,Del Valle,59.6,122.47,88.45,158.76,369.68,Single-ply,SBD,M
Boys,59.87,3,Calestino Hernandez,Del Valle,56.97,147.42,81.65,133.81,362.87,Single-ply,SBD,M
Boys,59.87,4,Garry Mackey,Manor,58.51,124.74,81.65,142.88,349.27,Single-ply,SBD,M
Boys,59.87,5,Brandon Batot,Bastrop,59.69,124.74,68.04,140.61,333.39,Single-ply,SBD,M
Boys,59.87,6,Brandon Tijerina,Austin Bowie,59.06,111.13,70.31,142.88,324.32,Single-ply,SBD,M
Boys,59.87,7,Rycherd Lott,Leander Rouse,57.79,115.67,70.31,136.08,322.05,Single-ply,SBD,M
Boys,59.87,8,Kaden Trice,Salado,58.69,122.47,63.5,131.54,317.51,Single-ply,SBD,M
Boys,67.13,9,Kylan Wiley,Taylor,59.96,90.72,61.23,129.27,281.23,Single-ply,SBD,M
Boys,59.87,DQ,Dustin Free,Salado,59.87,,,,,Single-ply,SBD,M
Boys,67.13,1,David Salazar,Taylor,66.32,229.06,106.59,201.85,537.51,Single-ply,SBD,M
Boys,67.13,2,Chris Hendricks,Leander Rouse,67.13,190.51,104.33,206.38,501.22,Single-ply,SBD,M
Boys,67.13,3,David Taylor,College Station A&M Cons,63.68,183.7,99.79,201.85,485.34,Single-ply,SBD,M
Boys,74.84,4,Justis Owens,Hutto,67.31,185.97,95.25,188.24,469.47,Single-ply,SBD,M
Boys,67.13,5,Thomas Abraham,Austin Bowie,66.59,161.03,111.13,195.04,467.2,Single-ply,SBD,M
Boys,67.13,6,Malcolm Hollins,Taylor,65.41,167.83,102.06,170.1,439.98,Single-ply,SBD,M
Boys,67.13,7,Bryce Williams,Little River Academy,67.04,174.63,83.91,174.63,433.18,Single-ply,SBD,M
Boys,67.13,8,Aaron Bucek,Taylor,65.32,167.83,95.25,158.76,421.84,Single-ply,SBD,M
Boys,67.13,9,Ernan Lopez,Hutto,60.42,163.29,90.72,165.56,419.57,Single-ply,SBD,M
Boys,74.84,10,Desmond Jefferson,Killeen Shoemaker,67.31,147.42,92.99,151.95,392.36,Single-ply,SBD,M
Boys,67.13,11,Mac Presnal,College Station A&M Cons,61.78,142.88,92.99,147.42,383.29,Single-ply,SBD,M
Boys,67.13,12,Alvin Martinez,Del Valle,60.51,142.88,72.57,165.56,381.02,Single-ply,SBD,M
Boys,67.13,13,Jordan Lowrence,Pflugerville Connally,64.5,133.81,83.91,147.42,365.14,Single-ply,SBD,M
Boys,67.13,14,Aaron Sharp,Little River Academy,66.86,129.27,77.11,151.95,358.34,Single-ply,SBD,M
Boys,74.84,15,Jacob Skidmore,Austin Bowie,67.22,131.54,86.18,138.35,356.07,Single-ply,SBD,M
Boys,67.13,16,Quin Green,College Station A&M Cons,63.5,124.74,83.91,124.74,333.39,Single-ply,SBD,M
Boys,67.13,17,Caden Forisha,Hutto,60.42,117.93,70.31,142.88,331.12,Single-ply,SBD,M
Boys,74.84,18,Justin Roberts,Hutto,67.31,115.67,74.84,136.08,326.59,Single-ply,SBD,M
Boys,67.13,19,Steven Bravo,Jarrell,60.69,113.4,83.91,124.74,322.05,Single-ply,SBD,M
Boys,67.13,20,Tyler Deroulac,Hutto,63.14,117.93,70.31,117.93,306.17,Single-ply,SBD,M
Boys,67.13,21,Howard Rushing,Manor,61.14,90.72,68.04,122.47,281.23,Single-ply,SBD,M
Boys,67.13,DQ,Zae Giles,Manor,64.14,138.35,77.11,142.88,,Single-ply,SBD,M
Boys,67.13,DQ,Dexter Williams,Pflugerville Connally,67.13,,,,,Single-ply,SBD,M
Boys,67.13,DQ,Jose Bonilla,Killeen Shoemaker,67.13,,,,,Single-ply,SBD,M
Boys,67.13,DQ,Joseph Marmolejo,Taylor,60.87,,,,,Single-ply,SBD,M
Boys,67.13,DQ,Ivan Cardenas,Jarrell,66.32,133.81,,,,Single-ply,SBD,M
Boys,67.13,DQ,Eduardo Loma,Jarrell,65.77,142.88,,,,Single-ply,SBD,M
Boys,67.13,DQ,Christian Lopez,Taylor,60.78,104.33,,,,Single-ply,SBD,M
Boys,67.13,DQ,Chase Randolph,Little River Academy,65.59,,,,,Single-ply,SBD,M
Boys,74.84,1,Erik Estrada,Hutto,74.57,204.12,111.13,240.4,555.65,Single-ply,SBD,M
Boys,74.84,2,Laravis Blunson,Taylor,73.39,226.8,115.67,201.85,544.31,Single-ply,SBD,M
Boys,82.1,3,Sigi Martinez,Leander Rouse,74.93,217.72,129.27,181.44,528.44,Single-ply,SBD,M
Boys,74.84,4,Jovante Warren,Killeen Shoemaker,73.21,195.04,111.13,204.12,510.29,Single-ply,SBD,M
Boys,82.1,5,Josh Robinson,Salado,75.02,195.04,124.74,190.51,510.29,Single-ply,SBD,M
Boys,74.84,6,Reggie Davis,College Station A&M Cons,67.95,163.29,127.01,181.44,471.74,Single-ply,SBD,M
Boys,74.84,7,Kole Sneed,Pflugerville Connally,74.66,172.37,102.06,197.31,471.74,Single-ply,SBD,M
Boys,74.84,8,Daniel Hernandez,Taylor,69.04,183.7,99.79,179.17,462.66,Single-ply,SBD,M
Boys,74.84,9,Quavon Stevens,Del Valle,74.84,176.9,102.06,170.1,449.06,Single-ply,SBD,M
Boys,74.84,10,Zach Smith,Little River Academy,71.21,167.83,104.33,174.63,446.79,Single-ply,SBD,M
Boys,74.84,11,Tavaris Young,College Station A&M Cons,72.94,161.03,88.45,163.29,412.77,Single-ply,SBD,M
Boys,74.84,12,Braxton Buchannan,Hutto,74.39,156.49,92.99,161.03,410.5,Single-ply,SBD,M
Boys,74.84,13,Ryan Sanchez,Leander Rouse,74.48,161.03,90.72,158.76,410.5,Single-ply,SBD,M
Boys,74.84,14,Josue Garcia,Jarrell,69.04,147.42,92.99,154.22,394.63,Single-ply,SBD,M
Boys,74.84,15,Kris Rodriguez,Hutto,74.03,149.69,86.18,158.76,394.63,Single-ply,SBD,M
Boys,74.84,16,Treshaun Moses,Manor,69.22,122.47,92.99,145.15,360.61,Single-ply,SBD,M
Boys,82.1,17,Lane Wood,Bastrop,75.02,115.67,68.04,136.08,319.78,Single-ply,SBD,M
Boys,74.84,DQ,Daniel Taylor,College Station A&M Cons,74.84,,,,,Single-ply,SBD,M
Boys,74.84,DQ,Victor Moya,Jarrell,74.84,,,,,Single-ply,SBD,M
Boys,74.84,DQ,Josh Cleveland,Del Valle,74.84,,,,,Single-ply,SBD,M
Boys,74.84,DQ,Mitchell Weiss,Hutto,74.84,,,,,Single-ply,SBD,M
Boys,74.84,DQ,Zach Robinson,Salado,74.84,,,,,Single-ply,SBD,M
Boys,89.81,1,Marcos Cardenas,Jarrell,82.19,254.01,147.42,217.72,619.15,Single-ply,SBD,M
Boys,82.1,2,Quentin Bradford,Bastrop,81.65,195.04,122.47,206.38,523.9,Single-ply,SBD,M
Boys,82.1,3,Da'Mario Victorian,Little River Academy,76.66,190.51,122.47,208.65,521.63,Single-ply,SBD,M
Boys,82.1,4,Tyrone Owens,Manor,81.65,190.51,120.2,208.65,519.36,Single-ply,SBD,M
Boys,82.1,5,David Cortes,Jarrell,80.65,181.44,122.47,185.97,489.88,Single-ply,SBD,M
Boys,82.1,6,Maurice Samuel,Bastrop,79.02,176.9,122.47,183.7,483.08,Single-ply,SBD,M
Boys,82.1,7,Everado Araujo,Taylor,76.75,190.51,102.06,179.17,471.74,Single-ply,SBD,M
Boys,82.1,8,Mitch Martinez,Austin Bowie,81.28,174.63,120.2,176.9,471.74,Single-ply,SBD,M
Boys,82.1,9,Isa Colwell,Pflugerville Connally,75.39,170.1,79.38,161.03,410.5,Single-ply,SBD,M
Boys,82.1,10,Chris Gutierrez,Hutto,81.1,151.95,90.72,163.29,405.97,Single-ply,SBD,M
Boys,82.1,11,Zee Mahmoud,Leander Rouse,82.01,149.69,92.99,145.15,387.82,Single-ply,SBD,M
Boys,82.1,12,Buddy Catlett,Little River Academy,79.74,131.54,92.99,149.69,374.21,Single-ply,SBD,M
Boys,82.1,13,Ashloyd Rodriguez,Del Valle,75.39,129.27,83.91,158.76,371.95,Single-ply,SBD,M
Boys,82.1,14,Anthony Chaidez,Taylor,81.65,142.88,79.38,149.69,371.95,Single-ply,SBD,M
Boys,82.1,15,Daniel Rangel,Del Valle,76.38,129.27,86.18,151.95,367.41,Single-ply,SBD,M
Boys,82.1,16,Breon Kelley,Manor,78.74,136.08,81.65,124.74,342.46,Single-ply,SBD,M
Boys,82.1,17,Lance Spakes,Salado,75.66,131.54,72.57,127.01,331.12,Single-ply,SBD,M
Boys,82.1,DQ,Ricky Sampson,Salado,82.1,,,,,Single-ply,SBD,M
Boys,82.1,DQ,Sammie Spencer,Manor,82.1,,,,,Single-ply,SBD,M
Boys,82.1,DQ,Hunter Creasey,Hutto,82.1,,,,,Single-ply,SBD,M
Boys,82.1,DQ,Omar Garcia,Bastrop,82.1,,,,,Single-ply,SBD,M
Boys,82.1,DQ,Cj Bridges,College Station A&M Cons,80.92,147.42,,,,Single-ply,SBD,M
Boys,89.81,DQ,Ernie Jaime,Jarrell,82.28,233.6,,,,Single-ply,SBD,M
Boys,82.1,DQ,Josh Scherer,Little River Academy,78.47,190.51,,,,Single-ply,SBD,M
Boys,82.1,DQ,Tyrae Ihovere,Manor,77.47,158.76,,,,Single-ply,SBD,M
Boys,82.1,DQ,Ray Hall,Manor,78.83,142.88,,,,Single-ply,SBD,M
Boys,89.81,1,Jj Johnson,Manor,86.55,188.24,131.54,238.14,557.92,Single-ply,SBD,M
Boys,89.81,2,Curtis Williams,Manor,86.73,192.78,124.74,219.99,537.51,Single-ply,SBD,M
Boys,89.81,3,Kelly McBride,Del Valle,89.63,199.58,102.06,213.19,514.83,Single-ply,SBD,M
Boys,99.79,4,Logan Foust,College Station A&M Cons,89.99,185.97,124.74,190.51,501.22,Single-ply,SBD,M
Boys,89.81,5,Javon Walker,Pflugerville Connally,83.91,183.7,92.99,188.24,464.93,Single-ply,SBD,M
Boys,89.81,6,Duane Howard,Bastrop,85.46,163.29,108.86,172.37,444.52,Single-ply,SBD,M
Boys,89.81,7,J'Sean Collins,Killeen Shoemaker,85.09,147.42,97.52,195.04,439.98,Single-ply,SBD,M
Boys,89.81,8,Milton Collazo,Killeen Shoemaker,87.63,183.7,106.59,147.42,437.72,Single-ply,SBD,M
Boys,89.81,9,Devonta Jenkins,Manor,83.82,136.08,83.91,192.78,412.77,Single-ply,SBD,M
Boys,89.81,10,Allen Odom,Hutto,83.19,147.42,92.99,156.49,396.89,Single-ply,SBD,M
Boys,89.81,11,Anthony Crawford,Manor,84.01,115.67,68.04,158.76,342.46,Single-ply,SBD,M
Boys,99.79,12,Carlos Chester,Manor,89.9,138.35,77.11,122.47,337.93,Single-ply,SBD,M
Boys,89.81,DQ,Brandon Willrich,Pflugerville Connally,86.64,183.7,,,,Single-ply,SBD,M
Boys,99.79,1,Chasin Allen,Hutto,99.61,226.8,127.01,247.21,601.01,Single-ply,SBD,M
Boys,99.79,2,Jason Disney,Austin Bowie,97.25,204.12,138.35,199.58,542.04,Single-ply,SBD,M
Boys,99.79,3,Marcus Mesta,Manor,95.53,226.8,124.74,183.7,535.24,Single-ply,SBD,M
Boys,99.79,4,Christian Rivera,Pflugerville Connally,93.71,179.17,129.27,210.92,519.36,Single-ply,SBD,M
Boys,99.79,5,Tyler Talbott,Salado,95.98,188.24,111.13,183.7,483.08,Single-ply,SBD,M
Boys,99.79,6,Aaron Leventez,College Station A&M Cons,98.43,170.1,120.2,165.56,455.86,Single-ply,SBD,M
Boys,99.79,7,Tristan Batts,College Station A&M Cons,91.26,176.9,83.91,181.44,442.25,Single-ply,SBD,M
Boys,99.79,8,O'Neil Patterson,Hutto,95.98,163.29,99.79,172.37,435.45,Single-ply,SBD,M
Boys,99.79,9,Antonio Tovar,Austin Bowie,96.52,161.03,97.52,151.95,410.5,Single-ply,SBD,M
Boys,99.79,10,Coleby Smith,Jarrell,95.16,147.42,111.13,147.42,405.97,Single-ply,SBD,M
Boys,99.79,11,Le'Tre Gant,Killeen Shoemaker,93.89,145.15,111.13,136.08,392.36,Single-ply,SBD,M
Boys,99.79,12,Matt Leos,Bastrop,92.53,151.95,79.38,142.88,374.21,Single-ply,SBD,M
Boys,99.79,13,James Collins,Salado,98.43,124.74,92.99,145.15,362.87,Single-ply,SBD,M
Boys,99.79,DQ,Bobby Moore,Killeen Shoemaker,99.79,,,,,Single-ply,SBD,M
Boys,99.79,DQ,Willfred Grear,Del Valle,99.79,,,,,Single-ply,SBD,M
Boys,99.79,DQ,Eddie Guzman,Leander Rouse,99.79,,,,,Single-ply,SBD,M
Boys,109.77,1,Collin McMillan,Little River Academy,108.41,226.8,133.81,249.48,610.08,Single-ply,SBD,M
Boys,109.77,2,Peyton Womack,Salado,105.6,240.4,113.4,213.19,566.99,Single-ply,SBD,M
Boys,109.77,3,Brian Branecky,Bastrop,101.6,213.19,113.4,195.04,521.63,Single-ply,SBD,M
Boys,109.77,4,Manuel Jaramillo,Manor,107.86,215.46,115.67,185.97,517.1,Single-ply,SBD,M
Boys,109.77,5,Coby Foster,College Station A&M Cons,106.96,204.12,124.74,174.63,503.49,Single-ply,SBD,M
Boys,109.77,6,Coleman Dennis,College Station A&M Cons,106.32,210.92,122.47,167.83,501.22,Single-ply,SBD,M
Boys,109.77,7,Andrew Alvarado,Austin Bowie,106.5,183.7,108.86,192.78,485.34,Single-ply,SBD,M
Boys,109.77,8,Americo Cespedes,Bastrop,107.32,185.97,104.33,158.76,449.06,Single-ply,SBD,M
Boys,109.77,9,Jamal Jackson,Manor,106.78,129.27,81.65,199.58,410.5,Single-ply,SBD,M
Boys,124.74,10,Jack Pirtle,Little River Academy,109.86,170.1,88.45,145.15,403.7,Single-ply,SBD,M
Boys,109.77,11,Tommy Harville,Jarrell,101.51,158.76,92.99,136.08,387.82,Single-ply,SBD,M
Boys,109.77,DQ,Cristian Coronado,Austin Bowie,107.23,181.44,,,,Single-ply,SBD,M
Boys,124.74,DQ,Austen Brown,Pflugerville Connally,109.86,,,,,Single-ply,SBD,M
Boys,124.74,1,Billy Golding,Salado,111.95,299.37,170.1,235.87,705.34,Single-ply,SBD,M
Boys,124.74,2,Chance Williamson,Del Valle,115.67,235.87,136.08,195.04,566.99,Single-ply,SBD,M
Boys,124.74,3,Jody Hodges,Salado,114.03,240.4,127.01,192.78,560.19,Single-ply,SBD,M
Boys,124.74,4,Jonathan Mondragon,Bastrop,112.67,226.8,120.2,183.7,530.7,Single-ply,SBD,M
Boys,124.74,5,Marcus Hudson,Manor,115.03,183.7,115.67,215.46,514.83,Single-ply,SBD,M
Boys,124.74,6,Blake Wilkinson,College Station A&M Cons,110.86,192.78,122.47,188.24,503.49,Single-ply,SBD,M
Boys,124.74,7,Michael White,Austin Bowie,121.11,174.63,113.4,210.92,498.95,Single-ply,SBD,M
Boys,124.74,8,Jessi Edisson,Killeen Shoemaker,121.93,226.8,111.13,161.03,498.95,Single-ply,SBD,M
Boys,124.74,9,Rena Loya,Bastrop,120.38,183.7,129.27,183.7,496.68,Single-ply,SBD,M
Boys,124.74,10,Matt Goulart,Killeen Shoemaker,114.58,197.31,104.33,161.03,462.66,Single-ply,SBD,M
Boys,124.74,11,Gabriel Hernandez,Pflugerville Connally,114.03,190.51,106.59,161.03,458.13,Single-ply,SBD,M
Boys,124.74,12,Austin O'Neal,Manor,113.31,145.15,83.91,147.42,376.48,Single-ply,SBD,M
Boys,124.74,13,Alex Reinhardt,Bastrop,116.66,138.35,81.65,149.69,369.68,Single-ply,SBD,M
Boys,124.74,14,John Goode,Bastrop,110.68,127.01,83.91,131.54,342.46,Single-ply,SBD,M
Boys,124.74,DQ,Brandon Donnermeyer,Manor,124.74,,,,,Single-ply,SBD,M
Boys,124.74,DQ,Tycom Wright,Taylor,124.74,,,,,Single-ply,SBD,M
Boys,124.74+,1,Grayson Eaton,Little River Academy,165.56,278.96,161.03,215.46,655.44,Single-ply,SBD,M
Boys,124.74+,2,Tyrone Newsome,Killeen Shoemaker,126.73,219.99,149.69,204.12,573.79,Single-ply,SBD,M
Boys,124.74+,3,Hayden Washington,Pflugerville Connally,126.73,231.33,117.93,181.44,530.7,Single-ply,SBD,M
Boys,124.74+,4,Logan Martinez,Little River Academy,125.55,181.44,108.86,161.03,451.32,Single-ply,SBD,M
Boys,124.74+,5,Anthony Herrera,Del Valle,126.82,181.44,95.25,170.1,446.79,Single-ply,SBD,M
Boys,124.74+,6,Jacob Jimmerson,Salado,132.9,185.97,102.06,158.76,446.79,Single-ply,SBD,M
Boys,124.74+,7,Jared Kingsriter,Hutto,125.83,142.88,74.84,136.08,353.8,Single-ply,SBD,M
Boys,124.74+,8,Jarrett Hodges,Salado,127.73,122.47,72.57,129.27,324.32,Single-ply,SBD,M
Boys,124.74+,DQ,Henry Mitchelle,Manor,127.46,,,,,Single-ply,SBD,M
Boys,124.74+,DQ,Jimmy DeLeon,Manor,127.01,,,,,Single-ply,SBD,M
