Division,WeightClassKg,Place,Name,Team,BodyweightKg,Best3SquatKg,Best3BenchKg,Best3DeadliftKg,TotalKg,Equipment,Event,Sex
Girls,44.23,1,Lorraine San Miguel,Crystal City,43.18,124.74,52.16,149.69,326.59,Single-ply,SBD,F
Girls,44.23,2,Jessica Smith,Bonham,43.73,113.4,45.36,117.93,276.69,Single-ply,SBD,F
Girls,44.23,3,Lizeth Melendez,Springtown,41.1,102.06,38.56,108.86,249.48,Single-ply,SBD,F
Girls,44.23,4,Amanda Rodriguez,Kingsville King,42.91,95.25,52.16,102.06,249.48,Single-ply,SBD,F
Girls,44.23,5,Juana Marin,Venus,44,104.33,38.56,95.25,238.14,Single-ply,SBD,F
Girls,44.23,6,Marina Garza,Vernon,43.18,81.65,40.82,102.06,224.53,Single-ply,SBD,F
Girls,44.23,7,Clarissa Garcia,Yoakum,41.82,95.25,38.56,86.18,219.99,Single-ply,SBD,F
Girls,44.23,8,Haley Hallford,Caldwell,41.64,88.45,40.82,88.45,217.72,Single-ply,SBD,F
Girls,44.23,9,Cassandra Mendoza,Ingleside,42.82,81.65,38.56,97.52,217.72,Single-ply,SBD,F
Girls,44.23,10,Cynthia Silva,Pecos,42.27,72.57,38.56,90.72,201.85,Single-ply,SBD,F
Girls,44.23,11,Jade Buckley,Rusk,42.18,74.84,36.29,88.45,199.58,Single-ply,SBD,F
Girls,44.23,12,Breanna DeWalt,Coldspring-Oakhurst,43.18,65.77,29.48,97.52,192.78,Single-ply,SBD,F
Girls,44.23,DQ,Kyra Rodriguez,Cleveland,42,120.2,,,,Single-ply,SBD,F
Girls,44.23,DQ,Rebekah Bratcher,Canton,43.54,,,,,Single-ply,SBD,F
Girls,44.23,DQ,Tracy Escamilla,Rio Hondo,43.45,,,,,Single-ply,SBD,F
Girls,47.85,1,Amanda Lopez,Crystal City,47.26,129.27,65.77,140.61,335.66,Single-ply,SBD,F
Girls,47.85,2,Kelsey Green,Bullard,47.08,129.27,63.5,113.4,306.17,Single-ply,SBD,F
Girls,47.85,3,Jackie Garcia,Zapata,46.27,120.2,58.97,122.47,301.64,Single-ply,SBD,F
Girls,47.85,4,Sabra Warren,Gatesville,46.45,111.13,70.31,108.86,290.3,Single-ply,SBD,F
Girls,47.85,5,Janell Carrizales,Carrizo Springs,47.26,113.4,54.43,113.4,281.23,Single-ply,SBD,F
Girls,47.85,6,Chanel Weekes,Shepherd,47.54,99.79,49.9,129.27,278.96,Single-ply,SBD,F
Girls,47.85,7,Cherylle Finley,Stafford,46.99,104.33,47.63,117.93,269.89,Single-ply,SBD,F
Girls,47.85,8,Marci Whittington,Canton,47.26,102.06,52.16,111.13,265.35,Single-ply,SBD,F
Girls,47.85,9,Susie Perez,Hillsboro,45.09,97.52,45.36,115.67,258.55,Single-ply,SBD,F
Girls,47.85,10,Jazmone Butler,Lake Worth,46.99,97.52,40.82,120.2,258.55,Single-ply,SBD,F
Girls,47.85,11,Joeli Castillo,Zapata,46.81,90.72,49.9,115.67,256.28,Single-ply,SBD,F
Girls,47.85,12,Madi Werner,Seminole,47.36,95.25,43.09,108.86,247.21,Single-ply,SBD,F
Girls,47.85,13,Jordan Miller,Anna,47.26,99.79,38.56,99.79,238.14,Single-ply,SBD,F
Girls,47.85,DQ,Taylor Schultz,Bandera,46.36,104.33,,,,Single-ply,SBD,F
Girls,47.85,DQ,Kelsey Graf,Vernon,47.22,,,,,Single-ply,SBD,F
Girls,47.85,DQ,Valerie Gutierrez,Waco Connally,46.63,,,,,Single-ply,SBD,F
Girls,51.94,1,Alejandra Avila,Silsbee,48.81,147.42,65.77,161.03,374.21,Single-ply,SBD,F
Girls,51.94,2,Brianna Gonzalez,Zapata,50.62,133.81,56.7,140.61,331.12,Single-ply,SBD,F
Girls,51.94,3,Madison Shook,Graham,51.94,131.54,58.97,131.54,322.05,Single-ply,SBD,F
Girls,51.94,4,Alexandra García,Zapata,50.08,115.67,61.23,142.88,319.78,Single-ply,SBD,F
Girls,51.94,5,Selina Velasquez,Orange Grove,51.26,131.54,43.09,133.81,308.44,Single-ply,SBD,F
Girls,51.94,6,Genesis San Miguel,Crystal City,51.53,122.47,54.43,131.54,308.44,Single-ply,SBD,F
Girls,51.94,7,Jacey Walker,Bridge City,50.98,120.2,54.43,111.13,285.76,Single-ply,SBD,F
Girls,51.94,8,Kalen Wootan,College Station,50.98,120.2,54.43,108.86,283.5,Single-ply,SBD,F
Girls,51.94,9,Sydney Stewart,Canton,50.26,102.06,54.43,117.93,274.42,Single-ply,SBD,F
Girls,51.94,10,Sarah Butler,Bandera,49.35,102.06,45.36,122.47,269.89,Single-ply,SBD,F
Girls,51.94,11,Amanda Rodriguez,Seminole,48.99,104.33,49.9,113.4,267.62,Single-ply,SBD,F
Girls,51.94,12,Shelby Harralson,West,50.89,104.33,52.16,106.59,263.08,Single-ply,SBD,F
Girls,51.94,13,Alyssa Flores,Snyder,50.89,95.25,47.63,117.93,260.82,Single-ply,SBD,F
Girls,51.94,14,Cheyenne Mize,Shepherd,50.71,90.72,52.16,108.86,251.74,Single-ply,SBD,F
Girls,51.94,DQ,Yvette Flores,Crystal City,48.72,,,,,Single-ply,SBD,F
Girls,51.94,DQ,Alexis Simmons,Decatur,51.53,,,,,Single-ply,SBD,F
Girls,51.94,DQ,Megan Ellis,Canton,51.71,,,,,Single-ply,SBD,F
Girls,51.94,DQ,Rebecca Leist,Yoakum,51.8,,,,,Single-ply,SBD,F
Girls,56.02,1,Cory Nutall,College Station,53.34,167.83,63.5,154.22,385.55,Single-ply,SBD,F
Girls,56.02,2,Wynona Garza,Port Isabel,55.07,142.88,61.23,142.88,347,Single-ply,SBD,F
Girls,56.02,3,Erin Escobedo,Sanger,53.43,129.27,68.04,140.61,337.93,Single-ply,SBD,F
Girls,56.02,4,McKensie Piar,Hillsboro,52.98,129.27,56.7,145.15,331.12,Single-ply,SBD,F
Girls,56.02,5,Bri Alexander,Paris,54.98,131.54,61.23,138.35,331.12,Single-ply,SBD,F
Girls,56.02,6,Elizabeth Trejo,Gatesville,55.88,131.54,61.23,131.54,324.32,Single-ply,SBD,F
Girls,56.02,7,Bea Colunga,Emory Rains,53.8,124.74,58.97,129.27,312.98,Single-ply,SBD,F
Girls,56.02,8,Becca Barron,Midland Greenwood,56.02,120.2,65.77,127.01,312.98,Single-ply,SBD,F
Girls,56.02,9,Kadeja Jefferson,Rusk,55.25,120.2,54.43,133.81,308.44,Single-ply,SBD,F
Girls,56.02,10,Meagan McLean,Groesbeck,54.52,131.54,52.16,122.47,306.17,Single-ply,SBD,F
Girls,56.02,11,Madi Bass,Canton,54.98,117.93,52.16,136.08,306.17,Single-ply,SBD,F
Girls,56.02,12,Lily Cantu,Zapata,54.25,108.86,56.7,131.54,297.1,Single-ply,SBD,F
Girls,56.02,13,Destany Munoz,Fort Stockton,54.88,113.4,52.16,127.01,292.57,Single-ply,SBD,F
Girls,56.02,14,Crystal Navarro,Zapata,53.16,113.4,54.43,120.2,288.03,Single-ply,SBD,F
Girls,56.02,15,Calie Chesler,Bandera,55.79,111.13,54.43,122.47,288.03,Single-ply,SBD,F
Girls,56.02,16,Angelica Sanchez,Lampasas,54.79,108.86,49.9,115.67,274.42,Single-ply,SBD,F
Girls,56.02,17,Alyssa Patterson,Shepherd,54.16,99.79,52.16,113.4,265.35,Single-ply,SBD,F
Girls,56.02,DQ,Lexi Bradford,Shepherd,55.07,131.54,63.5,,,Single-ply,SBD,F
Girls,56.02,DQ,Savannah Robinson,Fairfield,54.79,124.74,54.43,,,Single-ply,SBD,F
Girls,56.02,DQ,Logan Garcia,Lake Worth,55.25,,,,,Single-ply,SBD,F
Girls,56.02,DQ,Mallorie Sander,Palestine,56.02,133.81,,,,Single-ply,SBD,F
Girls,56.02,DQ,Sydney Martinez,Crystal City,53.8,111.13,,,,Single-ply,SBD,F
Girls,56.02,DQ,Sabrina Almendarez,Crystal City,55.79,,,,,Single-ply,SBD,F
Girls,56.02,DQ,Alana Montes,Zapata,54.43,,,,,Single-ply,SBD,F
Girls,60.1,1,Ashley Troutman,College Station,58.79,163.29,74.84,172.37,410.5,Single-ply,SBD,F
Girls,60.1,2,Crystal Olivarez,Rio Hondo,57.33,154.22,79.38,167.83,401.43,Single-ply,SBD,F
Girls,60.1,3,Lauren Center,Lytle,59.15,151.95,68.04,172.37,392.36,Single-ply,SBD,F
Girls,60.1,4,Courtney Robinson,Waco Connally,60.01,124.74,54.43,165.56,344.73,Single-ply,SBD,F
Girls,60.1,5,Lyric Willis,Monahans,59.33,133.81,54.43,154.22,342.46,Single-ply,SBD,F
Girls,60.1,6,Abbigail Garza,Crystal City,58.42,131.54,65.77,138.35,335.66,Single-ply,SBD,F
Girls,60.1,7,Bri White,College Station,59.15,142.88,68.04,122.47,333.39,Single-ply,SBD,F
Girls,60.1,8,Jocelyn Pando,Springtown,58.97,124.74,61.23,136.08,322.05,Single-ply,SBD,F
Girls,60.1,9,Pam Carter,Corpus Christi West Oso,56.88,129.27,63.5,124.74,317.51,Single-ply,SBD,F
Girls,60.1,10,Kylie Conner,Canton,58.97,117.93,54.43,142.88,315.25,Single-ply,SBD,F
Girls,60.1,11,Coy Cambridge,Kaufman,57.88,122.47,54.43,127.01,303.91,Single-ply,SBD,F
Girls,60.1,12,Destiny Howard,Shepherd,60.1,104.33,63.5,122.47,290.3,Single-ply,SBD,F
Girls,60.1,13,Bryana Alvarez,Levelland,57.15,102.06,54.43,113.4,269.89,Single-ply,SBD,F
Girls,60.1,DQ,Clarissa Garcia,Pearsall,58.24,,,,,Single-ply,SBD,F
Girls,60.1,DQ,Destiny Dills,Bonham,58.51,,,,,Single-ply,SBD,F
Girls,60.1,DQ,Demi Nguyen,Shepherd,59.33,,,,,Single-ply,SBD,F
Girls,67.36,1,Crystal Ballin,Buna,65.77,167.83,77.11,170.1,415.04,Single-ply,SBD,F
Girls,67.36,2,Doynelia Hughes,Hillsboro,65.95,158.76,63.5,172.37,394.63,Single-ply,SBD,F
Girls,67.36,3,Kennedy Key,Bullard,63.32,170.1,68.04,149.69,387.82,Single-ply,SBD,F
Girls,67.36,4,Taylor Spiller,Bullard,64.05,158.76,68.04,158.76,385.55,Single-ply,SBD,F
Girls,67.36,5,Talor Parker,Emory Rains,63.78,161.03,65.77,156.49,383.29,Single-ply,SBD,F
Girls,67.36,6,Claudia Roiz,Crystal City,66.04,136.08,83.91,154.22,374.21,Single-ply,SBD,F
Girls,67.36,7,Crystal Acosta,Ingleside,63.05,163.29,63.5,145.15,371.95,Single-ply,SBD,F
Girls,67.36,8,Carley Shadron,Venus,66.04,142.88,72.57,136.08,351.53,Single-ply,SBD,F
Girls,67.36,9,Maddie Dudley,College Station,67.31,147.42,58.97,142.88,349.27,Single-ply,SBD,F
Girls,67.36,10,Christina Carrasco,Pleasanton,66.41,158.76,56.7,131.54,347,Single-ply,SBD,F
Girls,67.36,11,Raquel Singh,Fort Stockton,62.14,145.15,56.7,140.61,342.46,Single-ply,SBD,F
Girls,67.36,12,Brittany Kelly,Seminole,65.59,133.81,58.97,142.88,335.66,Single-ply,SBD,F
Girls,67.36,13,Ashley Hernandez,Brownsboro,64.68,140.61,65.77,122.47,328.85,Single-ply,SBD,F
Girls,67.36,14,Judith Torres,Castleberry,66.59,120.2,54.43,149.69,324.32,Single-ply,SBD,F
Girls,67.36,15,Brittany Welker,Shepherd,66.77,129.27,72.57,122.47,324.32,Single-ply,SBD,F
Girls,67.36,16,Vanessa Hofmann,Iowa Park,65.95,136.08,72.57,113.4,322.05,Single-ply,SBD,F
Girls,67.36,DQ,Kiana Lopez,Crystal City,65.95,124.74,,,,Single-ply,SBD,F
Girls,67.36,DQ,Victoria Hernandez,Devine,65.59,,,,,Single-ply,SBD,F
Girls,67.36,DQ,Delaney Cooper,Zapata,61.6,145.15,65.77,,,Single-ply,SBD,F
Girls,75.07,1,Stephanie Brown,Wills Point,75.07,181.44,77.11,199.58,458.13,Single-ply,SBD,F
Girls,75.07,2,Melissa Perrone,Springtown,73.66,185.97,77.11,145.15,408.23,Single-ply,SBD,F
Girls,75.07,3,Zena Esquivel,Carrizo Springs,71.21,156.49,81.65,161.03,399.16,Single-ply,SBD,F
Girls,75.07,4,Abriana Murphy,Fort Stockton,74.21,163.29,72.57,161.03,396.89,Single-ply,SBD,F
Girls,75.07,5,Paige Kruciak,Lytle,69.22,158.76,83.91,151.95,394.63,Single-ply,SBD,F
Girls,75.07,6,Ashley Mata,Crystal City,73.66,158.76,81.65,154.22,394.63,Single-ply,SBD,F
Girls,75.07,7,Shelby Carrillo,Devine,73.21,158.76,63.5,158.76,381.02,Single-ply,SBD,F
Girls,75.07,8,Katie Lollar,College Station,74.03,170.1,72.57,136.08,378.75,Single-ply,SBD,F
Girls,75.07,9,Riley Clifton,Emory Rains,73.3,158.76,70.31,133.81,362.87,Single-ply,SBD,F
Girls,75.07,10,Reann Silvas,Lytle,73.57,154.22,68.04,136.08,358.34,Single-ply,SBD,F
Girls,75.07,11,Dana Hohn,Sweetwater,71.3,140.61,61.23,151.95,353.8,Single-ply,SBD,F
Girls,75.07,12,Shelby Kilpatrick,Robinson,69.76,136.08,58.97,156.49,351.53,Single-ply,SBD,F
Girls,75.07,13,Lyndsey Pate,Emory Rains,67.86,127.01,77.11,145.15,349.27,Single-ply,SBD,F
Girls,75.07,14,Cecily Rodriguez,Orange Grove,73.03,158.76,56.7,133.81,349.27,Single-ply,SBD,F
Girls,75.07,15,Shelby Lara,Rio Hondo,73.75,158.76,68.04,117.93,344.73,Single-ply,SBD,F
Girls,75.07,16,Rachel Smith,Buna,74.12,142.88,65.77,136.08,344.73,Single-ply,SBD,F
Girls,75.07,17,Krayah Langford,Levelland,68.4,133.81,65.77,142.88,342.46,Single-ply,SBD,F
Girls,75.07,18,Secilia Mata,Zapata,72.76,140.61,68.04,131.54,340.19,Single-ply,SBD,F
Girls,75.07,19,Malaina Cruz,Lake Worth,73.66,136.08,65.77,136.08,337.93,Single-ply,SBD,F
Girls,75.07,20,TaDasia Anderson,Bullard,69.04,129.27,54.43,142.88,326.59,Single-ply,SBD,F
Girls,75.07,21,Taylor Kelley,Coldspring-Oakhurst,69.94,142.88,56.7,120.2,319.78,Single-ply,SBD,F
Girls,75.07,22,Taylor Stone,Quinlan Ford,72.48,113.4,68.04,129.27,310.71,Single-ply,SBD,F
Girls,75.07,DQ,Faviola Martinez,Crystal City,74.66,138.35,,,,Single-ply,SBD,F
Girls,75.07,DQ,Aileen Campos,Zapata,70.31,,,,,Single-ply,SBD,F
Girls,82.33,1,Danielle Gonzales,Anna,78.29,192.78,113.4,176.9,483.08,Single-ply,SBD,F
Girls,82.33,2,Marissa Hinojosa,Pleasanton,76.84,174.63,97.52,151.95,424.11,Single-ply,SBD,F
Girls,82.33,3,Martha Chavez,Springtown,79.38,170.1,79.38,154.22,403.7,Single-ply,SBD,F
Girls,82.33,4,Callie Saurage,Hamshire-Fannett,79.29,158.76,86.18,149.69,394.63,Single-ply,SBD,F
Girls,82.33,5,Amanda Esquivel,Zapata,77.75,142.88,86.18,158.76,387.82,Single-ply,SBD,F
Girls,82.33,6,Elise Munoz,Zapata,78.2,156.49,81.65,140.61,378.75,Single-ply,SBD,F
Girls,82.33,7,Cursti Cope,Gatesville,82.33,149.69,97.52,131.54,378.75,Single-ply,SBD,F
Girls,82.33,8,Erica Vellinga,Quinlan Ford,80.38,154.22,70.31,151.95,376.48,Single-ply,SBD,F
Girls,82.33,9,Ja'Tayjah Vital,West Orange-Stark,80.1,147.42,68.04,158.76,374.21,Single-ply,SBD,F
Girls,82.33,10,Dyana Morales,La Feria,78.2,142.88,72.57,154.22,369.68,Single-ply,SBD,F
Girls,82.33,11,Lexie Selman,Crandall,81.28,142.88,72.57,149.69,365.14,Single-ply,SBD,F
Girls,82.33,12,April Fraga,Waco Connally,77.2,149.69,56.7,154.22,360.61,Single-ply,SBD,F
Girls,82.33,13,Terry Turner,Yoakum,78.38,154.22,68.04,136.08,358.34,Single-ply,SBD,F
Girls,82.33,14,Daniella Kent,Carrizo Springs,76.75,138.35,68.04,131.54,337.93,Single-ply,SBD,F
Girls,82.33,15,Grace Kalka,Fort Stockton,79.11,136.08,58.97,133.81,328.85,Single-ply,SBD,F
Girls,82.33,DQ,Cranesha Murray,Vernon,81.01,,,,,Single-ply,SBD,F
Girls,90.04,1,Sydney Calderon,Monahans,88.18,190.51,79.38,158.76,428.64,Single-ply,SBD,F
Girls,90.04,2,Bailey Rogers,West,89.18,183.7,99.79,140.61,424.11,Single-ply,SBD,F
Girls,90.04,3,Lacey Tillis,Palestine,89.9,156.49,70.31,183.7,410.5,Single-ply,SBD,F
Girls,90.04,4,Suba Johnson,College Station,87.54,172.37,70.31,165.56,408.23,Single-ply,SBD,F
Girls,90.04,5,Miranda Henderson,Orange Grove,88,172.37,77.11,158.76,408.23,Single-ply,SBD,F
Girls,90.04,6,Priscilla Adejokun,Melissa,88.81,165.56,63.5,163.29,392.36,Single-ply,SBD,F
Girls,90.04,7,Tabi Rogers,Springtown,86.73,172.37,68.04,149.69,390.09,Single-ply,SBD,F
Girls,90.04,8,Olivia Rodriguez,Bullard,82.46,163.29,70.31,147.42,381.02,Single-ply,SBD,F
Girls,90.04,9,Vanessa Muniz,Bandera,84.73,163.29,70.31,147.42,381.02,Single-ply,SBD,F
Girls,90.04,10,Amber Benitez,Rio Hondo,82.74,163.29,68.04,142.88,374.21,Single-ply,SBD,F
Girls,90.04,11,Melissa Reyes,Carrizo Springs,83.82,136.08,70.31,145.15,351.53,Single-ply,SBD,F
Girls,90.04,12,Emily Warren,Bridge City,84.37,129.27,68.04,140.61,337.93,Single-ply,SBD,F
Girls,90.04,13,Kaitlin McFarland,Sour Lake Hardin-Jefferson,83.1,113.4,56.7,145.15,315.25,Single-ply,SBD,F
Girls,90.04,DQ,Sarah Walker,Gatesville,82.83,151.95,83.91,,,Single-ply,SBD,F
Girls,90.04,DQ,Brittany Alvarado,Lubbock Cooper,86.55,,,,,Single-ply,SBD,F
Girls,100.02,1,Christina Garza,Crystal City,97.52,199.58,99.79,154.22,453.59,Single-ply,SBD,F
Girls,100.02,2,Ashlyn Reece,Huntington,98.43,188.24,90.72,161.03,439.98,Single-ply,SBD,F
Girls,100.02,3,KayDee Sexton,Gatesville,94.17,158.76,99.79,161.03,419.57,Single-ply,SBD,F
Girls,100.02,4,Sierra McCoy,Crandall,95.62,163.29,68.04,147.42,378.75,Single-ply,SBD,F
Girls,100.02,5,Jessica Hill,Fairfield,97.79,158.76,74.84,145.15,378.75,Single-ply,SBD,F
Girls,100.02,6,Gaby Reyes,Zapata,95.44,147.42,74.84,147.42,369.68,Single-ply,SBD,F
Girls,100.02,7,Selvedina Cajic,College Station,95.16,167.83,58.97,140.61,367.41,Single-ply,SBD,F
Girls,100.02,8,Sara Medrano,Seminole,97.98,149.69,65.77,151.95,367.41,Single-ply,SBD,F
Girls,100.02,9,Sydney Smith,Graham,93.89,140.61,61.23,161.03,362.87,Single-ply,SBD,F
Girls,100.02,10,Dj Miller,Andrews,99.88,149.69,61.23,147.42,358.34,Single-ply,SBD,F
Girls,100.02,11,Audrey Richardson,Bonham,98.88,147.42,56.7,138.35,342.46,Single-ply,SBD,F
Girls,100.02,12,Vinterica Richardson,Coldspring-Oakhurst,90.17,142.88,70.31,124.74,337.93,Single-ply,SBD,F
Girls,100.02,13,Grace McCullough,Sour Lake Hardin-Jefferson,93.35,106.59,58.97,129.27,294.84,Single-ply,SBD,F
Girls,100.02,DQ,Deana Lane,Mabank,97.07,147.42,,,,Single-ply,SBD,F
Girls,100.02+,1,Vivianna Flores,Raymondville,119.02,238.14,124.74,170.1,532.97,Single-ply,SBD,F
Girls,100.02+,2,Alexis Amos,Monahans,109.41,219.99,92.99,172.37,485.34,Single-ply,SBD,F
Girls,100.02+,3,Priscilla Wallace,Tyler Chapel Hill,140.52,192.78,88.45,165.56,446.79,Single-ply,SBD,F
Girls,100.02+,4,Becca Roberts,Van,144.42,199.58,79.38,165.56,444.52,Single-ply,SBD,F
Girls,100.02+,5,Janay Willis,Waco La Vega,120.02,190.51,77.11,167.83,435.45,Single-ply,SBD,F
Girls,100.02+,6,Emily Amazeen,Caldwell,117.48,181.44,81.65,158.76,421.84,Single-ply,SBD,F
Girls,100.02+,7,Destiny Whitworth,Decatur,143.24,185.97,81.65,154.22,421.84,Single-ply,SBD,F
Girls,100.02+,8,Maria Melendez,Graham,134.44,167.83,92.99,136.08,396.89,Single-ply,SBD,F
Girls,100.02+,9,Hallie Villarreal,Sanger,118.21,170.1,74.84,149.69,394.63,Single-ply,SBD,F
Girls,100.02+,10,Ali Lombas,Emory Rains,153.4,179.17,70.31,145.15,394.63,Single-ply,SBD,F
Girls,100.02+,11,Ashley Adams,Alvarado,133.17,156.49,83.91,147.42,387.82,Single-ply,SBD,F
Girls,100.02+,12,Kendra Perez,Pleasanton,110.4,167.83,70.31,129.27,367.41,Single-ply,SBD,F
Girls,100.02+,13,Daisy Macias,Perryton,130.54,131.54,65.77,158.76,356.07,Single-ply,SBD,F
Girls,100.02+,14,Bobby Denard,Buna,115.39,124.74,83.91,,208.65,Single-ply,SB,F
Girls,100.02+,DQ,Ariel Elzie,Coldspring-Oakhurst,112.58,,,,,Single-ply,SBD,F
Girls,100.02+,DQ,Ericka Hernandez,Gonzales,103.87,,,,,Single-ply,SBD,F
Girls,100.02+,DQ,CeCe Monmouth,Athens,126.46,,,,,Single-ply,SBD,F
Girls,100.02+,DQ,Adaija Criss,Tyler Chapel Hill,112.67,188.24,86.18,113.4,,Single-ply,SBD,F
