Division,WeightClassKg,Place,Name,Team,BodyweightKg,Best3SquatKg,Best3BenchKg,Best3DeadliftKg,TotalKg,Equipment,Event,Sex
Boys,51.71,1,Pedro Saldivar,Kyle Lehman,51.35,149.69,92.99,170.1,412.77,Single-ply,SBD,M
Boys,51.71,2,Sam Collier,Lake Dallas,51.71,120.2,92.99,142.88,356.07,Single-ply,SBD,M
Boys,51.71,3,Tommy Hession,College Station,50.21,120.2,65.77,136.08,322.05,Single-ply,SBD,M
Boys,51.71,4,Eli Saunders,Burton,46.63,95.25,47.63,111.13,254.01,Single-ply,SBD,M
Boys,51.71,5,Haden Sechelski,Anderson-Shiro,51.17,83.91,58.97,108.86,251.74,Single-ply,SBD,M
Boys,55.79,1,ZaQuavion Golden,Hearne,54.93,147.42,83.91,183.7,415.04,Single-ply,SBD,M
Boys,55.79,2,Caleb Burleson,College Station,54.88,142.88,97.52,149.69,390.09,Single-ply,SBD,M
Boys,55.79,3,Samuel Gracia,Weslaco,55.57,129.27,86.18,147.42,362.87,Single-ply,SBD,M
Boys,55.79,4,Nate Garza,Georgetown,52.48,136.08,81.65,142.88,360.61,Single-ply,SBD,M
Boys,55.79,5,Cristian Villanueva,Kyle Lehman,54.11,117.93,92.99,133.81,344.73,Single-ply,SBD,M
Boys,55.79,6,Ryan Wisnoski,Anderson-Shiro,54.52,124.74,63.5,129.27,317.51,Single-ply,SBD,M
Boys,59.87,1,Jacob Vasquez,Kyle Lehman,58.65,192.78,92.99,206.38,492.15,Single-ply,SBD,M
Boys,59.87,2,Celestino Rubio,Bryan Rudder,58.56,167.83,79.38,181.44,428.64,Single-ply,SBD,M
Boys,59.87,3,Aldofo Gonzalez,Jewett Leon,59.24,158.76,81.65,163.29,403.7,Single-ply,SBD,M
Boys,59.87,4,Jacob Dena,Weslaco,59.87,151.95,68.04,174.63,394.63,Single-ply,SBD,M
Boys,59.87,5,Rolando Valenzuela,Kyle Lehman,59.6,131.54,90.72,158.76,381.02,Single-ply,SBD,M
Boys,59.87,6,Hayden Eoff,College Station A&M Cons,59.19,129.27,77.11,122.47,328.85,Single-ply,SBD,M
Boys,67.13,1,Ray Heiser,Kyle Lehman,66,197.31,131.54,231.33,560.19,Single-ply,SBD,M
Boys,67.13,2,Leo Daniel,Weslaco,66.18,213.19,151.95,190.51,555.65,Single-ply,SBD,M
Boys,67.13,3,Harris Sherrod,Jewett Leon,65.32,226.8,104.33,222.26,553.38,Single-ply,SBD,M
Boys,67.13,4,Marcelo Reyes,Weslaco,66.27,201.85,115.67,197.31,514.83,Single-ply,SBD,M
Boys,67.13,5,Fernando Martinez,Weslaco,60.06,204.12,106.59,188.24,498.95,Single-ply,SBD,M
Boys,67.13,6,Kiran Payton,Kyle Lehman,65.77,172.37,111.13,185.97,469.47,Single-ply,SBD,M
Boys,67.13,7,Jakendrick Eddie,Hearne,66.63,172.37,102.06,195.04,469.47,Single-ply,SBD,M
Boys,67.13,8,Chris Torres,Burton,67.04,170.1,88.45,185.97,444.52,Single-ply,SBD,M
Boys,67.13,9,Lane Blevins,Bryan,60.96,142.88,79.38,158.76,381.02,Single-ply,SBD,M
Boys,67.13,10,Diego Moya,College Station A&M Cons,61.23,142.88,79.38,149.69,371.95,Single-ply,SBD,M
Boys,67.13,11,Carter Callahan,Burton,60.37,127.01,77.11,136.08,340.19,Single-ply,SBD,M
Boys,67.13,12,Christian Marines,Pollok Central,61.01,127.01,74.84,136.08,337.93,Single-ply,SBD,M
Boys,67.13,13,Gavin Kirkland,Burton,62.64,122.47,68.04,131.54,322.05,Single-ply,SBD,M
Boys,67.13,14,Tucker Backhus,Anderson-Shiro,64,129.27,58.97,117.93,306.17,Single-ply,SBD,M
Boys,74.84,1,Cory Price,College Station A&M Cons,72.67,213.19,122.47,213.19,548.85,Single-ply,SBD,M
Boys,74.84,2,Alex Flores,Anderson-Shiro,67.99,188.24,108.86,206.38,503.49,Single-ply,SBD,M
Boys,74.84,3,Colton Love,College Station A&M Cons,69.49,204.12,95.25,197.31,496.68,Single-ply,SBD,M
Boys,74.84,4,Brendan Alexander,Pollok Central,70.31,185.97,113.4,185.97,485.34,Single-ply,SBD,M
Boys,74.84,5,Jeremy Flake,Jewett Leon,73.12,181.44,115.67,181.44,478.54,Single-ply,SBD,M
Boys,74.84,6,Sloane Uaura,Bryan,73.84,183.7,104.33,165.56,453.59,Single-ply,SBD,M
Boys,74.84,7,Malcolm Manley,Bryan Rudder,71.53,163.29,90.72,165.56,419.57,Single-ply,SBD,M
Boys,74.84,8,Collin Chandler,Bryan Rudder,70.76,154.22,92.99,149.69,396.89,Single-ply,SBD,M
Boys,74.84,9,Luis Guillen,Jewett Leon,73.3,149.69,,,149.69,Single-ply,S,M
Boys,82.1,1,Andrew Rodriguez,Kyle Lehman,81.01,204.12,129.27,208.65,542.04,Single-ply,SBD,M
Boys,82.1,2,Rodrigo Valdez,College Station,80.78,219.99,115.67,199.58,535.24,Single-ply,SBD,M
Boys,82.1,3,James Ayers,Bryan Rudder,77.75,204.12,131.54,192.78,528.44,Single-ply,SBD,M
Boys,82.1,4,Alvin Dunn,Bryan Rudder,77.29,204.12,106.59,210.92,521.63,Single-ply,SBD,M
Boys,82.1,5,Jacob Forsythe,Pollok Central,80.2,201.85,120.2,197.31,519.36,Single-ply,SBD,M
Boys,82.1,6,Dj Offing,Anderson-Shiro,81.6,185.97,111.13,195.04,492.15,Single-ply,SBD,M
Boys,82.1,7,Justan Vaughan,Pollok Central,77.43,163.29,90.72,179.17,433.18,Single-ply,SBD,M
Boys,82.1,8,Justin Paxton,Thorndale,75.66,140.61,90.72,158.76,390.09,Single-ply,SBD,M
Boys,82.1,DQ,Charles Juarez,Weslaco,80.6,,,,,Single-ply,SBD,M
Boys,89.81,1,Nathan Bryson,Kyle Lehman,87.45,249.48,176.9,222.26,648.64,Single-ply,SBD,M
Boys,89.81,2,Larry Strickland,Weslaco,85.32,272.16,113.4,249.48,635.03,Single-ply,SBD,M
Boys,89.81,3,Nick McDaniel,Bryan,88.5,226.8,136.08,226.8,589.67,Single-ply,SBD,M
Boys,89.81,4,Joseph Garcia,College Station A&M Cons,87.95,235.87,131.54,199.58,566.99,Single-ply,SBD,M
Boys,89.81,5,Corbin Preusse,Thorndale,88,206.38,115.67,183.7,505.76,Single-ply,SBD,M
Boys,89.81,6,Elijah Clough,Georgetown,84.32,167.83,106.59,226.8,501.22,Single-ply,SBD,M
Boys,89.81,7,Caden Yorek,Anderson-Shiro,86.27,197.31,108.86,176.9,483.08,Single-ply,SBD,M
Boys,89.81,8,Kaleb Murray,Pollok Central,84.14,129.27,102.06,176.9,408.23,Single-ply,SBD,M
Boys,89.81,DQ,Walter Beltran,Jewett Leon,84.41,,,,,Single-ply,SBD,M
Boys,99.79,1,Seth Sanchez,Kyle Lehman,97.39,254.01,145.15,249.48,648.64,Single-ply,SBD,M
Boys,99.79,2,Desmond Murphy,Bryan Rudder,96.89,260.82,136.08,238.14,635.03,Single-ply,SBD,M
Boys,99.79,3,Chad Roebuck,Anderson-Shiro,90.49,249.48,154.22,213.19,616.89,Single-ply,SBD,M
Boys,99.79,4,Jadyn Lehde,Early,97.3,249.48,129.27,219.99,598.74,Single-ply,SBD,M
Boys,99.79,5,Mason Liles,Thorndale,98.57,242.67,131.54,222.26,596.47,Single-ply,SBD,M
Boys,99.79,6,Alan Hernandez,Georgetown,89.99,217.72,145.15,204.12,566.99,Single-ply,SBD,M
Boys,99.79,7,Ever O'Neil,College Station,96.07,231.33,133.81,199.58,564.72,Single-ply,SBD,M
Boys,99.79,8,Cameron Riggins,Burton,98.52,226.8,111.13,195.04,532.97,Single-ply,SBD,M
Boys,99.79,9,Ridic Meraz,Thorndale,97.7,206.38,115.67,199.58,521.63,Single-ply,SBD,M
Boys,99.79,10,Charlie Stutts,Bryan,95.21,195.04,113.4,181.44,489.88,Single-ply,SBD,M
Boys,99.79,11,Jumno Chhoy,Jewett Leon,98.79,167.83,124.74,190.51,483.08,Single-ply,SBD,M
Boys,99.79,12,Tyler Huf,Thorndale,97.34,158.76,106.59,188.24,453.59,Single-ply,SBD,M
Boys,99.79,13,Jacob Incardona,Bryan,93.94,158.76,95.25,172.37,426.38,Single-ply,SBD,M
Boys,109.77,1,Luke Miles,College Station,106.87,249.48,140.61,254.01,644.1,Single-ply,SBD,M
Boys,109.77,2,Roland Morales,Weslaco,107.73,265.35,149.69,222.26,637.3,Single-ply,SBD,M
Boys,109.77,3,Vince Sheffield,College Station A&M Cons,102.01,240.4,142.88,204.12,587.4,Single-ply,SBD,M
Boys,109.77,4,Jacob Pedroza,Thorndale,108.82,242.67,124.74,183.7,551.11,Single-ply,SBD,M
Boys,124.74,1,Ty Roaches,Kyle Lehman,121.74,324.32,204.12,272.16,800.59,Single-ply,SBD,M
Boys,124.74,2,Clifford Chambers,Bryan Rudder,123.2,362.87,176.9,226.8,766.57,Single-ply,SBD,M
Boys,124.74,3,Adrian Fuentes,Weslaco,113.04,290.3,174.63,272.16,737.09,Single-ply,SBD,M
Boys,124.74,4,Truce Tumlinson,College Station,113.76,283.5,154.22,265.35,703.07,Single-ply,SBD,M
Boys,124.74,5,Raul Martinez,Weslaco,121.11,272.16,174.63,217.72,664.51,Single-ply,SBD,M
Boys,124.74,6,Josh Jett,Georgetown,112.67,233.6,129.27,213.19,576.06,Single-ply,SBD,M
Boys,124.74,7,Kevin Kindt,Bryan Rudder,113.4,226.8,136.08,213.19,576.06,Single-ply,SBD,M
Boys,124.74,8,Lance Hamm,Hearne,109.95,204.12,129.27,183.7,517.1,Single-ply,SBD,M
Boys,124.74+,1,Sam Perez,Weslaco,129.55,317.51,188.24,244.94,750.7,Single-ply,SBD,M
Boys,124.74+,2,Corey Brooks,Thorndale,136.89,306.17,192.78,226.8,725.75,Single-ply,SBD,M
Boys,124.74+,3,Eron Ortiz,Georgetown,154.09,260.82,149.69,217.72,628.23,Single-ply,SBD,M
Boys,124.74+,4,Talon Crouse,Bryan,133.22,240.4,127.01,226.8,594.21,Single-ply,SBD,M
Boys,124.74+,5,Brandon Waggoner,College Station A&M Cons,125.24,199.58,136.08,210.92,546.58,Single-ply,SBD,M
