Division,WeightClassKg,Place,Name,Team,BodyweightKg,Best3SquatKg,Best3BenchKg,Best3DeadliftKg,TotalKg,Equipment,Event,Sex
Boys,51.71,1,Zaniel Florez,Kermit,50.62,90.72,54.43,108.86,254.01,Single-ply,SBD,M
Boys,51.71,2,Mattox Evans,Big Spring,50.08,81.65,36.29,108.86,226.8,Single-ply,SBD,M
Boys,51.71,DQ,Nathan Mendiaz,Monahans,47.17,158.76,,,,Single-ply,SBD,M
Boys,51.71,DQ,Elias Perez,Sonora,51.26,124.74,,,,Single-ply,SBD,M
Boys,55.79,1,Bryson Ovalle,Big Spring,55.79,127.01,77.11,142.88,347,Single-ply,SBD,M
Boys,55.79,2,Eddie Infante,Sonora,52.16,136.08,65.77,138.35,340.19,Single-ply,SBD,M
Boys,55.79,3,Adrian Whitby,Ozona,55.61,111.13,70.31,129.27,310.71,Single-ply,SBD,M
Boys,55.79,4,Gabriel Pedraza,Monahans,55.79,120.2,63.5,127.01,310.71,Single-ply,SBD,M
Boys,55.79,5,Cruz Martinez,Big Spring,55.07,117.93,65.77,115.67,299.37,Single-ply,SBD,M
Boys,55.79,6,Christian Solis,Pecos,51.89,68.04,72.57,102.06,242.67,Single-ply,SBD,M
Boys,59.87,1,Justin Ormsby,Big Spring,58.69,183.7,92.99,201.85,478.54,Single-ply,SBD,M
Boys,59.87,2,Ty Diaz,Andrews,58.24,183.7,97.52,195.04,476.27,Single-ply,SBD,M
Boys,59.87,3,Nathan Olguin,Monahans,58.33,129.27,83.91,142.88,356.07,Single-ply,SBD,M
Boys,59.87,4,Oscar Vasquez,Monahans,56.88,129.27,68.04,142.88,340.19,Single-ply,SBD,M
Boys,59.87,5,Joshua Lopez,Big Spring,59.6,120.2,63.5,129.27,312.98,Single-ply,SBD,M
Boys,67.13,1,Britin Garcia,Andrews,66.77,190.51,122.47,190.51,503.49,Single-ply,SBD,M
Boys,67.13,2,Juan Salgado,Fort Stockton,61.87,161.03,108.86,176.9,446.79,Single-ply,SBD,M
Boys,67.13,3,Brandon Victorino,Alpine,64.23,163.29,104.33,163.29,430.91,Single-ply,SBD,M
Boys,67.13,4,Ronnie Romero,Fort Stockton,66.32,140.61,83.91,163.29,387.82,Single-ply,SBD,M
Boys,67.13,5,Jaheam Amos,Monahans,64.23,133.81,88.45,158.76,381.02,Single-ply,SBD,M
Boys,67.13,6,Daniel Ramos,Andrews,63.78,142.88,68.04,154.22,365.14,Single-ply,SBD,M
Boys,67.13,7,Barton Reyes,Andrews,63.14,147.42,70.31,142.88,360.61,Single-ply,SBD,M
Boys,67.13,8,Marcus Perez,Ozona,64.59,142.88,74.84,142.88,360.61,Single-ply,SBD,M
Boys,67.13,9,Reece Jones,Andrews,65.86,140.61,74.84,140.61,356.07,Single-ply,SBD,M
Boys,67.13,10,Zavier Rodriguez,Sonora,64.86,131.54,63.5,140.61,335.66,Single-ply,SBD,M
Boys,67.13,11,Will Woolverton,Big Spring,60.33,108.86,56.7,115.67,281.23,Single-ply,SBD,M
Boys,67.13,12,Ricardo Pacheco,Fort Stockton,65.95,90.72,49.9,117.93,258.55,Single-ply,SBD,M
Boys,67.13,13,Sawyer Jackson,Alpine,60.69,56.7,56.7,72.57,185.97,Single-ply,SBD,M
Boys,74.84,1,Devin Mora,Andrews,71.67,163.29,99.79,149.69,412.77,Single-ply,SBD,M
Boys,74.84,2,Abraham Rodriguez,Ozona,72.48,133.81,81.65,136.08,351.53,Single-ply,SBD,M
Boys,74.84,3,Isaiah Johnson,Big Spring,72.03,129.27,77.11,124.74,331.12,Single-ply,SBD,M
Boys,74.84,4,Kevin Rodriguez,Big Spring,70.03,106.59,58.97,113.4,278.96,Single-ply,SBD,M
Boys,74.84,DQ,Edgar Caballero,Monahans,71.03,115.67,,,,Single-ply,SBD,M
Boys,82.1,1,Steban Flores,Ozona,81.47,217.72,170.1,215.46,603.28,Single-ply,SBD,M
Boys,82.1,2,Juan Baez,Sonora,79.92,222.26,120.2,215.46,557.92,Single-ply,SBD,M
Boys,82.1,3,Ryan Orona,Pecos,75.3,158.76,129.27,204.12,492.15,Single-ply,SBD,M
Boys,82.1,4,Austin Damian,Ozona,80.1,170.1,104.33,167.83,442.25,Single-ply,SBD,M
Boys,82.1,5,Ernesto Ornelas,Monahans,76.2,161.03,108.86,170.1,439.98,Single-ply,SBD,M
Boys,82.1,6,Jaden Gonzalez,Fort Stockton,82.01,167.83,106.59,158.76,433.18,Single-ply,SBD,M
Boys,82.1,7,Aaron Ursry,Monahans,77.66,158.76,102.06,165.56,426.38,Single-ply,SBD,M
Boys,82.1,8,Josue Flores,Andrews,80.2,172.37,92.99,158.76,424.11,Single-ply,SBD,M
Boys,82.1,9,Jonathon Aguilar,Pecos,81.01,147.42,95.25,170.1,412.77,Single-ply,SBD,M
Boys,82.1,10,Adryan Lopez,Monahans,80.56,120.2,77.11,124.74,322.05,Single-ply,SBD,M
Boys,82.1,11,Malachi Torres,Wink,76.48,104.33,63.5,111.13,278.96,Single-ply,SBD,M
Boys,89.81,1,Ignacio Camacho,Monahans,87.72,208.65,122.47,206.38,537.51,Single-ply,SBD,M
Boys,89.81,2,Richard Contreras,Alpine,88.54,179.17,133.81,174.63,487.61,Single-ply,SBD,M
Boys,89.81,3,Justin Gonzales,Andrews,88,192.78,124.74,158.76,476.27,Single-ply,SBD,M
Boys,89.81,4,Ty Perez,Sonora,86.55,181.44,113.4,158.76,453.59,Single-ply,SBD,M
Boys,89.81,5,Michael Garcia,Andrews,88.36,181.44,124.74,147.42,453.59,Single-ply,SBD,M
Boys,89.81,6,Mikal Burrola,Kermit,82.28,124.74,95.25,147.42,367.41,Single-ply,SBD,M
Boys,89.81,7,Ryan Honeycutt,Monahans,84.1,133.81,58.97,115.67,308.44,Single-ply,SBD,M
Boys,89.81,DQ,Jesus Lopez,Andrews,89.63,197.31,,,,Single-ply,SBD,M
Boys,99.79,1,Christian Ramon,Sonora,98.61,229.06,142.88,195.04,566.99,Single-ply,SBD,M
Boys,99.79,2,Hayden Pipkin,Monahans,91.53,213.19,133.81,195.04,542.04,Single-ply,SBD,M
Boys,99.79,3,Beau Narrell,Andrews,89.99,188.24,108.86,217.72,514.83,Single-ply,SBD,M
Boys,99.79,4,Octavio Frausto,Andrews,91.26,204.12,111.13,183.7,498.95,Single-ply,SBD,M
Boys,99.79,5,Everett McGhee,Pecos,94.53,170.1,111.13,158.76,439.98,Single-ply,SBD,M
Boys,99.79,6,Josue Vasquez,Kermit,97.07,183.7,104.33,145.15,433.18,Single-ply,SBD,M
Boys,99.79,7,Donnie De La Cruz,Fort Stockton,98.16,181.44,102.06,149.69,433.18,Single-ply,SBD,M
Boys,99.79,8,Luis Gallegos,Alpine,93.26,163.29,104.33,158.76,426.38,Single-ply,SBD,M
Boys,99.79,9,Isalem Moreno,Kermit,95.62,156.49,97.52,172.37,426.38,Single-ply,SBD,M
Boys,99.79,10,Angelo Lopez,Kermit,97.34,154.22,99.79,156.49,410.5,Single-ply,SBD,M
Boys,99.79,11,Colby Buckner,Andrews,94.71,161.03,90.72,147.42,399.16,Single-ply,SBD,M
Boys,99.79,12,Hervey Balvatin,Fort Stockton,95.25,136.08,86.18,154.22,376.48,Single-ply,SBD,M
Boys,99.79,13,Ethan Purcell,Wink,92.8,90.72,65.77,90.72,247.21,Single-ply,SBD,M
Boys,109.77,1,Brandon Contreras,Andrews,104.6,233.6,113.4,208.65,555.65,Single-ply,SBD,M
Boys,109.77,2,Ivan Delgado,Big Spring,107.41,217.72,122.47,204.12,544.31,Single-ply,SBD,M
Boys,109.77,3,Matthew Underwood,Wink,105.14,181.44,106.59,142.88,430.91,Single-ply,SBD,M
Boys,109.77,4,Eric Vela,Fort Stockton,102.42,142.88,74.84,167.83,385.55,Single-ply,SBD,M
Boys,109.77,5,Michael Morales,Sonora,107.68,129.27,70.31,142.88,342.46,Single-ply,SBD,M
Boys,109.77,6,Sunny Rodriguez,Sonora,101.15,113.4,70.31,113.4,297.1,Single-ply,SBD,M
Boys,109.77,7,Jonathan Jurado,Ozona,105.32,102.06,70.31,124.74,297.1,Single-ply,SBD,M
Boys,109.77,DQ,Crespin Mendoza,Pecos,100.97,,,,,Single-ply,SBD,M
Boys,124.74,1,Sebastian Enriquez,Fort Stockton,124.28,238.14,142.88,238.14,619.15,Single-ply,SBD,M
Boys,124.74,2,Raziel Burrola,Kermit,112.13,174.63,120.2,208.65,503.49,Single-ply,SBD,M
Boys,124.74,3,Darius Pando,Kermit,112.85,192.78,104.33,192.78,489.88,Single-ply,SBD,M
Boys,124.74,4,Isaiah Rodriguez,Big Spring,117.12,197.31,97.52,183.7,478.54,Single-ply,SBD,M
Boys,124.74,5,Josh Price,Pecos,122.11,154.22,97.52,142.88,394.63,Single-ply,SBD,M
Boys,124.74,6,Josh Jimenez,Monahans,121.65,158.76,83.91,127.01,369.68,Single-ply,SBD,M
Boys,124.74,7,Daniel Roberts,Big Spring,113.31,124.74,95.25,142.88,362.87,Single-ply,SBD,M
Boys,124.74,8,Daniel Perea,Pecos,118.39,124.74,86.18,147.42,358.34,Single-ply,SBD,M
Boys,124.74,9,Christian Machuca,Pecos,119.66,124.74,86.18,140.61,351.53,Single-ply,SBD,M
Boys,124.74,10,Josue Blanco,Pecos,117.75,102.06,74.84,136.08,312.98,Single-ply,SBD,M
Boys,124.74,DQ,Sebastian Sanchez,Pecos,122.92,,,,,Single-ply,SBD,M
Boys,124.74,DQ,Noah Barriga,Fort Stockton,120.2,,,,,Single-ply,SBD,M
Boys,124.74+,1,Jordan Dunn,Big Spring,125.19,254.01,158.76,226.8,639.57,Single-ply,SBD,M
Boys,124.74+,2,Zathan McIntosh,Kermit,167.83,276.69,133.81,210.92,621.42,Single-ply,SBD,M
Boys,124.74+,3,Zach Garcia,Pecos,143.15,235.87,120.2,192.78,548.85,Single-ply,SBD,M
Boys,124.74+,4,John Gomez,Fort Stockton,127.55,176.9,81.65,165.56,424.11,Single-ply,SBD,M
Boys,124.74+,DQ,Albert Aguilar,Pecos,149.14,,,,,Single-ply,SBD,M
