Division,WeightClassKg,Place,Name,Team,BodyweightKg,Best3SquatKg,Best3BenchKg,Best3DeadliftKg,TotalKg,Equipment,Event,Sex
Boys,51.71,1,Julian Carbajal,Fort Worth Paschal,51.26,83.91,56.7,102.06,242.67,Single-ply,SBD,M
Boys,51.71,2,Chris Wimley,Granbury,51.26,74.84,47.63,86.18,208.65,Single-ply,SBD,M
Boys,55.79,1,Samuel Eggeston,Saginaw,54.88,97.52,45.36,113.4,256.28,Single-ply,SBD,M
Boys,59.87,1,Lachlyn McPhee,Granbury,59.1,170.1,83.91,145.15,399.16,Single-ply,SBD,M
Boys,59.87,2,Mateo Tort,Granbury,59.87,117.93,72.57,149.69,340.19,Single-ply,SBD,M
Boys,59.87,3,Julian Lucignani,Fort Worth Paschal,58.97,102.06,43.09,142.88,288.03,Single-ply,SBD,M
Boys,67.13,1,Jones-Bradley Michael,Saginaw,65.77,158.76,79.38,158.76,396.89,Single-ply,SBD,M
Boys,67.13,2,Charles Ortiz,Fort Worth Paschal,66.68,124.74,81.65,151.95,358.34,Single-ply,SBD,M
Boys,67.13,3,Thomas Jarrett,Fort Worth Paschal,66.68,124.74,77.11,140.61,342.46,Single-ply,SBD,M
Boys,67.13,4,Zunair Waseem,Saginaw,63.5,97.52,56.7,111.13,265.35,Single-ply,SBD,M
Boys,67.13,5,Emerson Sheperd,Saginaw,66.68,,61.23,120.2,181.44,Single-ply,BD,M
Boys,67.13,DQ,Jessie Espinosia,Saginaw,66.68,,,,,Single-ply,BD,M
Boys,74.84,1,Brendan Chism,Granbury,73.94,170.1,97.52,192.78,460.4,Single-ply,SBD,M
Boys,74.84,2,Michael Brewer,Saginaw,70.76,165.56,102.06,147.42,415.04,Single-ply,SBD,M
Boys,74.84,3,Clayton Kracy,Granbury,74.84,147.42,95.25,172.37,415.04,Single-ply,SBD,M
Boys,74.84,4,Oscar Campos,Fort Worth Paschal,73.03,138.35,77.11,165.56,381.02,Single-ply,SBD,M
Boys,74.84,5,James Fleming,Saginaw,73.94,127.01,95.25,136.08,358.34,Single-ply,SBD,M
Boys,74.84,6,Eric Trevino,Fort Worth Paschal,70.31,129.27,79.38,142.88,351.53,Single-ply,SBD,M
Boys,74.84,7,Gavin Johnson,Saginaw,68.04,124.74,88.45,127.01,340.19,Single-ply,SBD,M
Boys,74.84,8,Nick Mager,Granbury,69.85,102.06,74.84,136.08,312.98,Single-ply,SBD,M
Boys,74.84,9,Isaac Garcia,Fort Worth Paschal,73.94,102.06,52.16,104.33,258.55,Single-ply,SBD,M
Boys,82.1,1,Jorden Wilkerson,Granbury,81.65,219.99,129.27,226.8,576.06,Single-ply,SBD,M
Boys,82.1,2,Matthew Bachand,Fort Worth Paschal,78.02,102.06,70.31,170.1,342.46,Single-ply,SBD,M
Boys,89.81,1,Luis Hernandez,Granbury,88.45,215.46,106.59,215.46,537.51,Single-ply,SBD,M
Boys,89.81,2,Michael Trull,Granbury,89.81,204.12,124.74,195.04,523.9,Single-ply,SBD,M
Boys,89.81,3,Trysten Uzzell,Granbury,87.09,174.63,86.18,183.7,444.52,Single-ply,SBD,M
Boys,89.81,4,Tyler Lungraj,Saginaw,89.81,170.1,97.52,174.63,442.25,Single-ply,SBD,M
Boys,99.79,1,Tyler Walker,Granbury,95.25,208.65,122.47,206.38,537.51,Single-ply,SBD,M
Boys,99.79,2,Carlos Hernandez,Saginaw,99.34,226.8,106.59,195.04,528.44,Single-ply,SBD,M
Boys,99.79,3,Steven Williams,Saginaw,98.88,181.44,92.99,174.63,449.06,Single-ply,SBD,M
Boys,99.79,4,Hunter Brookshire,Granbury,97.07,165.56,81.65,181.44,428.64,Single-ply,SBD,M
Boys,99.79,5,Gavin Miller,Saginaw,98.43,113.4,72.57,142.88,328.85,Single-ply,SBD,M
Boys,99.79,6,Tobie Ochoa,Granbury,94.8,115.67,70.31,129.27,315.25,Single-ply,SBD,M
Boys,109.77,1,Jason Umanzor,Granbury,104.33,283.5,147.42,238.14,669.05,Single-ply,SBD,M
Boys,109.77,2,Colton Kelley,Granbury,102.06,179.17,111.13,233.6,523.9,Single-ply,SBD,M
Boys,109.77,3,Brandon Morris,Granbury,104.33,172.37,117.93,195.04,485.34,Single-ply,SBD,M
Boys,109.77,4,Dejon Cash,Saginaw,106.14,181.44,113.4,176.9,471.74,Single-ply,SBD,M
Boys,109.77,5,Case Mason,Saginaw,106.59,167.83,99.79,188.24,455.86,Single-ply,SBD,M
Boys,109.77,6,Cash Deason,Granbury,107.05,165.56,97.52,183.7,446.79,Single-ply,SBD,M
Boys,109.77,7,Ethan Reynolds,Saginaw,108.86,163.29,97.52,158.76,419.57,Single-ply,SBD,M
Boys,109.77,8,Landon Rhoades,Saginaw,102.06,197.31,,204.12,401.43,Single-ply,SD,M
Boys,124.74,1,Raul Sandoval,Granbury,113.4,283.5,165.56,258.55,707.6,Single-ply,SBD,M
Boys,124.74,2,Alexis Trejo,Saginaw,110.68,210.92,127.01,215.46,553.38,Single-ply,SBD,M
Boys,124.74,3,Skylar Ochoa,Granbury,112.49,208.65,124.74,208.65,542.04,Single-ply,SBD,M
Boys,124.74,4,Fernando Torres,Saginaw,111.13,217.72,127.01,190.51,535.24,Single-ply,SBD,M
Boys,124.74,5,William Houze,Fort Worth Paschal,112.94,154.22,92.99,181.44,428.64,Single-ply,SBD,M
Boys,124.74,6,Zachary Eminger,Granbury,111.58,156.49,81.65,172.37,410.5,Single-ply,SBD,M
Boys,124.74,7,Afton Haayer,Granbury,123.83,138.35,72.57,149.69,360.61,Single-ply,SBD,M
Boys,124.74+,1,Jonathan Sutton,Granbury,126.1,240.4,129.27,242.67,612.35,Single-ply,SBD,M
Boys,124.74+,2,Koltin Bush,Granbury,127.01,158.76,102.06,183.7,444.52,Single-ply,SBD,M
Boys,124.74+,3,Adrian Little,Saginaw,143.79,242.67,127.01,,369.68,Single-ply,SB,M
Boys,124.74+,4,Chase Guzman,Granbury,149.23,61.23,77.11,122.47,260.82,Single-ply,SBD,M
