Division,WeightClassKg,Place,Name,Team,BodyweightKg,Best3SquatKg,Best3BenchKg,Best3DeadliftKg,TotalKg,Equipment,Event,Sex
Varsity,51.71,1,Diego Gallegos,Alvin,51.26,115.67,74.84,145.15,335.66,Single-ply,SBD,M
Varsity,51.71,2,Jeremy Martinez,Robstown,50.62,117.93,61.23,142.88,322.05,Single-ply,SBD,M
Varsity,51.71,3,Blake Suarez,Corpus Christi Tuloso-Midway,50.53,102.06,52.16,124.74,278.96,Single-ply,SBD,M
Varsity,51.71,4,Trevor Lewis,Port Lavaca Calhoun,51.62,83.91,72.57,111.13,267.62,Single-ply,SBD,M
Varsity,55.79,1,Moc Moo,Port Lavaca Calhoun,55.16,151.95,102.06,142.88,396.89,Single-ply,SBD,M
Varsity,55.79,2,Trevor DeLuna,Corpus Christi Tuloso-Midway,55.25,133.81,68.04,129.27,331.12,Single-ply,SBD,M
Varsity,59.87,1,Jarrett Burford,Port Lavaca Calhoun,58.06,181.44,111.13,192.78,485.34,Single-ply,SBD,M
Varsity,59.87,2,Chantz Mickens,Corpus Christi Tuloso-Midway,59.87,151.95,88.45,179.17,419.57,Single-ply,SBD,M
Varsity,67.13,3,Jonathan Galvan,Corpus Christi Tuloso-Midway,60.06,142.88,95.25,158.76,396.89,Single-ply,SBD,M
Varsity,59.87,4,Gavin Kennedy,Alvin,59.69,122.47,74.84,158.76,356.07,Single-ply,SBD,M
Varsity,67.13,1,Jacob de la Paz,Alvin,67.13,208.65,111.13,217.72,537.51,Single-ply,SBD,M
Varsity,67.13,2,Daniel Martinez,Port Lavaca Calhoun,66.95,179.17,106.59,208.65,494.42,Single-ply,SBD,M
Varsity,67.13,3,Joseph Garza,Port Lavaca Calhoun,66.59,181.44,86.18,176.9,444.52,Single-ply,SBD,M
Varsity,67.13,4,Abraham Ruiz,Victoria East,66.86,170.1,102.06,145.15,417.3,Single-ply,SBD,M
Varsity,67.13,5,Jose Cumpean,Port Lavaca Calhoun,65.68,165.56,102.06,142.88,410.5,Single-ply,SBD,M
Varsity,67.13,6,Jose Perez,Port Lavaca Calhoun,65.59,158.76,95.25,154.22,408.23,Single-ply,SBD,M
Varsity,67.13,7,Corban Ramos,Victoria East,66.77,136.08,68.04,149.69,353.8,Single-ply,SBD,M
Varsity,74.84,1,Christian Salazar,Corpus Christi Tuloso-Midway,73.75,222.26,127.01,215.46,564.72,Single-ply,SBD,M
Varsity,82.1,2,Eloi Fernandez,Alvin,75.02,183.7,131.54,206.38,521.63,Single-ply,SBD,M
Varsity,74.84,3,Victor Varela,Alvin,71.67,192.78,127.01,190.51,510.29,Single-ply,SBD,M
Varsity,74.84,DQ,Terrance Jiles,Alvin,72.57,,,,,Single-ply,SBD,M
Varsity,82.1,1,Carlos García,Alvin,80.29,208.65,122.47,217.72,548.85,Single-ply,SBD,M
Varsity,82.1,2,Angel Casas,Corpus Christi Tuloso-Midway,81.92,190.51,140.61,215.46,546.58,Single-ply,SBD,M
Varsity,82.1,3,Justin Rogriguez,Corpus Christi Tuloso-Midway,80.83,206.38,106.59,170.1,483.08,Single-ply,SBD,M
Varsity,82.1,4,Rene Osornia,Port Lavaca Calhoun,81.47,172.37,108.86,163.29,444.52,Single-ply,SBD,M
Varsity,82.1,5,Qashaun Bryant,Victoria East,77.2,185.97,102.06,147.42,435.45,Single-ply,SBD,M
Varsity,82.1,6,Payton Sanchez,Port Lavaca Calhoun,80.1,158.76,102.06,172.37,433.18,Single-ply,SBD,M
Varsity,82.1,7,Ryan De Los Santos,Robstown,79.56,151.95,90.72,165.56,408.23,Single-ply,SBD,M
Varsity,82.1,8,Jesse Lopez,Port Lavaca Calhoun,75.66,154.22,92.99,154.22,401.43,Single-ply,SBD,M
Varsity,82.1,DQ,Andrew Aguilar,Robstown,79.38,127.01,,,,Single-ply,SBD,M
Varsity,89.81,1,James Johnson,Victoria East,89.63,238.14,120.2,231.33,589.67,Single-ply,SBD,M
Varsity,89.81,2,Eric Luck,Victoria East,89.22,185.97,131.54,165.56,483.08,Single-ply,SBD,M
Varsity,99.79,1,Matthew Dickson,Corpus Christi Tuloso-Midway,92.44,244.94,154.22,242.67,641.83,Single-ply,SBD,M
Varsity,99.79,2,Bobby Morris,Victoria East,90.26,217.72,115.67,219.99,553.38,Single-ply,SBD,M
Varsity,99.79,3,Curtis Nix,Victoria East,92.99,197.31,108.86,219.99,526.17,Single-ply,SBD,M
Varsity,99.79,4,Eric Gutierrez,Robstown,91.9,147.42,92.99,142.88,383.29,Single-ply,SBD,M
Varsity,99.79,DQ,Frankie Lopez,Corpus Christi Tuloso-Midway,99.34,249.48,,,,Single-ply,SBD,M
Varsity,109.77,1,Vince Gutierrez,Corpus Christi Tuloso-Midway,109.68,240.4,154.22,213.19,607.81,Single-ply,SBD,M
Varsity,109.77,2,Eddie Garcia,Port Lavaca Calhoun,108.68,256.28,129.27,201.85,587.4,Single-ply,SBD,M
Varsity,109.77,3,Andrew Pena,Robstown,106.05,217.72,120.2,192.78,530.7,Single-ply,SBD,M
Varsity,109.77,4,Brent Kobersky,Alvin,102.97,195.04,129.27,190.51,514.83,Single-ply,SBD,M
Varsity,109.77,5,Steve Covarrubias,Robstown,102.97,154.22,102.06,172.37,428.64,Single-ply,SBD,M
Varsity,124.74,1,Jacob Rodriguez,Corpus Christi Tuloso-Midway,121.11,272.16,142.88,231.33,646.37,Single-ply,SBD,M
Varsity,124.74,2,Peyton Opre,Alvin,114.03,174.63,120.2,219.99,514.83,Single-ply,SBD,M
Varsity,124.74,3,Jacob Gonzalez,Alvin,111.58,192.78,138.35,174.63,505.76,Single-ply,SBD,M
Varsity,124.74+,1,David Ramirez,Robstown,139.71,163.29,111.13,154.22,428.64,Single-ply,SBD,M
Junior Varsity,51.71,1,Aspen Whitstine,Port Lavaca Calhoun,51.17,83.91,61.23,111.13,256.28,Single-ply,SBD,M
Junior Varsity,55.79,1,Christian Flores,Alvin,55.79,92.99,52.16,99.79,244.94,Single-ply,SBD,M
Junior Varsity,59.87,1,Elijah Hastings,Corpus Christi Tuloso-Midway,57.61,136.08,68.04,163.29,367.41,Single-ply,SBD,M
Junior Varsity,67.13,1,Esai Gonzalez,Port Lavaca Calhoun,66.41,122.47,88.45,140.61,351.53,Single-ply,SBD,M
Junior Varsity,67.13,2,Marco Valdez,Port Lavaca Calhoun,66.86,127.01,70.31,136.08,333.39,Single-ply,SBD,M
Junior Varsity,67.13,3,Shawn Wilson,Alvin,62.6,81.65,77.11,117.93,276.69,Single-ply,SBD,M
Junior Varsity,67.13,4,Austin Jordan,Alvin,63.05,70.31,54.43,104.33,229.06,Single-ply,SBD,M
Junior Varsity,67.13,DQ,Grant Baker,Victoria East,60.15,106.59,70.31,142.88,,Single-ply,SBD,M
Junior Varsity,74.84,1,Alex Mendez,Alvin,69.85,131.54,83.91,163.29,378.75,Single-ply,SBD,M
Junior Varsity,74.84,2,Stetson Dierlam,Port Lavaca Calhoun,74.75,151.95,92.99,124.74,369.68,Single-ply,SBD,M
Junior Varsity,74.84,3,Chris Gonzalez,Alvin,73.03,136.08,81.65,147.42,365.14,Single-ply,SBD,M
Junior Varsity,74.84,4,Dylan Giles,Corpus Christi Tuloso-Midway,71.21,136.08,74.84,142.88,353.8,Single-ply,SBD,M
Junior Varsity,82.1,1,Dylan Moeller,Victoria East,82.01,163.29,92.99,172.37,428.64,Single-ply,SBD,M
Junior Varsity,82.1,2,Saige Peterson,Victoria East,79.83,113.4,61.23,142.88,317.51,Single-ply,SBD,M
Junior Varsity,89.81,1,Trey Martinez,Victoria East,83.51,174.63,111.13,217.72,503.49,Single-ply,SBD,M
Junior Varsity,89.81,2,Abel Rodriguez,Corpus Christi Tuloso-Midway,88.54,181.44,131.54,165.56,478.54,Single-ply,SBD,M
Junior Varsity,89.81,3,Hugo Campos,Port Lavaca Calhoun,89.27,156.49,108.86,145.15,410.5,Single-ply,SBD,M
Junior Varsity,89.81,4,John Thompson,Alvin,84.82,131.54,86.18,158.76,376.48,Single-ply,SBD,M
Junior Varsity,99.79,1,Jose Duarte,Alvin,95.71,172.37,120.2,154.22,446.79,Single-ply,SBD,M
Junior Varsity,99.79,2,Malakye Adams,Victoria East,95.89,156.49,97.52,156.49,410.5,Single-ply,SBD,M
Junior Varsity,99.79,3,John Castro,Corpus Christi Tuloso-Midway,91.9,133.81,102.06,124.74,360.61,Single-ply,SBD,M
Junior Varsity,109.77,1,Joseph Roberts,Alvin,101.6,131.54,83.91,165.56,381.02,Single-ply,SBD,M
Junior Varsity,124.74,1,Beasley Lane,Alvin,112.49,167.83,88.45,170.1,426.38,Single-ply,SBD,M
Junior Varsity,124.74,2,Leonardo Alegria,Alvin,112.94,124.74,88.45,129.27,342.46,Single-ply,SBD,M
Junior Varsity,124.74,3,Dakota Socarras,Port Lavaca Calhoun,119.2,108.86,83.91,113.4,306.17,Single-ply,SBD,M
Junior Varsity,,NS,Gilbert Rodriguez,Corpus Christi Tuloso-Midway,,,,,,Single-ply,SBD,M
Junior Varsity,,NS,Jamie Castillo,Corpus Christi Tuloso-Midway,,,,,,Single-ply,SBD,M
