Division,WeightClassKg,Place,Name,Team,BodyweightKg,Best3SquatKg,Best3BenchKg,Best3DeadliftKg,TotalKg,Equipment,Event,Sex
Boys,51.71,1,Jacob Guerrero,Yorktown,51.71,122.47,61.23,136.08,319.78,Single-ply,SBD,M
Boys,51.71,2,Chris Edwards,Aransas Pass,49.71,120.2,63.5,131.54,315.25,Single-ply,SBD,M
Boys,51.71,3,Adrian Linares,Victoria West,44.09,117.93,70.31,124.74,312.98,Single-ply,SBD,M
Boys,51.71,DQ,David Zamora,Luling,51.71,,,,,Single-ply,SBD,M
Boys,55.79,1,Deonte Duhart,Ingleside,55.61,145.15,72.57,158.76,376.48,Single-ply,SBD,M
Boys,55.79,2,Brian Peralta,Yorktown,52.16,122.47,65.77,136.08,324.32,Single-ply,SBD,M
Boys,55.79,3,Adriel Ruiz,Luling,54.79,120.2,74.84,129.27,324.32,Single-ply,SBD,M
Boys,55.79,4,Javier Aleman,Karnes City,52.16,120.2,74.84,127.01,322.05,Single-ply,SBD,M
Boys,59.87,1,Ethan Bass,Ingleside,58.79,179.17,113.4,190.51,483.08,Single-ply,SBD,M
Boys,59.87,2,Kevion Terrell,Victoria St. Joseph,59.19,142.88,95.25,154.22,392.36,Single-ply,SBD,M
Boys,59.87,3,Jonathan Mendoza,Ingleside,59.6,147.42,81.65,163.29,392.36,Single-ply,SBD,M
Boys,59.87,4,Gavin Muniz,Victoria West,58.15,147.42,92.99,149.69,390.09,Single-ply,SBD,M
Boys,59.87,5,Reece Feagin,Karnes City,57.88,138.35,77.11,136.08,351.53,Single-ply,SBD,M
Boys,59.87,6,Adrian Valdez,Goliad,58.24,127.01,79.38,140.61,347,Single-ply,SBD,M
Boys,59.87,7,Regan Villarreal,Kenedy,59.24,122.47,63.5,136.08,322.05,Single-ply,SBD,M
Boys,59.87,8,Andre Davis,Goliad,58.06,90.72,54.43,90.72,235.87,Single-ply,SBD,M
Boys,67.13,1,Landon Valdez,Victoria West,64.95,204.12,129.27,179.17,512.56,Single-ply,SBD,M
Boys,67.13,2,Benjamin Luna,Goliad,67.13,156.49,92.99,181.44,430.91,Single-ply,SBD,M
Boys,67.13,3,Adan Diaz,Aransas Pass,65.5,113.4,99.79,147.42,360.61,Single-ply,SBD,M
Boys,67.13,4,Diego Hernandez,Gonzales,65.95,129.27,65.77,163.29,358.34,Single-ply,SBD,M
Boys,67.13,5,Michael Cardenas,Gonzales,62.6,124.74,79.38,145.15,349.27,Single-ply,SBD,M
Boys,67.13,6,Logan Arciba,George West,66.95,124.74,74.84,136.08,335.66,Single-ply,SBD,M
Boys,67.13,DQ,Lupe McGinnnis,Yorktown,67.13,,,,,Single-ply,SBD,M
Boys,67.13,DQ,Joseph Valdez,Kenedy,66.77,,,,,Single-ply,SBD,M
Boys,74.84,1,Noah Martinez,Victoria West,72.85,226.8,129.27,204.12,560.19,Single-ply,SBD,M
Boys,74.84,2,Jaxon Mabile,Ingleside,70.31,226.8,104.33,201.85,532.97,Single-ply,SBD,M
Boys,74.84,3,Nathaniel Reyna,Victoria West,71.58,179.17,108.86,183.7,471.74,Single-ply,SBD,M
Boys,74.84,4,Andrew Martinez,Aransas Pass,74.12,181.44,104.33,183.7,469.47,Single-ply,SBD,M
Boys,74.84,5,Nicholas Bourne,Karnes City,73.57,181.44,92.99,181.44,455.86,Single-ply,SBD,M
Boys,74.84,6,Nick Teer,Aransas Pass,73.66,158.76,108.86,181.44,449.06,Single-ply,SBD,M
Boys,74.84,7,Alvin Amador,Kenedy,71.76,156.49,99.79,190.51,446.79,Single-ply,SBD,M
Boys,74.84,8,Alex Bonorden,Victoria St. Joseph,72.12,165.56,92.99,181.44,439.98,Single-ply,SBD,M
Boys,74.84,9,Christian Flores,Ingleside,68.86,154.22,108.86,161.03,424.11,Single-ply,SBD,M
Boys,74.84,10,Micheal Kroll,Karnes City,68.49,138.35,104.33,165.56,408.23,Single-ply,SBD,M
Boys,74.84,11,Cesar Matamoros,Gonzales,69.04,149.69,90.72,156.49,396.89,Single-ply,SBD,M
Boys,74.84,12,Fernando Castillo,George West,72.03,142.88,97.52,142.88,383.29,Single-ply,SBD,M
Boys,74.84,DQ,Adrian Flores,Kenedy,72.57,,,,,Single-ply,SBD,M
Boys,82.1,1,Jace Vasquez,Victoria West,77.84,215.46,120.2,210.92,546.58,Single-ply,SBD,M
Boys,82.1,2,Jacob Warren,Ingleside,80.74,201.85,136.08,208.65,546.58,Single-ply,SBD,M
Boys,82.1,3,Seth O'Canas,Victoria West,77.84,204.12,131.54,183.7,519.36,Single-ply,SBD,M
Boys,82.1,4,Lion Williamson,Gonzales,81.1,183.7,106.59,183.7,474,Single-ply,SBD,M
Boys,82.1,5,Adrian Davila,Aransas Pass,79.83,151.95,120.2,154.22,426.38,Single-ply,SBD,M
Boys,82.1,6,Josh Sanger,Yorktown,79.56,154.22,81.65,170.1,405.97,Single-ply,SBD,M
Boys,82.1,7,Aidan Garza,Karnes City,77.2,99.79,56.7,99.79,256.28,Single-ply,SBD,M
Boys,82.1,DQ,Payton Terrell,Victoria St. Joseph,82.1,,,,,Single-ply,SBD,M
Boys,82.1,DQ,James Martinez,Gonzales,78.83,188.24,,,,Single-ply,SBD,M
Boys,82.1,DQ,Jerry Edlin,George West,76.66,183.7,,,,Single-ply,SBD,M
Boys,89.81,1,Seth Ruff,Ingleside,86.55,265.35,140.61,251.74,657.71,Single-ply,SBD,M
Boys,89.81,2,Sergio Torres,Gonzales,83.73,201.85,120.2,204.12,526.17,Single-ply,SBD,M
Boys,89.81,3,Nic Delgado,Victoria West,89.81,204.12,131.54,181.44,517.1,Single-ply,SBD,M
Boys,89.81,4,Isaiah Estrada,Victoria St. Joseph,86.41,197.31,106.59,192.78,496.68,Single-ply,SBD,M
Boys,89.81,5,Caleb Limon,Victoria St. Joseph,89.81,188.24,113.4,179.17,480.81,Single-ply,SBD,M
Boys,89.81,6,Diego Diaz,Gonzales,86.82,183.7,106.59,183.7,474,Single-ply,SBD,M
Boys,89.81,7,Tanner Blundell,Gonzales,89.72,181.44,92.99,154.22,428.64,Single-ply,SBD,M
Boys,89.81,8,Salvador Damian,Karnes City,84.64,151.95,92.99,158.76,403.7,Single-ply,SBD,M
Boys,89.81,9,Braden Bujnoch,Luling,87.45,142.88,102.06,156.49,401.43,Single-ply,SBD,M
Boys,89.81,10,Wesley Bohl,Goliad,85.82,170.1,86.18,142.88,399.16,Single-ply,SBD,M
Boys,89.81,11,Hayden Land,Victoria St. Joseph,87.09,117.93,74.84,142.88,335.66,Single-ply,SBD,M
Boys,89.81,DQ,Andrew Crober,Luling,89.81,,,,,Single-ply,SBD,M
Boys,99.79,1,Jared Esparza,Gonzales,99.06,244.94,165.56,254.01,664.51,Single-ply,SBD,M
Boys,99.79,2,Luke Rodriguez,Ingleside,93.26,226.8,124.74,183.7,535.24,Single-ply,SBD,M
Boys,99.79,3,Christian Almaguer,Gonzales,96.07,195.04,113.4,197.31,505.76,Single-ply,SBD,M
Boys,99.79,4,Devin Leister,Yorktown,99.7,195.04,102.06,174.63,471.74,Single-ply,SBD,M
Boys,99.79,5,Zack Guerra,Goliad,94.8,156.49,99.79,158.76,415.04,Single-ply,SBD,M
Boys,99.79,6,Ethan Pompa,Yorktown,99.34,167.83,102.06,145.15,415.04,Single-ply,SBD,M
Boys,99.79,7,Antonio Gomez,Luling,92.53,147.42,99.79,136.08,383.29,Single-ply,SBD,M
Boys,99.79,8,Steven Nava,Karnes City,94.35,142.88,95.25,136.08,374.21,Single-ply,SBD,M
Boys,99.79,9,Dj Nunez,Karnes City,95.8,149.69,70.31,145.15,365.14,Single-ply,SBD,M
Boys,99.79,10,David Amaro,Luling,99.7,106.59,70.31,140.61,317.51,Single-ply,SBD,M
Boys,99.79,DQ,Sebastian Segura,Karnes City,99.79,,,,,Single-ply,SBD,M
Boys,99.79,DQ,Lucas Matthews,Victoria St. Joseph,99.79,,,,,Single-ply,SBD,M
Boys,109.77,1,Angel Hernandez,Goliad,108.14,263.08,172.37,260.82,696.26,Single-ply,SBD,M
Boys,109.77,2,Alexander Tijerina,Ingleside,109.77,278.96,167.83,213.19,659.98,Single-ply,SBD,M
Boys,109.77,3,Richard Villarreal,Kenedy,106.41,256.28,138.35,217.72,612.35,Single-ply,SBD,M
Boys,109.77,4,Marcus Avitia,Ingleside,108.59,242.67,167.83,188.24,598.74,Single-ply,SBD,M
Boys,109.77,5,Vicente Reyna,Gonzales,101.7,229.06,129.27,219.99,578.33,Single-ply,SBD,M
Boys,109.77,6,Richard Alvarado,Aransas Pass,102.87,201.85,142.88,215.46,560.19,Single-ply,SBD,M
Boys,109.77,7,Paul Rojas,Goliad,104.69,206.38,117.93,192.78,517.1,Single-ply,SBD,M
Boys,109.77,8,Richard Salazar,George West,104.6,197.31,108.86,192.78,498.95,Single-ply,SBD,M
Boys,109.77,9,Nate Beck,Victoria St. Joseph,104.55,170.1,95.25,188.24,453.59,Single-ply,SBD,M
Boys,109.77,10,Silvano Reyes,Gonzales,106.32,165.56,113.4,158.76,437.72,Single-ply,SBD,M
Boys,109.77,11,Martin Guerrero,Yorktown,100.15,158.76,88.45,151.95,399.16,Single-ply,SBD,M
Boys,109.77,12,Mateo Martinez,Goliad,102.97,151.95,79.38,167.83,399.16,Single-ply,SBD,M
Boys,109.77,13,Zeke Guzman,Karnes City,102.97,154.22,83.91,158.76,396.89,Single-ply,SBD,M
Boys,109.77,14,Dailynn Hernandez,Luling,101.24,136.08,90.72,140.61,367.41,Single-ply,SBD,M
Boys,109.77,15,Rafael Santamaria,Luling,100.43,117.93,74.84,147.42,340.19,Single-ply,SBD,M
Boys,109.77,DQ,Tyler Reyes,Aransas Pass,101.6,,,,,Single-ply,SBD,M
Boys,124.74,1,Clayton Klekar,Goliad,118.12,240.4,142.88,233.6,616.89,Single-ply,SBD,M
Boys,124.74,2,Ruben Rios,Victoria West,122.92,265.35,142.88,208.65,616.89,Single-ply,SBD,M
Boys,124.74,3,Sergio Calvo,Victoria St. Joseph,121.34,226.8,131.54,226.8,585.13,Single-ply,SBD,M
Boys,124.74,4,Azreael Torres,Luling,123.83,238.14,140.61,204.12,582.87,Single-ply,SBD,M
Boys,124.74,5,Ryan Gomez,Gonzales,121.11,219.99,124.74,233.6,578.33,Single-ply,SBD,M
Boys,124.74,6,Trevor Benavides,Victoria West,124.28,213.19,142.88,188.24,544.31,Single-ply,SBD,M
Boys,124.74,7,Brenden Rodriguez,Gonzales,114.67,210.92,115.67,183.7,510.29,Single-ply,SBD,M
Boys,124.74,8,Jaydin Jones,Goliad,111.49,142.88,106.59,156.49,405.97,Single-ply,SBD,M
Boys,124.74,9,Gabriel Medina,Victoria St. Joseph,112.94,142.88,70.31,154.22,367.41,Single-ply,SBD,M
Boys,124.74+,1,Noah Nelson,Victoria West,127.82,303.91,167.83,242.67,714.41,Single-ply,SBD,M
Boys,124.74+,2,Jonathyn Murry,Luling,151.41,299.37,174.63,240.4,714.41,Single-ply,SBD,M
Boys,124.74+,3,Ruben Leal,Aransas Pass,129,238.14,170.1,195.04,603.28,Single-ply,SBD,M
Boys,124.74+,4,Coby Pruett,Gonzales,132.45,240.4,136.08,226.8,603.28,Single-ply,SBD,M
Boys,124.74+,5,Xavier Perry,Goliad,142.34,265.35,124.74,210.92,601.01,Single-ply,SBD,M
Boys,124.74+,6,Jaedon Segura,Goliad,139.34,204.12,142.88,174.63,521.63,Single-ply,SBD,M
Boys,124.74+,7,Arturo Gallegos III,Ingleside,135.26,192.78,92.99,142.88,428.64,Single-ply,SBD,M
Boys,124.74+,DQ,Cody Shaffer,Karnes City,158.76,,,,,Single-ply,SBD,M
