Event,Sex,Division,WeightClassKg,Equipment,Best3BenchKg,Bench4Kg,Best3DeadliftKg,Deadlift4Kg,TotalKg,Name,State,Place
B,M,Class 1,90,Raw,102.5,,,,102.5,Matthew Collins,California,1
B,M,Class 1,100,Raw,140,,,,140,Tyler Gagon,California,1
B,M,Class 1,110,Raw,175,,,,175,Matt Sheppard,California,1
B,M,Class 1,117.5,Raw,160,,,,160,Frank Ford,California,1
B,M,Class 1,117.5,Single-ply,185,,,,185,Colby Knowles,California,1
B,M,Class 1,140,Raw,145,,,,145,Richard Bennett,California,1
B,M,Disabled 2 60,110,Single-ply,145.5,,,,145.5,Scott Dolan,ID,1
B,M,Elite Open,90,Single-ply,275,,,,275,Matt LaMarque,California,1
B,M,Juniors 20-25,90,Raw,102.5,,,,102.5,Matthew Collins,California,3
B,M,Juniors 20-25,90,Raw,142.5,,,,142.5,Joseph Karamatic,California,1
B,M,Juniors 20-25,90,Raw,127.5,,,,127.5,Ryan McUmber,California,2
B,M,Juniors 20-25,100,Single-ply,195,,,,195,Matthew Allen,NV,1
B,M,Juniors 20-25,100,Raw,135,,,,135,Kyle Martinson,California,1
B,M,Juniors 20-25,140,Single-ply,260,,,,260,Colby Ballinger,California,1
B,M,Juniors 20-25,140,Raw,162.5,,,,162.5,Tyler Milligan,California,1
B,M,Law-Fire 48-55,100,Raw,190,,,,190,Gary McFarland,California,1
B,M,Law-Fire 48-55,117.5,Single-ply,232.5,,,,232.5,JC Tolle,California,1
B,M,Law-Fire 64,90,Single-ply,102.5,,,,102.5,Clarence Ed Rust,California,1
B,M,Law-Fire 64,100,Single-ply,152.5,,,,152.5,David Martinez #7,California,1
B,M,Law-Fire Open,75,Raw,125,,,,125,Bryan Goings,California,1
B,M,Law-Fire Open,82.5,Single-ply,192.5,200,,,192.5,Daniel Sisneros,California,1
B,M,Masters 40-46,90,Single-ply,275,,,,275,Matt LaMarque,California,1
B,M,Masters 40-46,100,Raw,220,,,,220,James Hunter,California,1
B,M,Masters 40-46,117.5,Single-ply,237.5,,,,237.5,Kenny Rodriguez,California,1
B,M,Masters 47-53,117.5,Single-ply,232.5,,,,232.5,Mick Quilici,NV,1
B,M,Masters 54-60,82.5,Single-ply,165,,,,165,Paul Janoff,California,1
B,M,Masters 54-60,90,Raw,122.5,,,,122.5,Joel Korotkin,California,1
B,M,Masters 54-60,100,Raw,117.5,,,,117.5,Brian Bombola,California,1
B,M,Masters 54-60,100,Multi-ply,171,172.5,,,171,Michael Collins,California,1
B,M,Masters 54-60,100,Single-ply,215.5,,,,215.5,James Noblit,OR,1
B,M,Masters 54-60,117.5,Single-ply,205,,,,205,Jim Presley,California,1
B,M,Masters 54-60,125,Single-ply,210,,,,210,Rich Ludlam,California,1
B,M,Masters 54-60,125,Single-ply,170,,,,170,Ronald Womack,California,2
B,M,Masters 61-67,82.5,Single-ply,127.5,,,,127.5,Barry Murphy,California,1
B,M,Masters 61-67,90,Raw,85,,,,85,Greg Sawyer,California,1
B,M,Masters 61-67,100,Single-ply,152.5,,,,152.5,David Martinez #7,California,1
B,M,Masters 61-67,110,Single-ply,145.5,,,,145.5,Scott Dolan,ID,1
B,M,Masters 61-67,125,Raw,102.5,,,,102.5,Michal Johnson,California,1
B,M,Masters 68-74,90,Single-ply,102.5,,,,102.5,Raymond Rhodes,California,1
B,M,Masters 75-79,75,Raw,72.5,,,,72.5,Salvatore Morabito,California,1
B,M,Masters 75-79,82.5,Multi-ply,85.5,,,,85.5,Larry Joiner,California,1
B,M,Masters 75-79,90,Raw,147.5,,,,147.5,Robert Rudge,California,1
B,M,Masters 75-79,100,Single-ply,125,,,,125,Robert Urrea,California,1
B,M,Masters 90,90,Single-ply,92.5,,,,92.5,Charles Rice,California,1
B,M,Open,100,Raw,220,,,,220,James Hunter,California,1
B,M,Open,110,Single-ply,272.5,,,,272.5,Jeremiah Lopez,California,1
B,M,Open,117.5,Single-ply,205,,,,205,Jim Presley,CA,2
B,M,Open,117.5,Single-ply,232.5,,,,232.5,Mick Quilici,NV,1
B,M,Open,140,Single-ply,260,,,,260,Colby Ballinger,California,1
B,M,Submasters 33-39,117.5,Raw,160,,,,160,Frank Ford,California,1
B,M,Teen 16-17,75,Raw,107.5,,,,107.5,Francisco Garcia,California,1
B,M,Teen 16-17,82.5,Raw,92.5,,,,92.5,Martin Boer,California,1
B,M,Teen 18-19,67.5,Raw,92.5,,,,92.5,Rylen Thuemler,California,1
B,M,Teen 18-19,90,Raw,102.5,,,,102.5,Jose Santillen,California,1
B,M,Teen 18-19,140,Raw,137.5,,,,137.5,Carlos Barraza,NV,1
D,M,Class 1,90,Raw,,,215,,215,Matthew Collins,California,1
D,M,Class 1,100,Raw,,,240,,240,Tyler Gagon,California,1
D,M,Class 1,140,Raw,,,302.5,,302.5,Richard Bennett,California,1
D,M,Juniors 20-25,90,Raw,,,215,,215,Matthew Collins,California,2
D,M,Juniors 20-25,90,Raw,,,220,,220,Joseph Karamatic,California,1
D,M,Juniors 20-25,90,Raw,,,207.5,,207.5,Ryan McUmber,California,3
D,M,Juniors 20-25,100,Single-ply,,,250,,250,Matthew Allen,NV,1
D,M,Juniors 20-25,100,Raw,,,255,,255,Kyle Martinson,California,1
D,M,Juniors 20-25,140,Raw,,,363,,363,Colby Ballinger,California,1
D,M,Juniors 20-25,140,Raw,,,285,,285,Tyler Milligan,California,2
D,M,Law-Fire 48-55,117.5,Single-ply,,,250,,250,JC Tolle,California,1
D,M,Law-Fire 56-63,100,Multi-ply,,,115,,115,Manny Burruel,California,1
D,M,Law-Fire 64,90,Single-ply,,,120,,120,Ed Rust,California,1
D,M,Law-Fire Open,75,Raw,,,172.5,,172.5,Bryan Goings,California,1
D,M,Law-Fire Open,82.5,Single-ply,,,205,,205,Daniel Sisneros,California,1
D,M,Law-Fire Submasters,90,Raw,,,250,,250,Dane Gregory,California,1
D,M,Masters 40-46,90,Single-ply,,,285,,285,Matt LaMarque,California,1
D,M,Masters 40-46,110,Single-ply,,,250,,250,Ismansjah Soekardi,California,1
D,M,Masters 47-53,110,Single-ply,,,287.5,,287.5,Robert Exum,California,1
D,M,Masters 54-60,90,Raw,,,137.5,,137.5,Joel Korotkin,California,1
D,M,Masters 54-60,100,Multi-ply,,,213,,213,Michael Collins,California,1
D,M,Masters 54-60,117.5,Single-ply,,,205,,205,Jim Presley,California,1
D,M,Masters 54-60,125,Raw,,,232.5,,232.5,Ronald Womack,California,1
D,M,Masters 61-67,90,Raw,,,145,,145,Greg Sawyer,California,1
D,M,Masters 61-67,100,Multi-ply,,,115,,115,Manny Burruel,California,1
D,M,Masters 61-67,125,Raw,,,200,,200,Michal Johnson,California,1
D,M,Masters 68-74,100,Raw,,,160,,160,Tom Henslin,California,1
D,M,Masters 75-79,75,Raw,,,155,,155,Salvatore Morabito,California,1
D,M,Masters 75-79,100,Single-ply,,,150,,150,Robert Urrea,California,1
D,M,Open,110,Single-ply,,,287.5,,287.5,Robert Exum,California,1
D,M,Open,110,Single-ply,,,257.5,,257.5,Jeremiah Lopez,California,2
D,M,Open,117.5,Single-ply,,,205,,205,Jim Presley,California,1
D,M,Open,140,Raw,,,363,,363,Colby Ballinger,California,1
D,M,Submasters 33-39,100,Raw,,,192.5,,192.5,Zach Drebin,California,1
D,M,Teen 16-17,67.5,Raw,,,145,,145,Cesar Cisneros,California,1
D,M,Teen 16-17,75,Raw,,,190,,190,Francisco Garcia,California,1
D,M,Teen 18-19,140,Raw,,,260,,260,Carlos Barraza,NV,1
BD,M,Class 1,90,Raw,102.5,,215,,317,Matthew Collins,California,1
BD,M,Class 1,140,Raw,145,,302.5,,447.5,Richard Bennett,California,1
BD,M,Juniors 20-25,90,Raw,102.5,,215,,317,Matthew Collins,California,3
BD,M,Juniors 20-25,90,Raw,142.5,,220,,362.5,Joseph Karamatic,California,1
BD,M,Juniors 20-25,90,Raw,127.5,,207.5,,335,Ryan McUmber,California,2
BD,M,Juniors 20-25,100,Single-ply,195,,250,,445,Matthew Allen,NV,1
BD,M,Juniors 20-25,100,Raw,135,,255,,390,Kyle Martinson,California,1
BD,M,Juniors 20-25,140,Raw,162.5,,285,,447.5,Tyler Milligan,California,1
BD,M,Law-Fire 48-55,117.5,Single-ply,232.5,,250,,482.5,JC Tolle,California,1
BD,M,Law-Fire 64,90,Single-ply,85,,120,,205,Ed Rust,California,1
BD,M,Law-Fire Open,75,Raw,125,,172.5,,297.5,Bryan Goings,California,1
BD,M,Masters 40-46,90,Single-ply,275,,285,,560,Matt LaMarque,California,1
BD,M,Masters 54-60,90,Raw,122.5,,137.5,,260,Joel Korotkin,California,1
BD,M,Masters 54-60,100,Multi-ply,171,172.5,213,,384,Michael Collins,California,1
BD,M,Masters 54-60,117.5,Single-ply,205,,205,,410,Jim Presley,California,1
BD,M,Masters 61-67,90,Raw,85,,145,,230,Greg Sawyer,California,1
BD,M,Masters 75-79,75,Raw,72.5,,155,,227.5,Salvatore Morabito,California,1
BD,M,Open,117.5,Single-ply,205,,205,,410,Jim Presley,California,1
BD,M,Submasters 33-39,100,Raw,137.5,,192.5,,330,Zach Drebin,California,1
BD,M,Teen 18-19,140,Raw,137.5,,260,,397.5,Carlos Barraza,NV,1
B,F,Class 1,67.5,Raw,65,,,,65,Chelsie Satterfield,California,1
B,F,Disabled 1 20-39,67.5,Raw,65,,,,65,Chelsie Satterfield,California,1
B,F,Disabled 1 40-59,60,Raw,42.5,,,,42.5,Susan Rosenquist,California,1
B,F,Juniors,67.5,Raw,45,,,,45,Melissa Meza,California,1
B,F,Law-Fire 40-47,82.5,Raw,67.5,,,,67.5,Roxanne LeMaire,California,1
B,F,Law-Fire Submasters,82.5,Raw,90,,,,90,Kristy Gregory,California,1
B,F,Masters 40-46,60,Single-ply,68,,,,68,Katie Lynch,NV,1
B,F,Masters 40-46,67.5,Single-ply,77.5,,,,77.5,Dede Soekardi,California,1
B,F,Masters 40-46,75,Raw,65,,,,65,Mirtha Delatorre,California,1
B,F,Masters 40-46,82.5,Raw,62.5,,,,62.5,Suzette Reed,California,1
B,F,Masters 47-53,82.5,Single-ply,80,,,,80,Deborah Maxwell,California,1
B,F,Masters 54-60,60,Single-ply,72,80.5,,,72,Betty Hansen,California,1
B,F,Masters 54-60,67.5,Single-ply,102.5,,,,102.5,Beverly Anolin,California,1
B,F,Masters 54-60,67.5,Raw,62.5,,,,62.5,Tierney Korotkin,California,1
B,F,Masters 61-67,44,Single-ply,47.5,48,,,47.5,Pamela Robinson,California,1
B,F,Masters 61-67,100,Single-ply,100,,,,100,Sue Vaterlaus,California,1
B,F,Masters 68-74,56,Single-ply,42.5,,,,42.5,Flo Robinson,California,1
B,F,Masters 68-74,67.5,Single-ply,50,,,,50,Kaye Donnelly,California,1
B,F,Masters 75-79,75,Multi-ply,47.5,,,,47.5,Gerda Shupe,California,1
B,F,Masters 80-84,82.5,Raw,40,,,,40,Carrie Reese,California,1
B,F,Open,52,Single-ply,62.5,,,,62.5,Morgan Matteoni,NV,1
B,F,Open,56,Raw,42.5,,,,42.5,Maricela Perez,California,1
B,F,Open,67.5,Single-ply,102.5,,,,102.5,Beverly Anolin,California,1
B,F,Teen 18-19,67.5,Raw,62.5,,,,62.5,Cristina Munoz,California,1
D,F,Class 1,56,Raw,,,110,,110,Christy Verboom,California,1
D,F,Class 1,67.5,Single-ply,,,120,,120,Angie Buschman,California,2
D,F,Class 1,67.5,Single-ply,,,142.5,,142.5,Aishling Murray,California,1
D,F,Class 1,82.5,Raw,,,142.5,,142.5,Megan McKibben,California,1
D,F,Class 1,90,Single-ply,,,117.5,,117.5,Amy Amber,California,1
D,F,Class 1,100,Raw,,,117.5,,117.5,Allison Heardeay,California,1
D,F,Disabled 2 60,75,Raw,,,102.5,,102.5,Charlene Muscio,California,1
D,F,Law-Fire 40-47,82.5,Raw,,,115,,115,Roxanne LeMaire,California,1
D,F,Law-Fire Submasters,82.5,Raw,,,160,,160,Kristy Gregory,California,1
D,F,Masters 61-67,75,Raw,,,102.5,,102.5,Charlene Muscio,California,1
D,F,Masters 40-46,60,Single-ply,,,117.5,,117.5,Katie Lynch,NV,1
D,F,Masters 40-46,60,Raw,,,105,,105,Sagi Macias,California,1
D,F,Masters 40-46,67.5,Raw,,,130,,130,Dede Soekardi,California,1
D,F,Masters 40-46,75,Raw,,,135,,135,Mirtha Delatorre,California,1
D,F,Masters 47-53,75,Raw,,,155,,155,Karrie Alexander,California,1
D,F,Masters 47-53,82.5,Raw,,,107.5,,107.5,Delena Bowes,California,1
D,F,Masters 47-53,82.5,Single-ply,,,110,,110,Deborah Maxwell,California,1
D,F,Masters 54-60,52,Single-ply,,,107.5,,107.5,Miriam Bucks,California,1
D,F,Masters 54-60,60,Single-ply,,,92.5,,92.5,Betty Hansen,California,1
D,F,Masters 54-60,67.5,Single-ply,,,165,,165,Beverly Anolin,California,1
D,F,Masters 54-60,67.5,Raw,,,112.5,,112.5,Tierney Korotkin,California,1
D,F,Masters 54-60,67.5,Multi-ply,,,143.5,,143.5,Peach Presley,California,1
D,F,Masters 61-67,100,Single-ply,,,110,,110,Sue Vaterlaus,California,1
D,F,Masters 68-74,56,Single-ply,,,100,105.5,100,Flo Robinson,California,1
D,F,Masters 75-79,75,Multi-ply,,,112.5,,112.5,Gerda Shupe,California,1
D,F,Masters 80-84,82.5,Raw,,,92.5,,92.5,Carrie Reese,California,1
D,F,Masters 90,82.5,Raw,,,40,,40,Evelyn Kilgore,California,1
D,F,Open,67.5,Single-ply,,,165,,165,Beverly Anolin,California,1
D,F,Open,67.5,Multi-ply,,,143.5,,143.5,Peach Presley,California,1
D,F,Submasters,82.5,Raw,,,107.5,,107.5,Crystal Luiz-Jones,California,1
BD,F,Law-Fire Submasters,82.5,Raw,90,,160,,250,Kristy Gregory,California,1
BD,F,Masters 40-46,60,Single-ply,68,,117.5,,185.5,Katie Lynch,NV,1
BD,F,Masters 40-46,75,Raw,65,,135,,200,Mirtha Delatorre,California,1
BD,F,Masters 47-53,82.5,Single-ply,80,,110,,190,Deborah Maxwell,California,1
BD,F,Masters 54-60,67.5,Single-ply,102.5,,165,,267.5,Beverly Anolin,California,1
BD,F,Masters 54-60,67.5,Raw,62.5,,112.5,,175,Tierney Korotkin,California,1
BD,F,Masters 61-67,100,Single-ply,100,,110,,210,Sue Vaterlaus,California,1
BD,F,Masters 75-79,75,Multi-ply,47.5,,112.5,,160,Gerda Shupe,California,1
BD,F,Open,67.5,Single-ply,102.5,,165,,267.5,Beverly Anolin,California,1
