Division,WeightClassKg,Place,Name,Team,BodyweightKg,Best3SquatKg,Best3BenchKg,Best3DeadliftKg,TotalKg,Equipment,Event,Sex
Boys,51.71,1,Hank Hewgley,Conroe The Woodlands,51.07,88.45,58.97,90.72,238.14,Single-ply,SBD,M
Boys,51.71,2,Nate Provost,Conroe The Woodlands,51.35,86.18,43.09,102.06,231.33,Single-ply,SBD,M
Boys,51.71,3,Lukas Alvarez,Conroe The Woodlands,51.39,79.38,45.36,104.33,229.06,Single-ply,SBD,M
Boys,51.71,4,Zach Davis,Conroe Grand Oaks,51.26,54.43,38.56,72.57,165.56,Single-ply,SBD,M
Boys,55.79,1,Drew Griffin,Conroe Grand Oaks,55.75,106.59,52.16,111.13,269.89,Single-ply,SBD,M
Boys,59.87,1,Angel Meza,Conroe Caney Creek,59.15,115.67,102.06,115.67,333.39,Single-ply,SBD,M
Boys,59.87,2,Dylan Maalouf,Conroe Grand Oaks,56.97,97.52,61.23,111.13,269.89,Single-ply,SBD,M
Boys,59.87,DQ,Carson Borque,Conroe Grand Oaks,58.69,104.33,,122.47,,Single-ply,SBD,M
Boys,59.87,DQ,Leobardo Marban,Conroe Caney Creek,59.56,95.25,,111.13,,Single-ply,SBD,M
Boys,67.13,1,Enoc Villagomez,Conroe Caney Creek,66.63,174.63,97.52,174.63,446.79,Single-ply,SBD,M
Boys,67.13,2,Jason Salazar,Conroe Caney Creek,64.64,156.49,83.91,156.49,396.89,Single-ply,SBD,M
Boys,67.13,3,Daniel Gil,Conroe The Woodlands,62.64,133.81,90.72,158.76,383.29,Single-ply,SBD,M
Boys,67.13,4,Deric Lowe,Beaumont United,65.73,138.35,77.11,145.15,360.61,Single-ply,SBD,M
Boys,67.13,5,Garret Wylie,Willis,66.54,120.2,83.91,154.22,358.34,Single-ply,SBD,M
Boys,67.13,6,Ty Risner,Conroe The Woodlands,62.14,127.01,81.65,147.42,356.07,Single-ply,SBD,M
Boys,67.13,7,Kameron Baker,Beaumont United,65.73,113.4,81.65,154.22,349.27,Single-ply,SBD,M
Boys,67.13,8,Gabriel Anzaldua,Conroe Grand Oaks,66.59,129.27,61.23,136.08,326.59,Single-ply,SBD,M
Boys,67.13,9,Alex Lopez,Conroe Grand Oaks,64.05,124.74,63.5,122.47,310.71,Single-ply,SBD,M
Boys,67.13,10,Tyler Higginbotham,Conroe The Woodlands,60.19,106.59,68.04,106.59,281.23,Single-ply,SBD,M
Boys,67.13,11,Shane Telfer,Conroe Grand Oaks,65.23,106.59,65.77,88.45,260.82,Single-ply,SBD,M
Boys,67.13,12,Grayson Weilein,Conroe Grand Oaks,66.9,52.16,49.9,,102.06,Single-ply,SB,M
Boys,67.13,DQ,Sean Zvere,Conroe Grand Oaks,65.18,142.88,,149.69,,Single-ply,SBD,M
Boys,74.84,1,Ivan Fuentes,Willis,73.39,204.12,115.67,240.4,560.19,Single-ply,SBD,M
Boys,74.84,2,Nathan Leone,Conroe The Woodlands,74.53,188.24,102.06,190.51,480.81,Single-ply,SBD,M
Boys,74.84,3,Emory Velez,Conroe Grand Oaks,74.75,142.88,97.52,174.63,415.04,Single-ply,SBD,M
Boys,74.84,4,John Swiggert,Conroe The Woodlands,74.84,149.69,86.18,176.9,412.77,Single-ply,SBD,M
Boys,74.84,5,David Bush,Conroe Grand Oaks,71.99,138.35,108.86,151.95,399.16,Single-ply,SBD,M
Boys,74.84,6,Brett Peterson,Conroe The Woodlands,71.44,156.49,92.99,142.88,392.36,Single-ply,SBD,M
Boys,74.84,7,Mikiyah Gilford,Conroe The Woodlands,73.8,142.88,95.25,133.81,371.95,Single-ply,SBD,M
Boys,74.84,8,Pablo Granados,Conroe Caney Creek,73.16,136.08,70.31,147.42,353.8,Single-ply,SBD,M
Boys,74.84,9,Ivan Sanchez,Conroe Caney Creek,74.12,129.27,74.84,140.61,344.73,Single-ply,SBD,M
Boys,74.84,10,Mauricio Kerguelen,Conroe The Woodlands,69.22,131.54,70.31,138.35,340.19,Single-ply,SBD,M
Boys,74.84,11,Francisco Otero,Conroe Grand Oaks,73.71,115.67,68.04,156.49,340.19,Single-ply,SBD,M
Boys,74.84,12,Jairo Rivera,Pasadena Memorial,69.76,113.4,77.11,142.88,333.39,Single-ply,SBD,M
Boys,74.84,13,Robert Miller,Conroe Grand Oaks,72.76,102.06,56.7,142.88,301.64,Single-ply,SBD,M
Boys,74.84,DQ,Dyllan Cuellar,Conroe Grand Oaks,70.67,124.74,,142.88,,Single-ply,SBD,M
Boys,82.1,1,Jace Halbaedier,Willis,82.1,183.7,111.13,192.78,487.61,Single-ply,SBD,M
Boys,82.1,2,Giovanni Zaso,Pasadena Memorial,79.33,190.51,99.79,195.04,485.34,Single-ply,SBD,M
Boys,82.1,3,Malikai Bethea,Pasadena Memorial,78.11,176.9,95.25,204.12,476.27,Single-ply,SBD,M
Boys,82.1,4,Anthony Pacheco,Conroe Grand Oaks,81.33,156.49,90.72,147.42,394.63,Single-ply,SBD,M
Boys,82.1,5,Keaton Rue,Conroe The Woodlands,77.16,138.35,97.52,149.69,385.55,Single-ply,SBD,M
Boys,82.1,6,William Sere,Conroe Grand Oaks,74.93,158.76,74.84,147.42,381.02,Single-ply,SBD,M
Boys,82.1,7,Gage Mongesku,Conroe Grand Oaks,79.06,133.81,83.91,151.95,369.68,Single-ply,SBD,M
Boys,82.1,8,Nathan Thornberry,Conroe Grand Oaks,78.93,136.08,77.11,151.95,365.14,Single-ply,SBD,M
Boys,82.1,9,Parnell Lujan,Baytown Lee,78.7,102.06,81.65,151.95,335.66,Single-ply,SBD,M
Boys,82.1,10,Will McGillivary,Conroe Grand Oaks,76.16,111.13,74.84,131.54,317.51,Single-ply,SBD,M
Boys,82.1,11,Bo Strawser,Conroe Grand Oaks,79.33,90.72,56.7,142.88,290.3,Single-ply,SBD,M
Boys,82.1,DQ,Markis Fontenot,Beaumont United,81.37,151.95,,161.03,,Single-ply,SBD,M
Boys,89.81,1,Alex Valencia,Baytown Lee,88.72,206.38,113.4,195.04,514.83,Single-ply,SBD,M
Boys,89.81,2,Blaine Corekin,Conroe The Woodlands,83.28,188.24,117.93,185.97,492.15,Single-ply,SBD,M
Boys,89.81,3,Ryan James,Baytown Lee,82.33,174.63,111.13,204.12,489.88,Single-ply,SBD,M
Boys,89.81,5,Andrew Larkworthy,Conroe The Woodlands,84.46,161.03,111.13,156.49,428.64,Single-ply,SBD,M
Boys,89.81,6,Blake Lechmanic,Conroe Grand Oaks,89.54,133.81,108.86,151.95,394.63,Single-ply,SBD,M
Boys,89.81,7,Cole Arnold,Willis,86.18,102.06,65.77,124.74,292.57,Single-ply,SBD,M
Boys,89.81,8,Relay Adams,Conroe Grand Oaks,83.01,113.4,56.7,111.13,281.23,Single-ply,SBD,M
Boys,89.81,DQ,Edgar Alvarado,Willis,89.4,183.7,,183.7,,Single-ply,SBD,M
Boys,99.79,1,Gabe Garcia,Conroe Caney Creek,94.12,231.33,147.42,226.8,605.55,Single-ply,SBD,M
Boys,99.79,2,Chris Garcia,Conroe Caney Creek,94.57,226.8,115.67,238.14,580.6,Single-ply,SBD,M
Boys,99.79,3,Gabriel Winters,Beaumont United,96.89,192.78,106.59,226.8,526.17,Single-ply,SBD,M
Boys,99.79,4,Nathan Cabrera,Pasadena Memorial,93.62,199.58,111.13,192.78,503.49,Single-ply,SBD,M
Boys,99.79,4,Bryan Medina,Baytown Lee,89.95,156.49,111.13,165.56,433.18,Single-ply,SBD,M
Boys,99.79,5,Jordan Malvo,Beaumont United,97.79,192.78,108.86,190.51,492.15,Single-ply,SBD,M
Boys,99.79,6,Adrian Tamez,Pasadena Memorial,92.58,167.83,111.13,204.12,483.08,Single-ply,SBD,M
Boys,99.79,7,Dayton Smith,Conroe The Woodlands,96.12,174.63,111.13,165.56,451.32,Single-ply,SBD,M
Boys,99.79,8,Eduardo Maury,Beaumont United,96.43,151.95,92.99,190.51,435.45,Single-ply,SBD,M
Boys,99.79,9,Josh Flores,Conroe Caney Creek,98.75,170.1,102.06,161.03,433.18,Single-ply,SBD,M
Boys,99.79,10,Alex Martin,Conroe The Woodlands,91.26,142.88,92.99,147.42,383.29,Single-ply,SBD,M
Boys,109.77,1,Jamaal Edwards,Beaumont United,106.91,231.33,113.4,226.8,571.53,Single-ply,SBD,M
Boys,109.77,2,Ethan Robins,Conroe Caney Creek,103.96,249.48,113.4,183.7,546.58,Single-ply,SBD,M
Boys,109.77,3,Colin Simmons,Willis,103.06,206.38,115.67,201.85,523.9,Single-ply,SBD,M
Boys,109.77,4,Zane Nelson,Willis,105.1,210.92,115.67,183.7,510.29,Single-ply,SBD,M
Boys,109.77,5,Terence Jackson,Beaumont United,108.14,161.03,108.86,226.8,496.68,Single-ply,SBD,M
Boys,109.77,6,Conner Fisher,Willis,105.91,147.42,99.79,183.7,430.91,Single-ply,SBD,M
Boys,109.77,7,Jaylon Jones,Baytown Lee,106.14,158.76,102.06,163.29,424.11,Single-ply,SBD,M
Boys,109.77,8,Joshua Perez,Conroe Grand Oaks,104.1,165.56,61.23,181.44,408.23,Single-ply,SBD,M
Boys,109.77,9,Justin King,Beaumont United,104.05,142.88,90.72,158.76,392.36,Single-ply,SBD,M
Boys,109.77,10,Zach Schneider,Conroe Grand Oaks,102.97,63.5,29.48,90.72,183.7,Single-ply,SBD,M
Boys,109.77,DQ,Payton Korolyk,Conroe Grand Oaks,108.59,229.06,133.81,,,Single-ply,SBD,M
Boys,124.74,1,Camron Barr,Conroe Caney Creek,113.04,226.8,129.27,208.65,564.72,Single-ply,SBD,M
Boys,124.74,2,Rashad Futch,Baytown Lee,116.85,183.7,97.52,206.38,487.61,Single-ply,SBD,M
Boys,124.74,DQ,Markel Martin,Beaumont United,121.2,,86.18,174.63,,Single-ply,SBD,M
Boys,124.74+,1,Michael Flores,Conroe Caney Creek,161.25,249.48,102.06,185.97,537.51,Single-ply,SBD,M
Boys,124.74+,2,Rashad Wynn,Willis,129.46,233.6,104.33,197.31,535.24,Single-ply,SBD,M
Boys,124.74+,3,Billy Haynes,Baytown Lee,125.24,188.24,124.74,183.7,496.68,Single-ply,SBD,M
Boys,124.74+,4,Alfredo Nieto,Baytown Lee,142.25,185.97,102.06,199.58,487.61,Single-ply,SBD,M
Boys,124.74+,5,Omar Nieto,Baytown Lee,130.41,158.76,97.52,192.78,449.06,Single-ply,SBD,M
Boys,124.74+,6,Joshua Lunde,Conroe The Woodlands,143.7,151.95,68.04,124.74,344.73,Single-ply,SBD,M
Boys,,NS,Jakevion Wilson,Beaumont United,,,,,,Single-ply,SBD,M
