Division,WeightClassKg,Place,Name,Team,BodyweightKg,Best3SquatKg,Best3BenchKg,Best3DeadliftKg,TotalKg,Equipment,Event,Sex
Boys,55.79,1,Jason Ayers,Lampasas,51.89,138.35,74.84,145.15,358.34,Single-ply,SBD,M
Boys,51.71,2,Abraham Villareal,Belton,49.53,120.2,58.97,154.22,333.39,Single-ply,SBD,M
Boys,51.71,3,Estefano Lopez,Waco University,51.53,102.06,74.84,113.4,290.3,Single-ply,SBD,M
Boys,51.71,4,Curvon Cunningham,Temple,51.26,86.18,52.16,117.93,256.28,Single-ply,SBD,M
Boys,51.71,5,Eliazar Venegas,Waco Midway,42.73,90.72,49.9,102.06,242.67,Single-ply,SBD,M
Boys,51.71,DQ,Ryan Dean,Waco Midway,51.17,124.74,77.11,,,Single-ply,SBD,M
Boys,55.79,1,Josh Davis,Killeen Shoemaker,55.7,147.42,92.99,158.76,399.16,Single-ply,SBD,M
Boys,59.87,2,Alec Webster,Killeen Shoemaker,55.97,133.81,97.52,161.03,392.36,Single-ply,SBD,M
Boys,55.79,3,Johnny Martinez,Belton,53.98,113.4,74.84,145.15,333.39,Single-ply,SBD,M
Boys,55.79,4,Nick Hickman,Waco Midway,53.98,117.93,79.38,127.01,324.32,Single-ply,SBD,M
Boys,55.79,5,Albert Trinidad,Copperas Cove,55.79,117.93,68.04,136.08,322.05,Single-ply,SBD,M
Boys,55.79,6,Zaki Hill,Belton,53.43,115.67,63.5,131.54,310.71,Single-ply,SBD,M
Boys,59.87,1,Quintin Cannon,Belton,57.79,129.27,86.18,158.76,374.21,Single-ply,SBD,M
Boys,59.87,2,Phoenix Phillips,Belton,59.15,120.2,70.31,131.54,322.05,Single-ply,SBD,M
Boys,59.87,3,Keanu Comacho,Copperas Cove,57.79,124.74,61.23,133.81,319.78,Single-ply,SBD,M
Boys,59.87,4,Ethan Blanton,Waco Midway,57.15,124.74,63.5,111.13,299.37,Single-ply,SBD,M
Boys,59.87,5,Jalan Perez,Waco Midway,58.69,113.4,58.97,113.4,285.76,Single-ply,SBD,M
Boys,59.87,DQ,Aaron Taylor,Copperas Cove,57.24,111.13,,,,Single-ply,SBD,M
Boys,67.13,DQ,Dillon White,Lampasas,60.1,90.72,,,,Single-ply,SBD,M
Boys,67.13,1,Knijan Bell-Williams,Lampasas,66.86,181.44,115.67,192.78,489.88,Single-ply,SBD,M
Boys,67.13,2,Treston Womack,Waco Midway,67.04,181.44,108.86,185.97,476.27,Single-ply,SBD,M
Boys,67.13,3,Bradley Schwartzengraber,Copperas Cove,66.5,165.56,108.86,161.03,435.45,Single-ply,SBD,M
Boys,67.13,4,Jordan Lawrence,Pflugerville Connally,66.77,151.95,97.52,181.44,430.91,Single-ply,SBD,M
Boys,67.13,5,Baldomero Sanchez,Waco University,64.14,158.76,79.38,176.9,415.04,Single-ply,SBD,M
Boys,67.13,6,Demeatric Brandon,Belton,65.95,163.29,86.18,163.29,412.77,Single-ply,SBD,M
Boys,67.13,7,Danny Tucker,Waco,66.68,147.42,90.72,163.29,401.43,Single-ply,SBD,M
Boys,67.13,8,Jody Chance,Rogers,63.68,156.49,92.99,142.88,392.36,Single-ply,SBD,M
Boys,67.13,9,Davint'e Johnson,Belton,66.59,158.76,86.18,147.42,392.36,Single-ply,SBD,M
Boys,67.13,10,Eric Moore,Copperas Cove,62.96,149.69,83.91,154.22,387.82,Single-ply,SBD,M
Boys,67.13,11,Nathan Keese,Lampasas,66.95,142.88,77.11,156.49,376.48,Single-ply,SBD,M
Boys,67.13,12,Kris Glynn,Waco University,61.05,122.47,79.38,167.83,369.68,Single-ply,SBD,M
Boys,67.13,13,Joseph Lopez,Kyle Lehman,67.13,115.67,102.06,147.42,365.14,Single-ply,SBD,M
Boys,67.13,14,Angelo Romo,Waco University,64.68,131.54,74.84,136.08,342.46,Single-ply,SBD,M
Boys,67.13,15,Matt Shillingham,Waco Midway,60.78,104.33,72.57,115.67,292.57,Single-ply,SBD,M
Boys,74.84,1,Tristan Dudley,Rogers,73.66,208.65,138.35,199.58,546.58,Single-ply,SBD,M
Boys,82.1,2,Hunter Wilkinson,Lampasas,75.02,181.44,113.4,197.31,492.15,Single-ply,SBD,M
Boys,74.84,3,Marc Pickett,Kyle Lehman,72.39,165.56,117.93,195.04,478.54,Single-ply,SBD,M
Boys,74.84,4,Travis Stone,Rogers,68.31,183.7,97.52,190.51,471.74,Single-ply,SBD,M
Boys,82.1,5,Justin Joe,Copperas Cove,74.93,158.76,113.4,188.24,460.4,Single-ply,SBD,M
Boys,74.84,6,Joseph Alvarez,Kyle Lehman,71.3,183.7,95.25,165.56,444.52,Single-ply,SBD,M
Boys,82.1,7,Elijah Shipley,Copperas Cove,75.02,170.1,97.52,176.9,444.52,Single-ply,SBD,M
Boys,74.84,8,Jose Bonilla,Killeen Shoemaker,70.94,174.63,97.52,165.56,437.72,Single-ply,SBD,M
Boys,74.84,9,Andew Leuthner,Copperas Cove,71.12,151.95,95.25,183.7,430.91,Single-ply,SBD,M
Boys,74.84,10,Brad Lawson,Copperas Cove,72.03,149.69,90.72,185.97,426.38,Single-ply,SBD,M
Boys,74.84,11,Malik Stoutamire,Temple,69.94,142.88,99.79,181.44,424.11,Single-ply,SBD,M
Boys,74.84,12,Carlton Shanks,Belton,70.31,154.22,92.99,174.63,421.84,Single-ply,SBD,M
Boys,82.1,13,David Anderson,Killeen Shoemaker,75.02,154.22,111.13,151.95,417.3,Single-ply,SBD,M
Boys,74.84,14,Joel Releford,Copperas Cove,74.84,145.15,88.45,149.69,383.29,Single-ply,SBD,M
Boys,74.84,15,Ricky Martin,Belton,68.49,131.54,83.91,163.29,378.75,Single-ply,SBD,M
Boys,74.84,16,Camron Warren,Belton,69.49,117.93,77.11,163.29,358.34,Single-ply,SBD,M
Boys,74.84,17,Deandre Marshall,Belton,70.13,124.74,74.84,156.49,356.07,Single-ply,SBD,M
Boys,74.84,18,Teondre Parsons,Waco University,71.12,122.47,77.11,147.42,347,Single-ply,SBD,M
Boys,74.84,19,Nathan Salazar,Waco,71.21,120.2,79.38,147.42,347,Single-ply,SBD,M
Boys,74.84,DQ,Miquel Anderson,Waco Midway,71.03,,,,,Single-ply,SBD,M
Boys,74.84,DQ,Trevon Deaver,Waco University,68.04,,,,,Single-ply,SBD,M
Boys,74.84,DQ,Harrell Henderson,Waco Midway,73.12,215.46,,,,Single-ply,SBD,M
Boys,82.1,1,Mike Sumrall,Copperas Cove,81.65,215.46,122.47,231.33,569.26,Single-ply,SBD,M
Boys,82.1,2,Jeremy Holloway,Kyle Lehman,81.1,183.7,115.67,226.8,526.17,Single-ply,SBD,M
Boys,82.1,3,DJ Peapea,Copperas Cove,80.29,195.04,127.01,190.51,512.56,Single-ply,SBD,M
Boys,82.1,4,Ezekiel Jordan,Copperas Cove,78.38,197.31,95.25,206.38,498.95,Single-ply,SBD,M
Boys,82.1,5,Andy Owen,Waco Midway,78.11,188.24,113.4,190.51,492.15,Single-ply,SBD,M
Boys,82.1,6,Breyon Jackson,Copperas Cove,77.02,185.97,113.4,190.51,489.88,Single-ply,SBD,M
Boys,82.1,7,Dylan Dulkoski,Lampasas,81.19,192.78,115.67,181.44,489.88,Single-ply,SBD,M
Boys,82.1,8,Joseph Warehime,Belton,78.02,192.78,113.4,181.44,487.61,Single-ply,SBD,M
Boys,82.1,9,Jamah Payton,Pflugerville Connally,75.48,176.9,113.4,185.97,476.27,Single-ply,SBD,M
Boys,82.1,10,Chris Terry,Temple,79.83,172.37,97.52,204.12,474,Single-ply,SBD,M
Boys,82.1,11,Spencer Majors,Waco University,80.92,154.22,104.33,204.12,462.66,Single-ply,SBD,M
Boys,82.1,12,Jeff Morua,Waco University,82.1,172.37,104.33,183.7,460.4,Single-ply,SBD,M
Boys,82.1,13,Eduardo Escobedo,Temple,77.93,170.1,95.25,192.78,458.13,Single-ply,SBD,M
Boys,82.1,14,Jeremiah Leyba,Belton,80.83,185.97,95.25,176.9,458.13,Single-ply,SBD,M
Boys,82.1,15,Eutiquio Mondragon,Kyle Lehman,76.48,165.56,115.67,170.1,451.32,Single-ply,SBD,M
Boys,82.1,16,Buddy Curry,Belton,81.47,170.1,108.86,172.37,451.32,Single-ply,SBD,M
Boys,82.1,17,Jeremy Schilab,Kyle Lehman,79.56,163.29,88.45,165.56,417.3,Single-ply,SBD,M
Boys,82.1,18,Tre Powell,Copperas Cove,79.92,140.61,86.18,165.56,392.36,Single-ply,SBD,M
Boys,82.1,19,Ronique Williams,Copperas Cove,76.93,151.95,88.45,145.15,385.55,Single-ply,SBD,M
Boys,82.1,20,Danny Gutierrez,Waco,79.47,129.27,81.65,158.76,369.68,Single-ply,SBD,M
Boys,82.1,DQ,K Mungia,Pflugerville Connally,80.1,,,,,Single-ply,SBD,M
Boys,89.81,DQ,Wade Jackson,Copperas Cove,82.28,147.42,,,,Single-ply,SBD,M
Boys,89.81,1,Korey Chatman,Waco Midway,82.92,238.14,149.69,244.94,632.76,Single-ply,SBD,M
Boys,89.81,2,Michael Hicks,Temple,84.55,215.46,138.35,249.48,603.28,Single-ply,SBD,M
Boys,89.81,3,Dontavious Green,Waco University,86.09,206.38,127.01,229.06,562.45,Single-ply,SBD,M
Boys,89.81,4,Weston McIntire,Lampasas,88,183.7,120.2,210.92,514.83,Single-ply,SBD,M
Boys,89.81,5,Ryan Johnson,Belton,87.18,181.44,117.93,208.65,508.02,Single-ply,SBD,M
Boys,89.81,6,La Charles Montgomery,Waco Midway,82.64,208.65,111.13,176.9,496.68,Single-ply,SBD,M
Boys,89.81,7,Javon Walker,Pflugerville Connally,87.82,188.24,108.86,195.04,492.15,Single-ply,SBD,M
Boys,89.81,8,Marques Hatcher,Temple,85.82,192.78,95.25,199.58,487.61,Single-ply,SBD,M
Boys,99.79,9,Caleb Hansen,Pflugerville Connally,89.9,181.44,99.79,195.04,476.27,Single-ply,SBD,M
Boys,89.81,10,Evan Mock,Waco Midway,88.99,165.56,111.13,181.44,458.13,Single-ply,SBD,M
Boys,89.81,11,Moises Bustamante,Kyle Lehman,87.72,161.03,102.06,192.78,455.86,Single-ply,SBD,M
Boys,89.81,12,Preston Reeves,Lampasas,89.18,167.83,90.72,172.37,430.91,Single-ply,SBD,M
Boys,89.81,13,Clay Guthrie,Rogers,89.72,174.63,97.52,147.42,419.57,Single-ply,SBD,M
Boys,89.81,14,Ken Montufar,Killeen Shoemaker,86.64,147.42,90.72,163.29,401.43,Single-ply,SBD,M
Boys,89.81,15,Sean Adams,Copperas Cove,85.64,145.15,72.57,163.29,381.02,Single-ply,SBD,M
Boys,89.81,16,Joe Araujo,Waco,85.18,142.88,74.84,158.76,376.48,Single-ply,SBD,M
Boys,99.79,17,Jonathan Flores,Waco,89.99,122.47,83.91,145.15,351.53,Single-ply,SBD,M
Boys,89.81,18,Rafael Tovar,Lampasas,84.73,120.2,52.16,142.88,315.25,Single-ply,SBD,M
Boys,89.81,DQ,Aj Head,Waco Midway,87.45,215.46,,,,Single-ply,SBD,M
Boys,89.81,DQ,Nmesirionye Davidson,Belton,86.18,149.69,,,,Single-ply,SBD,M
Boys,89.81,DQ,Garret Trout,Belton,86.64,154.22,,,,Single-ply,SBD,M
Boys,99.79,1,Xavier Bryant,Temple,99.52,258.55,165.56,260.82,684.92,Single-ply,SBD,M
Boys,99.79,2,Brandon Bruce,Rogers,92.9,242.67,124.74,226.8,594.21,Single-ply,SBD,M
Boys,99.79,3,Bryson Jones,Rogers,93.98,238.14,136.08,215.46,589.67,Single-ply,SBD,M
Boys,99.79,4,Tyler Talbott,Rogers,96.07,210.92,122.47,172.37,505.76,Single-ply,SBD,M
Boys,99.79,5,Deshawn Sellers,Temple,99.61,183.7,117.93,183.7,485.34,Single-ply,SBD,M
Boys,99.79,6,Topher McGehee,Lampasas,93.08,181.44,106.59,192.78,480.81,Single-ply,SBD,M
Boys,99.79,7,Cody Haney,Belton,97.25,181.44,120.2,176.9,478.54,Single-ply,SBD,M
Boys,99.79,8,Cody Richter,Kyle Lehman,97.89,183.7,108.86,165.56,458.13,Single-ply,SBD,M
Boys,99.79,9,Adam Prado,Lampasas,97.98,190.51,117.93,149.69,458.13,Single-ply,SBD,M
Boys,99.79,10,Nickolas Baker,Belton,99.79,158.76,95.25,176.9,430.91,Single-ply,SBD,M
Boys,99.79,11,Caul Smith,Lampasas,92.08,158.76,92.99,149.69,401.43,Single-ply,SBD,M
Boys,99.79,12,Quint Smith,Lampasas,91.17,158.76,90.72,142.88,392.36,Single-ply,SBD,M
Boys,99.79,13,David Fox,Waco Midway,99.79,136.08,97.52,145.15,378.75,Single-ply,SBD,M
Boys,99.79,14,Tyrese Beasley,Waco,98.61,151.95,88.45,129.27,369.68,Single-ply,SBD,M
Boys,99.79,15,Chris Anderson,Pflugerville Connally,94.35,136.08,74.84,149.69,360.61,Single-ply,SBD,M
Boys,109.77,1,Gabriel Perez,Copperas Cove,102.87,231.33,120.2,219.99,571.53,Single-ply,SBD,M
Boys,109.77,2,Shakana Herrera,Copperas Cove,107.41,190.51,142.88,210.92,544.31,Single-ply,SBD,M
Boys,109.77,3,Kentrell Chandler,Temple,103.6,208.65,131.54,201.85,542.04,Single-ply,SBD,M
Boys,109.77,4,Gilberto Hernandez,Temple,103.15,183.7,140.61,192.78,517.1,Single-ply,SBD,M
Boys,109.77,5,Sergio Hernandez,Temple,106.32,183.7,113.4,192.78,489.88,Single-ply,SBD,M
Boys,109.77,6,Rj Hermes,Copperas Cove,105.69,156.49,108.86,156.49,421.84,Single-ply,SBD,M
Boys,109.77,7,Brian Prickett,Kyle Lehman,106.78,129.27,97.52,170.1,396.89,Single-ply,SBD,M
Boys,109.77,8,Jibrail Rushing,Killeen Shoemaker,102.51,226.8,,142.88,369.68,Single-ply,SD,M
Boys,109.77,9,Kevondre Black,Waco,106.96,138.35,83.91,142.88,365.14,Single-ply,SBD,M
Boys,109.77,DQ,Anthony Flowers,Waco Midway,101.06,181.44,113.4,,,Single-ply,SBD,M
Boys,109.77,DQ,Jon Ladner,Waco Midway,103.24,,,,,Single-ply,SBD,M
Boys,109.77,DQ,Austin Moreno,Pflugerville Connally,105.69,133.81,,,,Single-ply,SBD,M
Boys,109.77,DQ,Isiah Norford,Killeen Shoemaker,109.77,,,,,Single-ply,SBD,M
Boys,109.77,DQ,Gregory Stokes,Copperas Cove,101.33,,,,,Single-ply,SBD,M
Boys,124.74,1,James Judie,Temple,119.75,272.16,145.15,269.89,687.19,Single-ply,SBD,M
Boys,124.74,2,Mj Morris,Waco Midway,122.74,272.16,170.1,244.94,687.19,Single-ply,SBD,M
Boys,124.74,3,Tanner Morgan,Temple,120.47,265.35,142.88,242.67,650.91,Single-ply,SBD,M
Boys,124.74,4,Phil Amua,Copperas Cove,114.31,272.16,136.08,238.14,646.37,Single-ply,SBD,M
Boys,124.74,5,David Lopez,Temple,112.85,265.35,156.49,217.72,639.57,Single-ply,SBD,M
Boys,124.74,6,Braden Martinez,Belton,119.29,249.48,122.47,240.4,612.35,Single-ply,SBD,M
Boys,124.74,7,Jessie Eddison,Killeen Shoemaker,119.66,233.6,142.88,183.7,560.19,Single-ply,SBD,M
Boys,124.74,8,Jose Lopez,Temple,122.56,206.38,147.42,204.12,557.92,Single-ply,SBD,M
Boys,124.74,9,Marcus Ruiz,Kyle Lehman,124.1,229.06,136.08,188.24,553.38,Single-ply,SBD,M
Boys,124.74,10,Tyler Thompson,Rogers,115.3,215.46,117.93,195.04,528.44,Single-ply,SBD,M
Boys,124.74,11,Phillip Lynch,Temple,120.02,195.04,124.74,204.12,523.9,Single-ply,SBD,M
Boys,124.74,12,Justin Melton,Temple,120.47,190.51,127.01,197.31,514.83,Single-ply,SBD,M
Boys,124.74,13,Gabriel Vega,Waco University,124.56,204.12,102.06,195.04,501.22,Single-ply,SBD,M
Boys,124.74,14,Samuel Hussey,Belton,124.01,170.1,136.08,183.7,489.88,Single-ply,SBD,M
Boys,124.74,15,Jonathan Esqueda,Waco,113.31,165.56,92.99,167.83,426.38,Single-ply,SBD,M
Boys,124.74,16,Shawn Uvalle,Lampasas,117.3,158.76,90.72,158.76,408.23,Single-ply,SBD,M
Boys,124.74,17,Derrick Poppe,Killeen Shoemaker,114.76,129.27,113.4,142.88,385.55,Single-ply,SBD,M
Boys,124.74,DQ,Mathew Dougless,Belton,115.58,124.74,,,,Single-ply,SBD,M
Boys,124.74,DQ,Riley Aguilar,Waco Midway,118.57,199.58,113.4,,,Single-ply,SBD,M
Boys,124.74,DQ,Camryn Dotson,Waco Midway,123.47,235.87,,,,Single-ply,SBD,M
Boys,124.74+,1,Jake Dibble,Lampasas,147.15,238.14,129.27,215.46,582.87,Single-ply,SBD,M
Boys,124.74+,2,Kendell Jones,Killeen Shoemaker,138.35,183.7,142.88,226.8,553.38,Single-ply,SBD,M
Boys,124.74+,3,Devon Meshack,Temple,138.44,204.12,136.08,181.44,521.63,Single-ply,SBD,M
Boys,124.74+,4,Chris Nix,Lampasas,130,170.1,113.4,215.46,498.95,Single-ply,SBD,M
Boys,124.74+,5,D'Undre Brown,Waco Midway,138.62,181.44,113.4,188.24,483.08,Single-ply,SBD,M
Boys,124.74+,6,Matthew Guliart,Killeen Shoemaker,126.19,204.12,113.4,158.76,476.27,Single-ply,SBD,M
Boys,124.74+,7,Thomas Amaya,Pflugerville Connally,128.82,165.56,102.06,188.24,455.86,Single-ply,SBD,M
Boys,124.74+,DQ,Dalton Hays,Waco Midway,140.7,,,,,Single-ply,SBD,M
Boys,124.74+,DQ,Julian Silguero,Kyle Lehman,140.07,254.01,,,,Single-ply,SBD,M
Boys,124.74+,DQ,Jermaine Townsend,Temple,137.17,183.7,104.33,,,Single-ply,SBD,M
Boys,124.74+,DQ,Thomas Turner,Waco University,129.5,226.8,149.69,,,Single-ply,SBD,M
