Division,WeightClassKg,Place,Name,Team,BodyweightKg,Best3SquatKg,Best3BenchKg,Best3DeadliftKg,TotalKg,Equipment,Event,Sex
Boys,51.71,1,Stephen Gaut,Keller Central,51.66,124.74,72.57,129.27,326.59,Single-ply,SBD,M
Boys,51.71,DQ,Camden Cochran,Keller Timber Creek,45.13,63.5,43.09,70.31,,Single-ply,SBD,M
Boys,55.79,1,Jordan Wilkerson,Keller Central,53.3,154.22,70.31,158.76,383.29,Single-ply,SBD,M
Boys,55.79,DQ,Chris Quinonez,Keller Fossil Ridge,53.57,61.23,43.09,68.04,,Single-ply,SBD,M
Boys,55.79,DQ,Wyatt Self,Keller Central,55.52,113.4,63.5,102.06,,Single-ply,SBD,M
Boys,59.87,DQ,Sebastian Partida,Keller Central,59.87,92.99,52.16,102.06,,Single-ply,SBD,M
Boys,67.13,1,Peyton Reed,Keller Timber Creek,65.09,170.1,83.91,170.1,424.11,Single-ply,SBD,M
Boys,67.13,2,Kai Green,Keller Central,66.95,136.08,70.31,142.88,349.27,Single-ply,SBD,M
Boys,67.13,3,Colby Copeninger,Keller Fossil Ridge,61.46,79.38,58.97,97.52,235.87,Single-ply,SBD,M
Boys,67.13,DQ,Gage Trujillo,Keller,63.14,129.27,83.91,102.06,,Single-ply,SBD,M
Boys,74.84,1,Jett Ertle,Keller,74.75,233.6,136.08,233.6,603.28,Single-ply,SBD,M
Boys,74.84,2,Jacob Yochim,Keller Timber Creek,72.71,188.24,111.13,201.85,501.22,Single-ply,SBD,M
Boys,74.84,3,David Casillas,Keller Timber Creek,74.39,151.95,106.59,142.88,401.43,Single-ply,SBD,M
Boys,74.84,4,Jack Hecker,Keller Central,74.62,129.27,104.33,142.88,376.48,Single-ply,SBD,M
Boys,74.84,5,Keegan Burton,Keller Central,67.81,136.08,83.91,142.88,362.87,Single-ply,SBD,M
Boys,74.84,6,Joshua Gonzalez,Keller Fossil Ridge,67.27,99.79,68.04,142.88,310.71,Single-ply,SBD,M
Boys,74.84,7,John Vawar,Keller Fossil Ridge,73.62,97.52,61.23,102.06,260.82,Single-ply,SBD,M
Boys,74.84,DQ,Will Vuong,Keller Central,74.84,61.23,90.72,102.06,,Single-ply,SBD,M
Boys,82.1,1,Noah Gnacinski,Keller Timber Creek,78.47,190.51,120.2,165.56,476.27,Single-ply,SBD,M
Boys,82.1,2,Carlos Encarnacion,Keller Central,77.7,174.63,108.86,183.7,467.2,Single-ply,SBD,M
Boys,82.1,3,Calvin Ball,Keller,77.88,138.35,68.04,149.69,356.07,Single-ply,SBD,M
Boys,82.1,4,Brock Allbritton,Keller Timber Creek,77.02,163.29,83.91,102.06,349.27,Single-ply,SBD,M
Boys,82.1,DQ,Hunter McDavid,Keller Central,82.1,142.88,92.99,142.88,,Single-ply,SBD,M
Boys,82.1,DQ,Cj Garnett,Keller Central,82.1,142.88,74.84,154.22,,Single-ply,SBD,M
Boys,82.1,DQ,Colton David,Keller Central,82.1,,,,,Single-ply,SBD,M
Boys,82.1,DQ,Nhat Vu,Keller Fossil Ridge,75.3,124.74,86.18,142.88,,Single-ply,SBD,M
Boys,82.1,DQ,Andre Phanahm,Keller Fossil Ridge,79.38,102.06,52.16,83.91,,Single-ply,SBD,M
Boys,82.1,DQ,Caleb Nichter,Keller,81.65,165.56,90.72,163.29,,Single-ply,SBD,M
Boys,82.1,DQ,David Ciarletta,Keller Timber Creek,80.92,188.24,102.06,161.03,,Single-ply,SBD,M
Boys,89.81,1,Ty Nicholson,Keller Timber Creek,84.01,254.01,133.81,213.19,601.01,Single-ply,SBD,M
Boys,89.81,2,Zack Luna,Keller,84.55,192.78,129.27,206.38,528.44,Single-ply,SBD,M
Boys,89.81,3,Eric Simpson,Keller Central,82.69,142.88,83.91,183.7,410.5,Single-ply,SBD,M
Boys,89.81,4,Gage Haskin,Keller Timber Creek,86.73,127.01,92.99,149.69,369.68,Single-ply,SBD,M
Boys,89.81,DQ,Austin Compton,Keller Timber Creek,89.81,151.95,92.99,165.56,,Single-ply,SBD,M
Boys,89.81,DQ,Gandy Getz,Keller Timber Creek,87.41,154.22,68.04,,,Single-ply,SBD,M
Boys,89.81,DQ,Blake Irving,Keller Timber Creek,89.81,210.92,102.06,183.7,,Single-ply,SBD,M
Boys,99.79,1,John Hester,Keller Timber Creek,96.07,208.65,142.88,195.04,546.58,Single-ply,SBD,M
Boys,99.79,2,Landon Sleeper,Keller Central,96.16,226.8,127.01,192.78,546.58,Single-ply,SBD,M
Boys,99.79,3,James Williams,Keller Timber Creek,93.76,183.7,111.13,174.63,469.47,Single-ply,SBD,M
Boys,99.79,4,Max Arnold,Keller Timber Creek,91.94,147.42,97.52,170.1,415.04,Single-ply,SBD,M
Boys,99.79,5,Sean Smith,Keller Fossil Ridge,93.39,142.88,88.45,181.44,412.77,Single-ply,SBD,M
Boys,99.79,6,Roen Alonso,Keller Central,95.35,161.03,83.91,151.95,396.89,Single-ply,SBD,M
Boys,99.79,7,Oscar Gurrola,Keller Fossil Ridge,99.34,113.4,56.7,147.42,317.51,Single-ply,SBD,M
Boys,99.79,8,Grant McLaughlin,Keller,91.67,113.4,70.31,124.74,308.44,Single-ply,SBD,M
Boys,99.79,DQ,Cade McGuffin,Keller Central,99.79,142.88,92.99,147.42,,Single-ply,SBD,M
Boys,99.79,DQ,Alexander Awan,Keller Timber Creek,99.79,124.74,83.91,124.74,,Single-ply,SBD,M
Boys,99.79,DQ,Evan Johnson,Keller Timber Creek,96.66,183.7,92.99,174.63,,Single-ply,SBD,M
Boys,109.77,1,Sean Payne,Keller,105.05,249.48,158.76,233.6,641.83,Single-ply,SBD,M
Boys,109.77,2,Rodney Banks,Keller,100.15,226.8,147.42,217.72,591.94,Single-ply,SBD,M
Boys,109.77,3,Gelvinn Pluas,Keller Timber Creek,107.91,226.8,124.74,174.63,526.17,Single-ply,SBD,M
Boys,109.77,4,Joshua Clenin,Keller Timber Creek,100.7,174.63,106.59,165.56,446.79,Single-ply,SBD,M
Boys,109.77,5,Kevin McMurtrey,Keller Fossil Ridge,102.74,163.29,95.25,174.63,433.18,Single-ply,SBD,M
Boys,109.77,6,Danny Zuniga,Keller Timber Creek,106.14,165.56,106.59,158.76,430.91,Single-ply,SBD,M
Boys,109.77,7,Harrison Barsanti,Keller Timber Creek,105.05,142.88,102.06,156.49,401.43,Single-ply,SBD,M
Boys,109.77,DQ,Isaac Acree,Keller Timber Creek,107.41,156.49,95.25,142.88,,Single-ply,SBD,M
Boys,109.77,DQ,Louis Bandlow,Keller Central,109.77,142.88,92.99,142.88,,Single-ply,SBD,M
Boys,124.74,1,Jace Merrit,Keller Central,116.07,192.78,97.52,170.1,460.4,Single-ply,SBD,M
Boys,124.74,2,Pablo Hinojosa,Keller Timber Creek,115.08,183.7,102.06,165.56,451.32,Single-ply,SBD,M
Boys,124.74,3,Jt Sleeper,Keller Central,111.08,172.37,74.84,142.88,390.09,Single-ply,SBD,M
Boys,124.74,DQ,Raul Chavez,Keller Central,124.74,,,,,Single-ply,SBD,M
Boys,124.74,DQ,Noah Perez,Keller Timber Creek,124.74,174.63,90.72,,,Single-ply,SBD,M
Boys,124.74,DQ,Garrett Downs,Keller Timber Creek,109.81,142.88,83.91,102.06,,Single-ply,SBD,M
Boys,124.74,DQ,Alex Cabrera,Keller Timber Creek,113.22,183.7,124.74,174.63,,Single-ply,SBD,M
Boys,124.74,DQ,Kylen Patrias,Keller Fossil Ridge,120.56,142.88,90.72,142.88,,Single-ply,SBD,M
Boys,124.74+,1,Alex Ederson,Keller Fossil Ridge,136.98,238.14,124.74,263.08,625.96,Single-ply,SBD,M
Boys,124.74+,2,Michael Bullington,Keller Central,131.81,204.12,127.01,192.78,523.9,Single-ply,SBD,M
Boys,124.74+,3,Adrian Alcantara,Keller Central,127.91,204.12,102.06,192.78,498.95,Single-ply,SBD,M
Boys,124.74+,4,Logan McDonald,Keller Central,128.14,156.49,92.99,190.51,439.98,Single-ply,SBD,M
Boys,124.74+,DQ,Andrew Draeger,Keller Central,127.01,124.74,77.11,142.88,,Single-ply,SBD,M
